X,Y,Y_error
100,96.204,5.513334
400,314.746,22.254019
700,542.802,40.561454
1000,680.894,53.845467
1300,907.170,69.114359
1600,930.011,86.374367
1900,1330.134,94.034810
2200,1506.572,122.557089
2500,1644.772,129.075396
2800,1676.480,131.197493
3100,1834.861,144.094916
3400,2132.286,169.912684
3700,2292.051,171.466097
4000,2437.464,169.522348
4300,2750.771,210.389150
4600,2468.687,203.325751
4900,2835.051,215.587560
5200,2997.892,238.796525
5500,3321.666,247.783259
5800,3306.486,239.448854
6100,3272.098,263.598130
6400,3863.641,282.223183
6700,3865.079,274.339864
7000,3899.090,298.229034
7300,4096.840,322.965403
7600,4356.011,323.996436
7900,3984.053,309.429626
8200,4550.164,351.761814
8500,5529.689,341.641073
8800,4923.974,408.055775
9100,4697.196,399.795613
9400,5261.742,378.948701
9700,5704.382,382.146504
10000,6170.962,413.592767
10300,6171.213,398.341923
10600,6224.343,468.347938
10900,5284.457,393.748015
11200,5748.357,512.527647
11500,6681.012,506.436321
11800,7677.299,530.164930
12100,6992.179,468.637216
12400,6268.695,533.371455
12700,7287.338,552.036222
13000,7073.131,557.324734
13300,6852.593,449.823870
13600,8093.124,578.651995
13900,7225.073,531.879063
14200,6925.399,587.784016
14500,8401.107,505.556773
14800,8031.631,590.598514
15100,8353.410,628.504634
15400,8175.461,579.242815
15700,9620.972,642.721999
16000,8873.118,711.006217
16300,8377.366,726.552708
16600,10132.623,643.946282
16900,8728.982,605.463324
17200,10224.637,742.620027
17500,10410.121,701.196661
17800,10225.176,854.692002
18100,10230.050,841.429380
18400,9448.923,719.456445
18700,10100.879,777.843587
19000,11295.834,837.636933
19300,11472.343,757.108609
19600,10568.555,728.064736
19900,10881.017,762.851773
20200,12044.947,860.959497
20500,13060.065,744.968905
20800,11458.746,802.686903
21100,12078.382,922.200630
21400,13021.109,844.472155
21700,12770.643,866.880070
22000,11725.489,730.290082
22300,11850.650,799.979267
22600,13643.227,838.655295
22900,13257.744,969.787134
23200,13439.775,905.518543
23500,12970.318,998.849056
23800,14120.130,890.559564
24100,12861.236,784.838886
24400,12320.682,881.043012
24700,14026.659,931.797830
25000,14386.566,847.972960
25300,13113.860,939.503298
25600,12283.830,982.872758
25900,14643.867,983.658991
26200,13261.413,943.801028
26500,15335.121,877.529036
26800,17035.684,1151.920150
27100,14789.387,932.251864
27400,15000.051,978.858745
27700,16229.952,1096.268462
28000,14814.261,1022.786021
28300,13940.167,810.242026
28600,14588.094,999.554912
28900,15180.535,1018.843271
29200,16398.926,965.798281
29500,13329.254,877.254504
29800,16264.844,1087.723601
30100,16589.590,1191.654466
30400,17129.352,1031.826360
30700,16236.877,976.603296
31000,18023.140,1133.934993
31300,15502.116,1052.717034
31600,17417.318,1169.883716
31900,17725.067,1296.021466
32200,17014.802,1320.574481
32500,20465.838,1282.485866
32800,19030.507,1316.236056
33100,18634.179,1393.222139
33400,19327.789,1233.206555
33700,18456.644,1480.777419
34000,18593.532,1222.797522
34300,17957.745,1171.438489
34600,18863.260,1212.619633
34900,19125.111,1214.429905
35200,19106.352,1131.757577
35500,17229.081,1248.575249
35800,16751.765,1130.396160
36100,20406.576,1585.119653
36400,19802.174,1206.926773
36700,20373.842,1153.650397
37000,19304.120,1473.492013
37300,20285.768,1312.075667
37600,19696.887,1247.716302
37900,19889.386,1284.445686
38200,21116.049,1267.250080
38500,22907.960,1602.947847
38800,21052.578,1578.026830
39100,21529.409,1495.647389
39400,19890.627,1287.340827
39700,20385.461,1369.939330
40000,18809.034,1593.576298
40300,23057.995,1552.507206
40600,23969.733,1427.065347
40900,22996.629,1594.564208
41200,22239.062,1106.124204
41500,24894.421,1611.028009
41800,21331.066,1238.634182
42100,21183.621,1188.624158
42400,22517.100,1731.451334
42700,22778.771,1095.701067
43000,21286.588,1499.906655
43300,23117.545,1274.253837
43600,21237.955,1393.782974
43900,24197.519,1491.434884
44200,22608.610,1573.682361
44500,28935.542,1721.139923
44800,26147.289,1796.916920
45100,23004.884,1327.656331
45400,22759.041,1284.784068
45700,25151.847,1781.567612
46000,23480.061,1417.986875
46300,28081.088,1697.562911
46600,26340.723,1398.953192
46900,26185.760,1736.600444
47200,27980.693,1902.071795
47500,23648.746,1346.527674
47800,25128.699,1672.043476
48100,26090.779,1740.604559
48400,24678.955,1697.629893
48700,26681.889,1509.434529
49000,24028.959,1267.393081
49300,29852.172,2041.884840
49600,25673.534,1718.452730
49900,27009.477,1513.120127
