%!PS-Adobe-3.0 EPSF-3.0
%%Creator: (MATLAB, The Mathworks, Inc. Version 9.4.0.813654 \(R2018a\). Operating System: Windows 10)
%%Title: C:/Users/ravi/Dropbox/JMLR_Response/revision_3/setup_2.eps
%%CreationDate: 2020-01-22T11:51:21
%%Pages: (atend)
%%BoundingBox: 0 0 577 336
%%LanguageLevel: 3
%%EndComments
%%BeginProlog
%%BeginResource: procset (Apache XML Graphics Std ProcSet) 1.2 0
%%Version: 1.2 0
%%Copyright: (Copyright 2001-2003,2010 The Apache Software Foundation. License terms: http://www.apache.org/licenses/LICENSE-2.0)
/bd{bind def}bind def
/ld{load def}bd
/GR/grestore ld
/GS/gsave ld
/RM/rmoveto ld
/C/curveto ld
/t/show ld
/L/lineto ld
/ML/setmiterlimit ld
/CT/concat ld
/f/fill ld
/N/newpath ld
/S/stroke ld
/CC/setcmykcolor ld
/A/ashow ld
/cp/closepath ld
/RC/setrgbcolor ld
/LJ/setlinejoin ld
/GC/setgray ld
/LW/setlinewidth ld
/M/moveto ld
/re {4 2 roll M
1 index 0 rlineto
0 exch rlineto
neg 0 rlineto
cp } bd
/_ctm matrix def
/_tm matrix def
/BT { _ctm currentmatrix pop matrix _tm copy pop 0 0 moveto } bd
/ET { _ctm setmatrix } bd
/iTm { _ctm setmatrix _tm concat } bd
/Tm { _tm astore pop iTm 0 0 moveto } bd
/ux 0.0 def
/uy 0.0 def
/F {
  /Tp exch def
  /Tf exch def
  Tf findfont Tp scalefont setfont
  /cf Tf def  /cs Tp def
} bd
/ULS {currentpoint /uy exch def /ux exch def} bd
/ULE {
  /Tcx currentpoint pop def
  gsave
  newpath
  cf findfont cs scalefont dup
  /FontMatrix get 0 get /Ts exch def /FontInfo get dup
  /UnderlinePosition get Ts mul /To exch def
  /UnderlineThickness get Ts mul /Tt exch def
  ux uy To add moveto  Tcx uy To add lineto
  Tt setlinewidth stroke
  grestore
} bd
/OLE {
  /Tcx currentpoint pop def
  gsave
  newpath
  cf findfont cs scalefont dup
  /FontMatrix get 0 get /Ts exch def /FontInfo get dup
  /UnderlinePosition get Ts mul /To exch def
  /UnderlineThickness get Ts mul /Tt exch def
  ux uy To add cs add moveto Tcx uy To add cs add lineto
  Tt setlinewidth stroke
  grestore
} bd
/SOE {
  /Tcx currentpoint pop def
  gsave
  newpath
  cf findfont cs scalefont dup
  /FontMatrix get 0 get /Ts exch def /FontInfo get dup
  /UnderlinePosition get Ts mul /To exch def
  /UnderlineThickness get Ts mul /Tt exch def
  ux uy To add cs 10 mul 26 idiv add moveto Tcx uy To add cs 10 mul 26 idiv add lineto
  Tt setlinewidth stroke
  grestore
} bd
/QT {
/Y22 exch store
/X22 exch store
/Y21 exch store
/X21 exch store
currentpoint
/Y21 load 2 mul add 3 div exch
/X21 load 2 mul add 3 div exch
/X21 load 2 mul /X22 load add 3 div
/Y21 load 2 mul /Y22 load add 3 div
/X22 load /Y22 load curveto
} bd
/SSPD {
dup length /d exch dict def
{
/v exch def
/k exch def
currentpagedevice k known {
/cpdv currentpagedevice k get def
v cpdv ne {
/upd false def
/nullv v type /nulltype eq def
/nullcpdv cpdv type /nulltype eq def
nullv nullcpdv or
{
/upd true def
} {
/sametype v type cpdv type eq def
sametype {
v type /arraytype eq {
/vlen v length def
/cpdvlen cpdv length def
vlen cpdvlen eq {
0 1 vlen 1 sub {
/i exch def
/obj v i get def
/cpdobj cpdv i get def
obj cpdobj ne {
/upd true def
exit
} if
} for
} {
/upd true def
} ifelse
} {
v type /dicttype eq {
v {
/dv exch def
/dk exch def
/cpddv cpdv dk get def
dv cpddv ne {
/upd true def
exit
} if
} forall
} {
/upd true def
} ifelse
} ifelse
} if
} ifelse
upd true eq {
d k v put
} if
} if
} if
} forall
d length 0 gt {
d setpagedevice
} if
} bd
/RE { % /NewFontName [NewEncodingArray] /FontName RE -
  findfont dup length dict begin
  {
    1 index /FID ne
    {def} {pop pop} ifelse
  } forall
  /Encoding exch def
  /FontName 1 index def
  currentdict definefont pop
  end
} bind def
%%EndResource
%%BeginResource: procset (Apache XML Graphics EPS ProcSet) 1.0 0
%%Version: 1.0 0
%%Copyright: (Copyright 2002-2003 The Apache Software Foundation. License terms: http://www.apache.org/licenses/LICENSE-2.0)
/BeginEPSF { %def
/b4_Inc_state save def         % Save state for cleanup
/dict_count countdictstack def % Count objects on dict stack
/op_count count 1 sub def      % Count objects on operand stack
userdict begin                 % Push userdict on dict stack
/showpage { } def              % Redefine showpage, { } = null proc
0 setgray 0 setlinecap         % Prepare graphics state
1 setlinewidth 0 setlinejoin
10 setmiterlimit [ ] 0 setdash newpath
/languagelevel where           % If level not equal to 1 then
{pop languagelevel             % set strokeadjust and
1 ne                           % overprint to their defaults.
{false setstrokeadjust false setoverprint
} if
} if
} bd
/EndEPSF { %def
count op_count sub {pop} repeat            % Clean up stacks
countdictstack dict_count sub {end} repeat
b4_Inc_state restore
} bd
%%EndResource
%FOPBeginFontDict
%%IncludeResource: font Courier-Oblique
%%IncludeResource: font Courier-BoldOblique
%%IncludeResource: font Courier-Bold
%%IncludeResource: font ZapfDingbats
%%IncludeResource: font Symbol
%%IncludeResource: font Helvetica
%%IncludeResource: font Helvetica-Oblique
%%IncludeResource: font Helvetica-Bold
%%IncludeResource: font Helvetica-BoldOblique
%%IncludeResource: font Times-Roman
%%IncludeResource: font Times-Italic
%%IncludeResource: font Times-Bold
%%IncludeResource: font Times-BoldItalic
%%IncludeResource: font Courier
%FOPEndFontDict
%%BeginResource: encoding WinAnsiEncoding
/WinAnsiEncoding [
/.notdef /.notdef /.notdef /.notdef /.notdef
/.notdef /.notdef /.notdef /.notdef /.notdef
/.notdef /.notdef /.notdef /.notdef /.notdef
/.notdef /.notdef /.notdef /.notdef /.notdef
/.notdef /.notdef /.notdef /.notdef /.notdef
/.notdef /.notdef /.notdef /.notdef /.notdef
/.notdef /.notdef /space /exclam /quotedbl
/numbersign /dollar /percent /ampersand /quotesingle
/parenleft /parenright /asterisk /plus /comma
/hyphen /period /slash /zero /one
/two /three /four /five /six
/seven /eight /nine /colon /semicolon
/less /equal /greater /question /at
/A /B /C /D /E
/F /G /H /I /J
/K /L /M /N /O
/P /Q /R /S /T
/U /V /W /X /Y
/Z /bracketleft /backslash /bracketright /asciicircum
/underscore /quoteleft /a /b /c
/d /e /f /g /h
/i /j /k /l /m
/n /o /p /q /r
/s /t /u /v /w
/x /y /z /braceleft /bar
/braceright /asciitilde /bullet /Euro /bullet
/quotesinglbase /florin /quotedblbase /ellipsis /dagger
/daggerdbl /circumflex /perthousand /Scaron /guilsinglleft
/OE /bullet /Zcaron /bullet /bullet
/quoteleft /quoteright /quotedblleft /quotedblright /bullet
/endash /emdash /asciitilde /trademark /scaron
/guilsinglright /oe /bullet /zcaron /Ydieresis
/space /exclamdown /cent /sterling /currency
/yen /brokenbar /section /dieresis /copyright
/ordfeminine /guillemotleft /logicalnot /sfthyphen /registered
/macron /degree /plusminus /twosuperior /threesuperior
/acute /mu /paragraph /middot /cedilla
/onesuperior /ordmasculine /guillemotright /onequarter /onehalf
/threequarters /questiondown /Agrave /Aacute /Acircumflex
/Atilde /Adieresis /Aring /AE /Ccedilla
/Egrave /Eacute /Ecircumflex /Edieresis /Igrave
/Iacute /Icircumflex /Idieresis /Eth /Ntilde
/Ograve /Oacute /Ocircumflex /Otilde /Odieresis
/multiply /Oslash /Ugrave /Uacute /Ucircumflex
/Udieresis /Yacute /Thorn /germandbls /agrave
/aacute /acircumflex /atilde /adieresis /aring
/ae /ccedilla /egrave /eacute /ecircumflex
/edieresis /igrave /iacute /icircumflex /idieresis
/eth /ntilde /ograve /oacute /ocircumflex
/otilde /odieresis /divide /oslash /ugrave
/uacute /ucircumflex /udieresis /yacute /thorn
/ydieresis
] def
%%EndResource
%FOPBeginFontReencode
/Courier-Oblique findfont
dup length dict begin
  {1 index /FID ne {def} {pop pop} ifelse} forall
  /Encoding WinAnsiEncoding def
  currentdict
end
/Courier-Oblique exch definefont pop
/Courier-BoldOblique findfont
dup length dict begin
  {1 index /FID ne {def} {pop pop} ifelse} forall
  /Encoding WinAnsiEncoding def
  currentdict
end
/Courier-BoldOblique exch definefont pop
/Courier-Bold findfont
dup length dict begin
  {1 index /FID ne {def} {pop pop} ifelse} forall
  /Encoding WinAnsiEncoding def
  currentdict
end
/Courier-Bold exch definefont pop
/Helvetica findfont
dup length dict begin
  {1 index /FID ne {def} {pop pop} ifelse} forall
  /Encoding WinAnsiEncoding def
  currentdict
end
/Helvetica exch definefont pop
/Helvetica-Oblique findfont
dup length dict begin
  {1 index /FID ne {def} {pop pop} ifelse} forall
  /Encoding WinAnsiEncoding def
  currentdict
end
/Helvetica-Oblique exch definefont pop
/Helvetica-Bold findfont
dup length dict begin
  {1 index /FID ne {def} {pop pop} ifelse} forall
  /Encoding WinAnsiEncoding def
  currentdict
end
/Helvetica-Bold exch definefont pop
/Helvetica-BoldOblique findfont
dup length dict begin
  {1 index /FID ne {def} {pop pop} ifelse} forall
  /Encoding WinAnsiEncoding def
  currentdict
end
/Helvetica-BoldOblique exch definefont pop
/Times-Roman findfont
dup length dict begin
  {1 index /FID ne {def} {pop pop} ifelse} forall
  /Encoding WinAnsiEncoding def
  currentdict
end
/Times-Roman exch definefont pop
/Times-Italic findfont
dup length dict begin
  {1 index /FID ne {def} {pop pop} ifelse} forall
  /Encoding WinAnsiEncoding def
  currentdict
end
/Times-Italic exch definefont pop
/Times-Bold findfont
dup length dict begin
  {1 index /FID ne {def} {pop pop} ifelse} forall
  /Encoding WinAnsiEncoding def
  currentdict
end
/Times-Bold exch definefont pop
/Times-BoldItalic findfont
dup length dict begin
  {1 index /FID ne {def} {pop pop} ifelse} forall
  /Encoding WinAnsiEncoding def
  currentdict
end
/Times-BoldItalic exch definefont pop
/Courier findfont
dup length dict begin
  {1 index /FID ne {def} {pop pop} ifelse} forall
  /Encoding WinAnsiEncoding def
  currentdict
end
/Courier exch definefont pop
%FOPEndFontReencode
%%EndProlog
%%Page: 1 1
%%PageBoundingBox: 0 0 577 336
%%BeginPageSetup
[1 0 0 -1 0 336] CT
%%EndPageSetup
GS
[0.50043 0 0 0.50075 0 0.5] CT
1 GC
N
0 0 1153 670 re
f
GR
GS
[0.50043 0 0 0.50075 0 0.5] CT
1 GC
N
0 0 1153 670 re
f
GR
GS
[0.50043 0 0 0.50075 0 0.5] CT
1 GC
N
150 580 M
1044 580 L
1044 50 L
150 50 L
cp
f
GR
GS
[0.50043 0 0 0.50075 0 0.5] CT
0.873 GC
1 LJ
N
150 580 M
150 50 L
S
GR
GS
[0.50043 0 0 0.50075 0 0.5] CT
0.873 GC
1 LJ
N
261.75 580 M
261.75 50 L
S
GR
GS
[0.50043 0 0 0.50075 0 0.5] CT
0.873 GC
1 LJ
N
373.5 580 M
373.5 50 L
S
GR
GS
[0.50043 0 0 0.50075 0 0.5] CT
0.873 GC
1 LJ
N
485.25 580 M
485.25 50 L
S
GR
GS
[0.50043 0 0 0.50075 0 0.5] CT
0.873 GC
1 LJ
N
597 580 M
597 50 L
S
GR
GS
[0.50043 0 0 0.50075 0 0.5] CT
0.873 GC
1 LJ
N
708.75 580 M
708.75 50 L
S
GR
GS
[0.50043 0 0 0.50075 0 0.5] CT
0.873 GC
1 LJ
N
820.5 580 M
820.5 50 L
S
GR
GS
[0.50043 0 0 0.50075 0 0.5] CT
0.873 GC
1 LJ
N
932.25 580 M
932.25 50 L
S
GR
GS
[0.50043 0 0 0.50075 0 0.5] CT
0.873 GC
1 LJ
N
1044 580 M
1044 50 L
S
GR
GS
[0.50043 0 0 0.50075 0 0.5] CT
0.873 GC
1 LJ
N
1044 580 M
150 580 L
S
GR
GS
[0.50043 0 0 0.50075 0 0.5] CT
0.873 GC
1 LJ
N
1044 474 M
150 474 L
S
GR
GS
[0.50043 0 0 0.50075 0 0.5] CT
0.873 GC
1 LJ
N
1044 368 M
150 368 L
S
GR
GS
[0.50043 0 0 0.50075 0 0.5] CT
0.873 GC
1 LJ
N
1044 262 M
150 262 L
S
GR
GS
[0.50043 0 0 0.50075 0 0.5] CT
0.873 GC
1 LJ
N
1044 156 M
150 156 L
S
GR
GS
[0.50043 0 0 0.50075 0 0.5] CT
0.873 GC
1 LJ
N
1044 50 M
150 50 L
S
GR
GS
[0.50043 0 0 0.50075 0 0.5] CT
0.149 GC
2 setlinecap
1 LJ
N
150 580 M
1044 580 L
S
GR
GS
[0.50043 0 0 0.50075 0 0.5] CT
0.149 GC
2 setlinecap
1 LJ
N
150 50 M
1044 50 L
S
GR
GS
[0.50043 0 0 0.50075 0 0.5] CT
0.149 GC
2 setlinecap
1 LJ
N
150 580 M
150 571.06 L
S
GR
GS
[0.50043 0 0 0.50075 0 0.5] CT
0.149 GC
2 setlinecap
1 LJ
N
261.75 580 M
261.75 571.06 L
S
GR
GS
[0.50043 0 0 0.50075 0 0.5] CT
0.149 GC
2 setlinecap
1 LJ
N
373.5 580 M
373.5 571.06 L
S
GR
GS
[0.50043 0 0 0.50075 0 0.5] CT
0.149 GC
2 setlinecap
1 LJ
N
485.25 580 M
485.25 571.06 L
S
GR
GS
[0.50043 0 0 0.50075 0 0.5] CT
0.149 GC
2 setlinecap
1 LJ
N
597 580 M
597 571.06 L
S
GR
GS
[0.50043 0 0 0.50075 0 0.5] CT
0.149 GC
2 setlinecap
1 LJ
N
708.75 580 M
708.75 571.06 L
S
GR
GS
[0.50043 0 0 0.50075 0 0.5] CT
0.149 GC
2 setlinecap
1 LJ
N
820.5 580 M
820.5 571.06 L
S
GR
GS
[0.50043 0 0 0.50075 0 0.5] CT
0.149 GC
2 setlinecap
1 LJ
N
932.25 580 M
932.25 571.06 L
S
GR
GS
[0.50043 0 0 0.50075 0 0.5] CT
0.149 GC
2 setlinecap
1 LJ
N
1044 580 M
1044 571.06 L
S
GR
GS
[0.50043 0 0 0.50075 0 0.5] CT
0.149 GC
2 setlinecap
1 LJ
N
150 50 M
150 58.94 L
S
GR
GS
[0.50043 0 0 0.50075 0 0.5] CT
0.149 GC
2 setlinecap
1 LJ
N
261.75 50 M
261.75 58.94 L
S
GR
GS
[0.50043 0 0 0.50075 0 0.5] CT
0.149 GC
2 setlinecap
1 LJ
N
373.5 50 M
373.5 58.94 L
S
GR
GS
[0.50043 0 0 0.50075 0 0.5] CT
0.149 GC
2 setlinecap
1 LJ
N
485.25 50 M
485.25 58.94 L
S
GR
GS
[0.50043 0 0 0.50075 0 0.5] CT
0.149 GC
2 setlinecap
1 LJ
N
597 50 M
597 58.94 L
S
GR
GS
[0.50043 0 0 0.50075 0 0.5] CT
0.149 GC
2 setlinecap
1 LJ
N
708.75 50 M
708.75 58.94 L
S
GR
GS
[0.50043 0 0 0.50075 0 0.5] CT
0.149 GC
2 setlinecap
1 LJ
N
820.5 50 M
820.5 58.94 L
S
GR
GS
[0.50043 0 0 0.50075 0 0.5] CT
0.149 GC
2 setlinecap
1 LJ
N
932.25 50 M
932.25 58.94 L
S
GR
GS
[0.50043 0 0 0.50075 0 0.5] CT
0.149 GC
2 setlinecap
1 LJ
N
1044 50 M
1044 58.94 L
S
GR
GS
[0.50043 0 0 0.50075 75.06505 295.73999] CT
0.149 GC
/Helvetica 28 F
GS
[1 0 0 1 0 0] CT
-8 29 moveto 
1 -1 scale
(0) t 
GR
GR
GS
[0.50043 0 0 0.50075 130.98851 295.73999] CT
0.149 GC
/Helvetica 28 F
GS
[1 0 0 1 0 0] CT
-8 29 moveto 
1 -1 scale
(1) t 
GR
GR
GS
[0.50043 0 0 0.50075 186.91197 295.73999] CT
0.149 GC
/Helvetica 28 F
GS
[1 0 0 1 0 0] CT
-8 29 moveto 
1 -1 scale
(2) t 
GR
GR
GS
[0.50043 0 0 0.50075 242.83543 295.73999] CT
0.149 GC
/Helvetica 28 F
GS
[1 0 0 1 0 0] CT
-8 29 moveto 
1 -1 scale
(3) t 
GR
GR
GS
[0.50043 0 0 0.50075 298.75889 295.73999] CT
0.149 GC
/Helvetica 28 F
GS
[1 0 0 1 0 0] CT
-8 29 moveto 
1 -1 scale
(4) t 
GR
GR
GS
[0.50043 0 0 0.50075 354.68235 295.73999] CT
0.149 GC
/Helvetica 28 F
GS
[1 0 0 1 0 0] CT
-8 29 moveto 
1 -1 scale
(5) t 
GR
GR
GS
[0.50043 0 0 0.50075 410.60581 295.73999] CT
0.149 GC
/Helvetica 28 F
GS
[1 0 0 1 0 0] CT
-8 29 moveto 
1 -1 scale
(6) t 
GR
GR
GS
[0.50043 0 0 0.50075 466.52927 295.73999] CT
0.149 GC
/Helvetica 28 F
GS
[1 0 0 1 0 0] CT
-8 29 moveto 
1 -1 scale
(7) t 
GR
GR
GS
[0.50043 0 0 0.50075 522.45273 295.73999] CT
0.149 GC
/Helvetica 28 F
GS
[1 0 0 1 0 0] CT
-8 29 moveto 
1 -1 scale
(8) t 
GR
GR
GS
[0.50043 0 0 0.50075 298.7591 314.2676] CT
0.149 GC
/Helvetica 30.8 F
GS
[1 0 0 1 0 0] CT
-195.5 31 moveto 
1 -1 scale
(Expected sample complexity) t 
GR
GR
GS
[0.50043 0 0 0.50075 488.92368 332.99552] CT
0.149 GC
N
4.109 -0.813 M
4.109 -1.031 4.25 -1.203 QT
10.078 -7 L
4.25 -12.828 L
4.109 -12.969 4.109 -13.188 QT
4.109 -13.406 4.273 -13.578 QT
4.438 -13.75 4.672 -13.75 QT
4.875 -13.75 5.094 -13.578 QT
10.891 -7.781 L
16.672 -13.578 L
16.906 -13.75 17.078 -13.75 QT
17.313 -13.75 17.477 -13.586 QT
17.641 -13.422 17.641 -13.188 QT
17.641 -12.969 17.5 -12.828 QT
11.672 -7 L
17.5 -1.203 L
17.641 -1.031 17.641 -0.813 QT
17.641 -0.578 17.477 -0.414 QT
17.313 -0.25 17.078 -0.25 QT
16.875 -0.25 16.672 -0.453 QT
10.891 -6.219 L
5.094 -0.453 L
4.891 -0.25 4.672 -0.25 QT
4.438 -0.25 4.273 -0.43 QT
4.109 -0.609 4.109 -0.813 QT
cp
f
GR
GS
[0.50043 0 0 0.50075 499.93322 332.99552] CT
0.149 GC
/Helvetica 28 F
GS
[1 0 0 1 0 0] CT
0 0 moveto 
1 -1 scale
(10) t 
GR
GR
GS
[0.50043 0 0 0.50075 515.94709 325.98507] CT
0.149 GC
/Helvetica 22.4 F
GS
[1 0 0 1 0 0] CT
0 0 moveto 
1 -1 scale
(4) t 
GR
GR
GS
[0.50043 0 0 0.50075 0 0.5] CT
0.149 GC
2 setlinecap
1 LJ
N
150 580 M
150 50 L
S
GR
GS
[0.50043 0 0 0.50075 0 0.5] CT
0.149 GC
2 setlinecap
1 LJ
N
1044 580 M
1044 50 L
S
GR
GS
[0.50043 0 0 0.50075 0 0.5] CT
0.149 GC
2 setlinecap
1 LJ
N
150 580 M
158.94 580 L
S
GR
GS
[0.50043 0 0 0.50075 0 0.5] CT
0.149 GC
2 setlinecap
1 LJ
N
150 474 M
158.94 474 L
S
GR
GS
[0.50043 0 0 0.50075 0 0.5] CT
0.149 GC
2 setlinecap
1 LJ
N
150 368 M
158.94 368 L
S
GR
GS
[0.50043 0 0 0.50075 0 0.5] CT
0.149 GC
2 setlinecap
1 LJ
N
150 262 M
158.94 262 L
S
GR
GS
[0.50043 0 0 0.50075 0 0.5] CT
0.149 GC
2 setlinecap
1 LJ
N
150 156 M
158.94 156 L
S
GR
GS
[0.50043 0 0 0.50075 0 0.5] CT
0.149 GC
2 setlinecap
1 LJ
N
150 50 M
158.94 50 L
S
GR
GS
[0.50043 0 0 0.50075 0 0.5] CT
0.149 GC
2 setlinecap
1 LJ
N
1044 580 M
1035.06 580 L
S
GR
GS
[0.50043 0 0 0.50075 0 0.5] CT
0.149 GC
2 setlinecap
1 LJ
N
1044 474 M
1035.06 474 L
S
GR
GS
[0.50043 0 0 0.50075 0 0.5] CT
0.149 GC
2 setlinecap
1 LJ
N
1044 368 M
1035.06 368 L
S
GR
GS
[0.50043 0 0 0.50075 0 0.5] CT
0.149 GC
2 setlinecap
1 LJ
N
1044 262 M
1035.06 262 L
S
GR
GS
[0.50043 0 0 0.50075 0 0.5] CT
0.149 GC
2 setlinecap
1 LJ
N
1044 156 M
1035.06 156 L
S
GR
GS
[0.50043 0 0 0.50075 0 0.5] CT
0.149 GC
2 setlinecap
1 LJ
N
1044 50 M
1035.06 50 L
S
GR
GS
[0.50043 0 0 0.50075 70.26088 290.93284] CT
0.149 GC
/Helvetica 28 F
GS
[1 0 0 1 0 0] CT
-16 11 moveto 
1 -1 scale
(0) t 
GR
GR
GS
[0.50043 0 0 0.50075 70.26088 237.85373] CT
0.149 GC
/Helvetica 28 F
GS
[1 0 0 1 0 0] CT
-39 11 moveto 
1 -1 scale
(0.2) t 
GR
GR
GS
[0.50043 0 0 0.50075 70.26088 184.77463] CT
0.149 GC
/Helvetica 28 F
GS
[1 0 0 1 0 0] CT
-39 11 moveto 
1 -1 scale
(0.4) t 
GR
GR
GS
[0.50043 0 0 0.50075 70.26088 131.69552] CT
0.149 GC
/Helvetica 28 F
GS
[1 0 0 1 0 0] CT
-39 11 moveto 
1 -1 scale
(0.6) t 
GR
GR
GS
[0.50043 0 0 0.50075 70.26088 78.61642] CT
0.149 GC
/Helvetica 28 F
GS
[1 0 0 1 0 0] CT
-39 11 moveto 
1 -1 scale
(0.8) t 
GR
GR
GS
[0.50043 0 0 0.50075 70.26088 25.53731] CT
0.149 GC
/Helvetica 28 F
GS
[1 0 0 1 0 0] CT
-16 11 moveto 
1 -1 scale
(1) t 
GR
GR
GS
[0 -0.50075 0.50043 0 47.74137 158.23495] CT
0.149 GC
/Helvetica 30.8 F
GS
[1 0 0 1 0 0] CT
-174 -46 moveto 
1 -1 scale
(Confidence/probability of ) t 
GR
GR
GS
[0 -0.50075 0.50043 0 47.74137 158.23495] CT
0.149 GC
/Helvetica 30.8 F
GS
[1 0 0 1 0 0] CT
-157.5 -7 moveto 
1 -1 scale
(incorrect identification  ) t 
GR
GR
GS
[0.50043 0 0 0.50075 304.93786 264.39328] CT
0 0 1 RC
10.0 ML
2 LW
N
-5.657 -5.657 M
5.657 5.657 L
-5.657 5.657 M
5.657 -5.657 L
S
GR
GS
[0.50043 0 0 0.50075 303.21007 277.66306] CT
0 0 1 RC
10.0 ML
2 LW
N
-5.657 -5.657 M
5.657 5.657 L
-5.657 5.657 M
5.657 -5.657 L
S
GR
GS
[0.50043 0 0 0.50075 316.05992 288.27889] CT
0 0 1 RC
10.0 ML
2 LW
N
-5.657 -5.657 M
5.657 5.657 L
-5.657 5.657 M
5.657 -5.657 L
S
GR
GS
[0.50043 0 0 0.50075 318.88519 289.60585] CT
0 0 1 RC
10.0 ML
2 LW
N
-5.657 -5.657 M
5.657 5.657 L
-5.657 5.657 M
5.657 -5.657 L
S
GR
GS
[0.50043 0 0 0.50075 332.06131 290.66743] CT
0 0 1 RC
10.0 ML
2 LW
N
-5.657 -5.657 M
5.657 5.657 L
-5.657 5.657 M
5.657 -5.657 L
S
GR
GS
[0.50043 0 0 0.50075 304.93786 25.53731] CT
0 0 1 RC
N
-6 -6 M
-6 6 L
6 6 L
6 -6 L
cp
f
GR
GS
[0.50043 0 0 0.50075 304.93786 25.53731] CT
0 0 1 RC
10.0 ML
N
-6 -6 M
-6 6 L
6 6 L
6 -6 L
cp
S
GR
GS
[0.50043 0 0 0.50075 303.21007 25.53731] CT
0 0 1 RC
N
/f-1193138076{-6 -6 M
-6 6 L
6 6 L
6 -6 L
cp}def
f-1193138076
f
GR
GS
[0.50043 0 0 0.50075 303.21007 25.53731] CT
0 0 1 RC
10.0 ML
N
-6 -6 M
-6 6 L
6 6 L
6 -6 L
cp
S
GR
GS
[0.50043 0 0 0.50075 316.05992 25.53731] CT
0 0 1 RC
N
f-1193138076
f
GR
GS
[0.50043 0 0 0.50075 316.05992 25.53731] CT
0 0 1 RC
10.0 ML
N
-6 -6 M
-6 6 L
6 6 L
6 -6 L
cp
S
GR
GS
[0.50043 0 0 0.50075 318.88519 25.53731] CT
0 0 1 RC
N
f-1193138076
f
GR
GS
[0.50043 0 0 0.50075 318.88519 25.53731] CT
0 0 1 RC
10.0 ML
N
-6 -6 M
-6 6 L
6 6 L
6 -6 L
cp
S
GR
GS
[0.50043 0 0 0.50075 332.06131 25.53731] CT
0 0 1 RC
N
f-1193138076
f
GR
GS
[0.50043 0 0 0.50075 332.06131 25.53731] CT
0 0 1 RC
10.0 ML
N
-6 -6 M
-6 6 L
6 6 L
6 -6 L
cp
S
GR
GS
[0.50043 0 0 0.50075 127.17251 264.39328] CT
10.0 ML
2 LW
N
-5.657 -5.657 M
5.657 5.657 L
-5.657 5.657 M
5.657 -5.657 L
S
GR
GS
[0.50043 0 0 0.50075 127.98765 277.66306] CT
10.0 ML
2 LW
N
-5.657 -5.657 M
5.657 5.657 L
-5.657 5.657 M
5.657 -5.657 L
S
GR
GS
[0.50043 0 0 0.50075 131.8778 288.27889] CT
10.0 ML
2 LW
N
-5.657 -5.657 M
5.657 5.657 L
-5.657 5.657 M
5.657 -5.657 L
S
GR
GS
[0.50043 0 0 0.50075 131.80678 289.60585] CT
10.0 ML
2 LW
N
-5.657 -5.657 M
5.657 5.657 L
-5.657 5.657 M
5.657 -5.657 L
S
GR
GS
[0.50043 0 0 0.50075 134.40475 290.66743] CT
10.0 ML
2 LW
N
-5.657 -5.657 M
5.657 5.657 L
-5.657 5.657 M
5.657 -5.657 L
S
GR
GS
[0.50043 0 0 0.50075 127.17251 290.93284] CT
N
f-1193138076
f
GR
GS
[0.50043 0 0 0.50075 127.17251 290.93284] CT
10.0 ML
N
-6 -6 M
-6 6 L
6 6 L
6 -6 L
cp
S
GR
GS
[0.50043 0 0 0.50075 127.98765 290.93284] CT
N
f-1193138076
f
GR
GS
[0.50043 0 0 0.50075 127.98765 290.93284] CT
10.0 ML
N
-6 -6 M
-6 6 L
6 6 L
6 -6 L
cp
S
GR
GS
[0.50043 0 0 0.50075 131.8778 290.93284] CT
N
f-1193138076
f
GR
GS
[0.50043 0 0 0.50075 131.8778 290.93284] CT
10.0 ML
N
-6 -6 M
-6 6 L
6 6 L
6 -6 L
cp
S
GR
GS
[0.50043 0 0 0.50075 131.80678 290.93284] CT
N
f-1193138076
f
GR
GS
[0.50043 0 0 0.50075 131.80678 290.93284] CT
10.0 ML
N
-6 -6 M
-6 6 L
6 6 L
6 -6 L
cp
S
GR
GS
[0.50043 0 0 0.50075 134.40475 290.93284] CT
N
f-1193138076
f
GR
GS
[0.50043 0 0 0.50075 134.40475 290.93284] CT
10.0 ML
N
-6 -6 M
-6 6 L
6 6 L
6 -6 L
cp
S
GR
GS
[0.50043 0 0 0.50075 444.26233 264.39328] CT
1 0 0 RC
10.0 ML
2 LW
N
-5.657 -5.657 M
5.657 5.657 L
-5.657 5.657 M
5.657 -5.657 L
S
GR
GS
[0.50043 0 0 0.50075 451.19082 277.66306] CT
1 0 0 RC
10.0 ML
2 LW
N
-5.657 -5.657 M
5.657 5.657 L
-5.657 5.657 M
5.657 -5.657 L
S
GR
GS
[0.50043 0 0 0.50075 465.24975 288.27889] CT
1 0 0 RC
10.0 ML
2 LW
N
-5.657 -5.657 M
5.657 5.657 L
-5.657 5.657 M
5.657 -5.657 L
S
GR
GS
[0.50043 0 0 0.50075 470.81109 289.60585] CT
1 0 0 RC
10.0 ML
2 LW
N
-5.657 -5.657 M
5.657 5.657 L
-5.657 5.657 M
5.657 -5.657 L
S
GR
GS
[0.50043 0 0 0.50075 485.89994 290.66743] CT
1 0 0 RC
10.0 ML
2 LW
N
-5.657 -5.657 M
5.657 5.657 L
-5.657 5.657 M
5.657 -5.657 L
S
GR
GS
[0.50043 0 0 0.50075 444.26233 25.53731] CT
1 0 0 RC
N
f-1193138076
f
GR
GS
[0.50043 0 0 0.50075 444.26233 25.53731] CT
1 0 0 RC
10.0 ML
N
-6 -6 M
-6 6 L
6 6 L
6 -6 L
cp
S
GR
GS
[0.50043 0 0 0.50075 451.19082 25.53731] CT
1 0 0 RC
N
f-1193138076
f
GR
GS
[0.50043 0 0 0.50075 451.19082 25.53731] CT
1 0 0 RC
10.0 ML
N
-6 -6 M
-6 6 L
6 6 L
6 -6 L
cp
S
GR
GS
[0.50043 0 0 0.50075 465.24975 25.53731] CT
1 0 0 RC
N
f-1193138076
f
GR
GS
[0.50043 0 0 0.50075 465.24975 25.53731] CT
1 0 0 RC
10.0 ML
N
-6 -6 M
-6 6 L
6 6 L
6 -6 L
cp
S
GR
GS
[0.50043 0 0 0.50075 470.81109 25.53731] CT
1 0 0 RC
N
f-1193138076
f
GR
GS
[0.50043 0 0 0.50075 470.81109 25.53731] CT
1 0 0 RC
10.0 ML
N
-6 -6 M
-6 6 L
6 6 L
6 -6 L
cp
S
GR
GS
[0.50043 0 0 0.50075 485.89994 25.53731] CT
1 0 0 RC
N
f-1193138076
f
GR
GS
[0.50043 0 0 0.50075 485.89994 25.53731] CT
1 0 0 RC
10.0 ML
N
-6 -6 M
-6 6 L
6 6 L
6 -6 L
cp
S
GR
GS
[0.50043 0 0 0.50075 0 0.5] CT
1 GC
N
/f-589964028{791 278 M
791 76 L
177 76 L
177 278 L
cp}def
f-589964028
f
GR
GS
[0.50043 0 0 0.50075 123.88608 48.08268] CT
/Helvetica 25.2 F
GS
[1 0 0 1 0 0] CT
0 10 moveto 
1 -1 scale
(Confidence \(LUCB\)) t 
GR
GR
GS
[0.50043 0 0 0.50075 106.60705 48.08269] CT
0 0 1 RC
10.0 ML
2 LW
N
-5.657 -5.657 M
5.657 5.657 L
-5.657 5.657 M
5.657 -5.657 L
S
GR
GS
[0.50043 0 0 0.50075 123.88608 64.50244] CT
/Helvetica 25.2 F
GS
[1 0 0 1 0 0] CT
0 10 moveto 
1 -1 scale
(Probability of incorrect identification \(LUCB\)) t 
GR
GR
GS
[0.50043 0 0 0.50075 106.60705 64.50245] CT
0 0 1 RC
N
f-1193138076
f
GR
GS
[0.50043 0 0 0.50075 106.60705 64.50245] CT
0 0 1 RC
10.0 ML
N
-6 -6 M
-6 6 L
6 6 L
6 -6 L
cp
S
GR
GS
[0.50043 0 0 0.50075 123.88608 80.92221] CT
/Helvetica 25.2 F
GS
[1 0 0 1 0 0] CT
0 10 moveto 
1 -1 scale
(Confidence \(W-LUCB\)) t 
GR
GR
GS
[0.50043 0 0 0.50075 106.60705 80.92221] CT
10.0 ML
2 LW
N
-5.657 -5.657 M
5.657 5.657 L
-5.657 5.657 M
5.657 -5.657 L
S
GR
GS
[0.50043 0 0 0.50075 123.88608 97.34197] CT
/Helvetica 25.2 F
GS
[1 0 0 1 0 0] CT
0 10 moveto 
1 -1 scale
(Probability of incorrect identification \(W-LUCB\)) t 
GR
GR
GS
[0.50043 0 0 0.50075 106.60705 97.34197] CT
N
f-1193138076
f
GR
GS
[0.50043 0 0 0.50075 106.60705 97.34197] CT
10.0 ML
N
-6 -6 M
-6 6 L
6 6 L
6 -6 L
cp
S
GR
GS
[0.50043 0 0 0.50075 123.88608 113.76173] CT
/Helvetica 25.2 F
GS
[1 0 0 1 0 0] CT
0 10 moveto 
1 -1 scale
(Confidence \(WE-LUCB\)) t 
GR
GR
GS
[0.50043 0 0 0.50075 106.60705 113.76173] CT
1 0 0 RC
10.0 ML
2 LW
N
-5.657 -5.657 M
5.657 5.657 L
-5.657 5.657 M
5.657 -5.657 L
S
GR
GS
[0.50043 0 0 0.50075 123.88608 130.1815] CT
/Helvetica 25.2 F
GS
[1 0 0 1 0 0] CT
0 10 moveto 
1 -1 scale
(Probability of incorrect identification \(WE-LUCB\)) t 
GR
GR
GS
[0.50043 0 0 0.50075 106.60705 130.1815] CT
1 0 0 RC
N
f-1193138076
f
GR
GS
[0.50043 0 0 0.50075 106.60705 130.1815] CT
1 0 0 RC
10.0 ML
N
-6 -6 M
-6 6 L
6 6 L
6 -6 L
cp
S
GR
GS
[0.50043 0 0 0.50075 0 0.5] CT
0.149 GC
10.0 ML
N
177 278 M
177 76 L
791 76 L
791 278 L
cp
S
GR
%%Trailer
%%Pages: 1
%%EOF
