%!PS-Adobe-3.0 EPSF-3.0
%%Creator: (MATLAB, The Mathworks, Inc. Version 8.4.0.150421 \(R2014b\). Operating System: Mac OS X)
%%Title: /Users/aditya/acad/work/prashanthLA/experiments/Env3.eps
%%CreationDate: 2016-05-18T18:41:41
%%Pages: (atend)
%%BoundingBox: 0 0 560 420
%%LanguageLevel: 2
%%EndComments
%%BeginProlog
%%BeginResource: procset (Apache XML Graphics Std ProcSet) 1.2 0
%%Version: 1.2 0
%%Copyright: (Copyright 2001-2003,2010 The Apache Software Foundation. License terms: http://www.apache.org/licenses/LICENSE-2.0)
/bd{bind def}bind def
/ld{load def}bd
/GR/grestore ld
/M/moveto ld
/LJ/setlinejoin ld
/C/curveto ld
/f/fill ld
/LW/setlinewidth ld
/GC/setgray ld
/t/show ld
/N/newpath ld
/CT/concat ld
/cp/closepath ld
/S/stroke ld
/L/lineto ld
/CC/setcmykcolor ld
/A/ashow ld
/GS/gsave ld
/RC/setrgbcolor ld
/RM/rmoveto ld
/ML/setmiterlimit ld
/re {4 2 roll M
1 index 0 rlineto
0 exch rlineto
neg 0 rlineto
cp } bd
/_ctm matrix def
/_tm matrix def
/BT { _ctm currentmatrix pop matrix _tm copy pop 0 0 moveto } bd
/ET { _ctm setmatrix } bd
/iTm { _ctm setmatrix _tm concat } bd
/Tm { _tm astore pop iTm 0 0 moveto } bd
/ux 0.0 def
/uy 0.0 def
/F {
  /Tp exch def
  /Tf exch def
  Tf findfont Tp scalefont setfont
  /cf Tf def  /cs Tp def
} bd
/ULS {currentpoint /uy exch def /ux exch def} bd
/ULE {
  /Tcx currentpoint pop def
  gsave
  newpath
  cf findfont cs scalefont dup
  /FontMatrix get 0 get /Ts exch def /FontInfo get dup
  /UnderlinePosition get Ts mul /To exch def
  /UnderlineThickness get Ts mul /Tt exch def
  ux uy To add moveto  Tcx uy To add lineto
  Tt setlinewidth stroke
  grestore
} bd
/OLE {
  /Tcx currentpoint pop def
  gsave
  newpath
  cf findfont cs scalefont dup
  /FontMatrix get 0 get /Ts exch def /FontInfo get dup
  /UnderlinePosition get Ts mul /To exch def
  /UnderlineThickness get Ts mul /Tt exch def
  ux uy To add cs add moveto Tcx uy To add cs add lineto
  Tt setlinewidth stroke
  grestore
} bd
/SOE {
  /Tcx currentpoint pop def
  gsave
  newpath
  cf findfont cs scalefont dup
  /FontMatrix get 0 get /Ts exch def /FontInfo get dup
  /UnderlinePosition get Ts mul /To exch def
  /UnderlineThickness get Ts mul /Tt exch def
  ux uy To add cs 10 mul 26 idiv add moveto Tcx uy To add cs 10 mul 26 idiv add lineto
  Tt setlinewidth stroke
  grestore
} bd
/QT {
/Y22 exch store
/X22 exch store
/Y21 exch store
/X21 exch store
currentpoint
/Y21 load 2 mul add 3 div exch
/X21 load 2 mul add 3 div exch
/X21 load 2 mul /X22 load add 3 div
/Y21 load 2 mul /Y22 load add 3 div
/X22 load /Y22 load curveto
} bd
/SSPD {
dup length /d exch dict def
{
/v exch def
/k exch def
currentpagedevice k known {
/cpdv currentpagedevice k get def
v cpdv ne {
/upd false def
/nullv v type /nulltype eq def
/nullcpdv cpdv type /nulltype eq def
nullv nullcpdv or
{
/upd true def
} {
/sametype v type cpdv type eq def
sametype {
v type /arraytype eq {
/vlen v length def
/cpdvlen cpdv length def
vlen cpdvlen eq {
0 1 vlen 1 sub {
/i exch def
/obj v i get def
/cpdobj cpdv i get def
obj cpdobj ne {
/upd true def
exit
} if
} for
} {
/upd true def
} ifelse
} {
v type /dicttype eq {
v {
/dv exch def
/dk exch def
/cpddv cpdv dk get def
dv cpddv ne {
/upd true def
exit
} if
} forall
} {
/upd true def
} ifelse
} ifelse
} if
} ifelse
upd true eq {
d k v put
} if
} if
} if
} forall
d length 0 gt {
d setpagedevice
} if
} bd
%%EndResource
%%BeginResource: procset (Apache XML Graphics EPS ProcSet) 1.0 0
%%Version: 1.0 0
%%Copyright: (Copyright 2002-2003 The Apache Software Foundation. License terms: http://www.apache.org/licenses/LICENSE-2.0)
/BeginEPSF { %def
/b4_Inc_state save def         % Save state for cleanup
/dict_count countdictstack def % Count objects on dict stack
/op_count count 1 sub def      % Count objects on operand stack
userdict begin                 % Push userdict on dict stack
/showpage { } def              % Redefine showpage, { } = null proc
0 setgray 0 setlinecap         % Prepare graphics state
1 setlinewidth 0 setlinejoin
10 setmiterlimit [ ] 0 setdash newpath
/languagelevel where           % If level not equal to 1 then
{pop languagelevel             % set strokeadjust and
1 ne                           % overprint to their defaults.
{false setstrokeadjust false setoverprint
} if
} if
} bd
/EndEPSF { %def
count op_count sub {pop} repeat            % Clean up stacks
countdictstack dict_count sub {end} repeat
b4_Inc_state restore
} bd
%%EndResource
%FOPBeginFontDict
%%IncludeResource: font Courier-Bold
%%IncludeResource: font Helvetica
%%IncludeResource: font Courier-BoldOblique
%%IncludeResource: font Courier-Oblique
%%IncludeResource: font Times-Roman
%%IncludeResource: font Helvetica-BoldOblique
%%IncludeResource: font Helvetica-Bold
%%IncludeResource: font Helvetica-Oblique
%%IncludeResource: font Times-BoldItalic
%%IncludeResource: font Courier
%%IncludeResource: font Times-Italic
%%IncludeResource: font Times-Bold
%%IncludeResource: font Symbol
%%IncludeResource: font ZapfDingbats
%FOPEndFontDict
%%BeginResource: encoding WinAnsiEncoding
/WinAnsiEncoding [
/.notdef /.notdef /.notdef /.notdef /.notdef
/.notdef /.notdef /.notdef /.notdef /.notdef
/.notdef /.notdef /.notdef /.notdef /.notdef
/.notdef /.notdef /.notdef /.notdef /.notdef
/.notdef /.notdef /.notdef /.notdef /.notdef
/.notdef /.notdef /.notdef /.notdef /.notdef
/.notdef /.notdef /space /exclam /quotedbl
/numbersign /dollar /percent /ampersand /quotesingle
/parenleft /parenright /asterisk /plus /comma
/hyphen /period /slash /zero /one
/two /three /four /five /six
/seven /eight /nine /colon /semicolon
/less /equal /greater /question /at
/A /B /C /D /E
/F /G /H /I /J
/K /L /M /N /O
/P /Q /R /S /T
/U /V /W /X /Y
/Z /bracketleft /backslash /bracketright /asciicircum
/underscore /quoteleft /a /b /c
/d /e /f /g /h
/i /j /k /l /m
/n /o /p /q /r
/s /t /u /v /w
/x /y /z /braceleft /bar
/braceright /asciitilde /bullet /Euro /bullet
/quotesinglbase /florin /quotedblbase /ellipsis /dagger
/daggerdbl /circumflex /perthousand /Scaron /guilsinglleft
/OE /bullet /Zcaron /bullet /bullet
/quoteleft /quoteright /quotedblleft /quotedblright /bullet
/endash /emdash /asciitilde /trademark /scaron
/guilsinglright /oe /bullet /zcaron /Ydieresis
/space /exclamdown /cent /sterling /currency
/yen /brokenbar /section /dieresis /copyright
/ordfeminine /guillemotleft /logicalnot /sfthyphen /registered
/macron /degree /plusminus /twosuperior /threesuperior
/acute /mu /paragraph /middot /cedilla
/onesuperior /ordmasculine /guillemotright /onequarter /onehalf
/threequarters /questiondown /Agrave /Aacute /Acircumflex
/Atilde /Adieresis /Aring /AE /Ccedilla
/Egrave /Eacute /Ecircumflex /Edieresis /Igrave
/Iacute /Icircumflex /Idieresis /Eth /Ntilde
/Ograve /Oacute /Ocircumflex /Otilde /Odieresis
/multiply /Oslash /Ugrave /Uacute /Ucircumflex
/Udieresis /Yacute /Thorn /germandbls /agrave
/aacute /acircumflex /atilde /adieresis /aring
/ae /ccedilla /egrave /eacute /ecircumflex
/edieresis /igrave /iacute /icircumflex /idieresis
/eth /ntilde /ograve /oacute /ocircumflex
/otilde /odieresis /divide /oslash /ugrave
/uacute /ucircumflex /udieresis /yacute /thorn
/ydieresis
] def
%%EndResource
%FOPBeginFontReencode
/Courier-Bold findfont
dup length dict begin
  {1 index /FID ne {def} {pop pop} ifelse} forall
  /Encoding WinAnsiEncoding def
  currentdict
end
/Courier-Bold exch definefont pop
/Helvetica findfont
dup length dict begin
  {1 index /FID ne {def} {pop pop} ifelse} forall
  /Encoding WinAnsiEncoding def
  currentdict
end
/Helvetica exch definefont pop
/Courier-BoldOblique findfont
dup length dict begin
  {1 index /FID ne {def} {pop pop} ifelse} forall
  /Encoding WinAnsiEncoding def
  currentdict
end
/Courier-BoldOblique exch definefont pop
/Courier-Oblique findfont
dup length dict begin
  {1 index /FID ne {def} {pop pop} ifelse} forall
  /Encoding WinAnsiEncoding def
  currentdict
end
/Courier-Oblique exch definefont pop
/Times-Roman findfont
dup length dict begin
  {1 index /FID ne {def} {pop pop} ifelse} forall
  /Encoding WinAnsiEncoding def
  currentdict
end
/Times-Roman exch definefont pop
/Helvetica-BoldOblique findfont
dup length dict begin
  {1 index /FID ne {def} {pop pop} ifelse} forall
  /Encoding WinAnsiEncoding def
  currentdict
end
/Helvetica-BoldOblique exch definefont pop
/Helvetica-Bold findfont
dup length dict begin
  {1 index /FID ne {def} {pop pop} ifelse} forall
  /Encoding WinAnsiEncoding def
  currentdict
end
/Helvetica-Bold exch definefont pop
/Helvetica-Oblique findfont
dup length dict begin
  {1 index /FID ne {def} {pop pop} ifelse} forall
  /Encoding WinAnsiEncoding def
  currentdict
end
/Helvetica-Oblique exch definefont pop
/Times-BoldItalic findfont
dup length dict begin
  {1 index /FID ne {def} {pop pop} ifelse} forall
  /Encoding WinAnsiEncoding def
  currentdict
end
/Times-BoldItalic exch definefont pop
/Courier findfont
dup length dict begin
  {1 index /FID ne {def} {pop pop} ifelse} forall
  /Encoding WinAnsiEncoding def
  currentdict
end
/Courier exch definefont pop
/Times-Italic findfont
dup length dict begin
  {1 index /FID ne {def} {pop pop} ifelse} forall
  /Encoding WinAnsiEncoding def
  currentdict
end
/Times-Italic exch definefont pop
/Times-Bold findfont
dup length dict begin
  {1 index /FID ne {def} {pop pop} ifelse} forall
  /Encoding WinAnsiEncoding def
  currentdict
end
/Times-Bold exch definefont pop
%FOPEndFontReencode
%%EndProlog
%%Page: 1 1
%%PageBoundingBox: 0 0 560 420
%%BeginPageSetup
[1 0 0 -1 0 420] CT
%%EndPageSetup
GS
1 GC
N
0 0 560 420 re
f
GR
GS
1 GC
N
0 0 560 420 re
f
GR
GS
1 GC
N
85 373 M
507 373 L
507 31 L
85 31 L
cp
f
GR
GS
0.873 GC
2 setlinecap
10.0 ML
N
85 373 M
85 31 L
S
GR
GS
0.873 GC
2 setlinecap
10.0 ML
N
155.333 373 M
155.333 31 L
S
GR
GS
0.873 GC
2 setlinecap
10.0 ML
N
225.667 373 M
225.667 31 L
S
GR
GS
0.873 GC
2 setlinecap
10.0 ML
N
296 373 M
296 31 L
S
GR
GS
0.873 GC
2 setlinecap
10.0 ML
N
366.333 373 M
366.333 31 L
S
GR
GS
0.873 GC
2 setlinecap
10.0 ML
N
436.667 373 M
436.667 31 L
S
GR
GS
0.873 GC
2 setlinecap
10.0 ML
N
507 373 M
507 31 L
S
GR
GS
0.873 GC
2 setlinecap
10.0 ML
N
507 373 M
85 373 L
S
GR
GS
0.873 GC
2 setlinecap
10.0 ML
N
507 316 M
85 316 L
S
GR
GS
0.873 GC
2 setlinecap
10.0 ML
N
507 259 M
85 259 L
S
GR
GS
0.873 GC
2 setlinecap
10.0 ML
N
507 202 M
85 202 L
S
GR
GS
0.873 GC
2 setlinecap
10.0 ML
N
507 145 M
85 145 L
S
GR
GS
0.873 GC
2 setlinecap
10.0 ML
N
507 88 M
85 88 L
S
GR
GS
0.873 GC
2 setlinecap
10.0 ML
N
507 31 M
85 31 L
S
GR
GS
[1 0 0 1 296 399] CT
0.149 GC
/Helvetica 22 F
GS
[1 0 0 1 0 0] CT
-37.915 16.94 moveto 
1 -1 scale
(Rounds) t 
GR
GR
GS
0.149 GC
2 setlinecap
10.0 ML
N
85 373 M
507 373 L
S
GR
GS
0.149 GC
2 setlinecap
10.0 ML
N
85 31 M
507 31 L
S
GR
GS
0.149 GC
2 setlinecap
10.0 ML
N
85 373 M
85 368.66 L
S
GR
GS
0.149 GC
2 setlinecap
10.0 ML
N
85 31 M
85 35.34 L
S
GR
GS
0.149 GC
2 setlinecap
10.0 ML
N
155.333 373 M
155.333 368.66 L
S
GR
GS
0.149 GC
2 setlinecap
10.0 ML
N
155.333 31 M
155.333 35.34 L
S
GR
GS
0.149 GC
2 setlinecap
10.0 ML
N
225.667 373 M
225.667 368.66 L
S
GR
GS
0.149 GC
2 setlinecap
10.0 ML
N
225.667 31 M
225.667 35.34 L
S
GR
GS
0.149 GC
2 setlinecap
10.0 ML
N
296 373 M
296 368.66 L
S
GR
GS
0.149 GC
2 setlinecap
10.0 ML
N
296 31 M
296 35.34 L
S
GR
GS
0.149 GC
2 setlinecap
10.0 ML
N
366.333 373 M
366.333 368.66 L
S
GR
GS
0.149 GC
2 setlinecap
10.0 ML
N
366.333 31 M
366.333 35.34 L
S
GR
GS
0.149 GC
2 setlinecap
10.0 ML
N
436.667 373 M
436.667 368.66 L
S
GR
GS
0.149 GC
2 setlinecap
10.0 ML
N
436.667 31 M
436.667 35.34 L
S
GR
GS
0.149 GC
2 setlinecap
10.0 ML
N
507 373 M
507 368.66 L
S
GR
GS
0.149 GC
2 setlinecap
10.0 ML
N
507 31 M
507 35.34 L
S
GR
GS
[1 0 0 1 85 379] CT
0.149 GC
/Helvetica 20 F
GS
[1 0 0 1 0 0] CT
-5.562 15.4 moveto 
1 -1 scale
(0) t 
GR
GR
GS
[1 0 0 1 155.33333 379] CT
0.149 GC
/Helvetica 20 F
GS
[1 0 0 1 0 0] CT
-22.246 15.4 moveto 
1 -1 scale
(2000) t 
GR
GR
GS
[1 0 0 1 225.66667 379] CT
0.149 GC
/Helvetica 20 F
GS
[1 0 0 1 0 0] CT
-22.246 15.4 moveto 
1 -1 scale
(4000) t 
GR
GR
GS
[1 0 0 1 296 379] CT
0.149 GC
/Helvetica 20 F
GS
[1 0 0 1 0 0] CT
-22.246 15.4 moveto 
1 -1 scale
(6000) t 
GR
GR
GS
[1 0 0 1 366.33334 379] CT
0.149 GC
/Helvetica 20 F
GS
[1 0 0 1 0 0] CT
-22.246 15.4 moveto 
1 -1 scale
(8000) t 
GR
GR
GS
[1 0 0 1 436.66666 379] CT
0.149 GC
/Helvetica 20 F
GS
[1 0 0 1 0 0] CT
-27.808 15.4 moveto 
1 -1 scale
(10000) t 
GR
GR
GS
[1 0 0 1 507 379] CT
0.149 GC
/Helvetica 20 F
GS
[1 0 0 1 0 0] CT
-27.808 15.4 moveto 
1 -1 scale
(12000) t 
GR
GR
GS
[0 -1 1 0 20.38477 202] CT
0.149 GC
/Helvetica 22 F
GS
[1 0 0 1 0 0] CT
-86.813 -4.06 moveto 
1 -1 scale
(Cumulative regret) t 
GR
GR
GS
0.149 GC
2 setlinecap
10.0 ML
N
85 373 M
85 31 L
S
GR
GS
0.149 GC
2 setlinecap
10.0 ML
N
507 373 M
507 31 L
S
GR
GS
0.149 GC
2 setlinecap
10.0 ML
N
85 373 M
89.34 373 L
S
GR
GS
0.149 GC
2 setlinecap
10.0 ML
N
507 373 M
502.66 373 L
S
GR
GS
0.149 GC
2 setlinecap
10.0 ML
N
85 316 M
89.34 316 L
S
GR
GS
0.149 GC
2 setlinecap
10.0 ML
N
507 316 M
502.66 316 L
S
GR
GS
0.149 GC
2 setlinecap
10.0 ML
N
85 259 M
89.34 259 L
S
GR
GS
0.149 GC
2 setlinecap
10.0 ML
N
507 259 M
502.66 259 L
S
GR
GS
0.149 GC
2 setlinecap
10.0 ML
N
85 202 M
89.34 202 L
S
GR
GS
0.149 GC
2 setlinecap
10.0 ML
N
507 202 M
502.66 202 L
S
GR
GS
0.149 GC
2 setlinecap
10.0 ML
N
85 145 M
89.34 145 L
S
GR
GS
0.149 GC
2 setlinecap
10.0 ML
N
507 145 M
502.66 145 L
S
GR
GS
0.149 GC
2 setlinecap
10.0 ML
N
85 88 M
89.34 88 L
S
GR
GS
0.149 GC
2 setlinecap
10.0 ML
N
507 88 M
502.66 88 L
S
GR
GS
0.149 GC
2 setlinecap
10.0 ML
N
85 31 M
89.34 31 L
S
GR
GS
0.149 GC
2 setlinecap
10.0 ML
N
507 31 M
502.66 31 L
S
GR
GS
[1 0 0 1 79 373] CT
0.149 GC
/Helvetica 20 F
GS
[1 0 0 1 0 0] CT
-11.123 5.9 moveto 
1 -1 scale
(0) t 
GR
GR
GS
[1 0 0 1 79 316] CT
0.149 GC
/Helvetica 20 F
GS
[1 0 0 1 0 0] CT
-44.492 5.9 moveto 
1 -1 scale
(2000) t 
GR
GR
GS
[1 0 0 1 79 259] CT
0.149 GC
/Helvetica 20 F
GS
[1 0 0 1 0 0] CT
-44.492 5.9 moveto 
1 -1 scale
(4000) t 
GR
GR
GS
[1 0 0 1 79 202] CT
0.149 GC
/Helvetica 20 F
GS
[1 0 0 1 0 0] CT
-44.492 5.9 moveto 
1 -1 scale
(6000) t 
GR
GR
GS
[1 0 0 1 79 145] CT
0.149 GC
/Helvetica 20 F
GS
[1 0 0 1 0 0] CT
-44.492 5.9 moveto 
1 -1 scale
(8000) t 
GR
GR
GS
[1 0 0 1 79 88] CT
0.149 GC
/Helvetica 20 F
GS
[1 0 0 1 0 0] CT
-55.615 5.9 moveto 
1 -1 scale
(10000) t 
GR
GR
GS
[1 0 0 1 79 31] CT
0.149 GC
/Helvetica 20 F
GS
[1 0 0 1 0 0] CT
-55.615 5.9 moveto 
1 -1 scale
(12000) t 
GR
GR
GS
1 0 0 RC
2 setlinecap
10.0 ML
N
88.517 369.819 M
88.517 369.792 L
S
GR
GS
1 0 0 RC
2 setlinecap
10.0 ML
N
99.067 360.145 M
99.067 360.046 L
S
GR
GS
1 0 0 RC
2 setlinecap
10.0 ML
N
109.617 350.369 M
109.617 350.212 L
S
GR
GS
1 0 0 RC
2 setlinecap
10.0 ML
N
120.167 340.517 M
120.167 340.285 L
S
GR
GS
1 0 0 RC
2 setlinecap
10.0 ML
N
130.717 330.75 M
130.717 330.432 L
S
GR
GS
1 0 0 RC
2 setlinecap
10.0 ML
N
141.267 320.643 M
141.267 320.3 L
S
GR
GS
1 0 0 RC
2 setlinecap
10.0 ML
N
151.817 310.591 M
151.817 310.221 L
S
GR
GS
1 0 0 RC
2 setlinecap
10.0 ML
N
162.367 300.216 M
162.367 299.724 L
S
GR
GS
1 0 0 RC
2 setlinecap
10.0 ML
N
172.917 291.296 M
172.917 290.776 L
S
GR
GS
1 0 0 RC
2 setlinecap
10.0 ML
N
183.467 280.864 M
183.467 280.247 L
S
GR
GS
1 0 0 RC
2 setlinecap
10.0 ML
N
194.017 270.768 M
194.017 270.059 L
S
GR
GS
1 0 0 RC
2 setlinecap
10.0 ML
N
204.567 260.199 M
204.567 259.537 L
S
GR
GS
1 0 0 RC
2 setlinecap
10.0 ML
N
215.117 250.58 M
215.117 249.773 L
S
GR
GS
1 0 0 RC
2 setlinecap
10.0 ML
N
225.667 238.792 M
225.667 237.993 L
S
GR
GS
1 0 0 RC
2 setlinecap
10.0 ML
N
236.217 229.863 M
236.217 229.017 L
S
GR
GS
1 0 0 RC
2 setlinecap
10.0 ML
N
246.767 219.634 M
246.767 218.768 L
S
GR
GS
1 0 0 RC
2 setlinecap
10.0 ML
N
257.317 209.489 M
257.317 208.483 L
S
GR
GS
1 0 0 RC
2 setlinecap
10.0 ML
N
267.867 198.691 M
267.867 197.652 L
S
GR
GS
1 0 0 RC
2 setlinecap
10.0 ML
N
278.417 188.55 M
278.417 187.521 L
S
GR
GS
1 0 0 RC
2 setlinecap
10.0 ML
N
288.967 177.391 M
288.967 176.264 L
S
GR
GS
1 0 0 RC
2 setlinecap
10.0 ML
N
299.517 167.43 M
299.517 166.296 L
S
GR
GS
1 0 0 RC
2 setlinecap
10.0 ML
N
310.067 157.608 M
310.067 156.486 L
S
GR
GS
1 0 0 RC
2 setlinecap
10.0 ML
N
320.617 145.702 M
320.617 144.471 L
S
GR
GS
1 0 0 RC
2 setlinecap
10.0 ML
N
331.167 135.891 M
331.167 134.441 L
S
GR
GS
1 0 0 RC
2 setlinecap
10.0 ML
N
341.717 125.044 M
341.717 123.578 L
S
GR
GS
1 0 0 RC
2 setlinecap
10.0 ML
N
352.267 116.635 M
352.267 115.039 L
S
GR
GS
1 0 0 RC
2 setlinecap
10.0 ML
N
362.817 106.569 M
362.817 105.18 L
S
GR
GS
1 0 0 RC
2 setlinecap
10.0 ML
N
373.367 94.805 M
373.367 93.293 L
S
GR
GS
1 0 0 RC
2 setlinecap
10.0 ML
N
383.917 84.491 M
383.917 82.988 L
S
GR
GS
1 0 0 RC
2 setlinecap
10.0 ML
N
394.467 73.36 M
394.467 71.514 L
S
GR
GS
1 0 0 RC
2 setlinecap
10.0 ML
N
405.017 62.995 M
405.017 61.322 L
S
GR
GS
1 0 0 RC
2 setlinecap
10.0 ML
N
415.567 52.277 M
415.567 50.33 L
S
GR
GS
1 0 0 RC
2 setlinecap
10.0 ML
N
426.117 41.805 M
426.117 39.98 L
S
GR
GS
1 0 0 RC
2 setlinecap
10.0 ML
N
436.667 33.613 M
436.667 31.698 L
S
GR
GS
1 0 0 RC
2 setlinecap
10.0 ML
N
85.035 369.819 M
91.998 369.819 L
S
GR
GS
1 0 0 RC
2 setlinecap
10.0 ML
N
95.585 360.145 M
102.548 360.145 L
S
GR
GS
1 0 0 RC
2 setlinecap
10.0 ML
N
106.135 350.369 M
113.098 350.369 L
S
GR
GS
1 0 0 RC
2 setlinecap
10.0 ML
N
116.685 340.517 M
123.648 340.517 L
S
GR
GS
1 0 0 RC
2 setlinecap
10.0 ML
N
127.235 330.75 M
134.198 330.75 L
S
GR
GS
1 0 0 RC
2 setlinecap
10.0 ML
N
137.785 320.643 M
144.748 320.643 L
S
GR
GS
1 0 0 RC
2 setlinecap
10.0 ML
N
148.335 310.591 M
155.298 310.591 L
S
GR
GS
1 0 0 RC
2 setlinecap
10.0 ML
N
158.885 300.216 M
165.848 300.216 L
S
GR
GS
1 0 0 RC
2 setlinecap
10.0 ML
N
169.435 291.296 M
176.398 291.296 L
S
GR
GS
1 0 0 RC
2 setlinecap
10.0 ML
N
179.985 280.864 M
186.948 280.864 L
S
GR
GS
1 0 0 RC
2 setlinecap
10.0 ML
N
190.535 270.768 M
197.498 270.768 L
S
GR
GS
1 0 0 RC
2 setlinecap
10.0 ML
N
201.085 260.199 M
208.048 260.199 L
S
GR
GS
1 0 0 RC
2 setlinecap
10.0 ML
N
211.635 250.58 M
218.598 250.58 L
S
GR
GS
1 0 0 RC
2 setlinecap
10.0 ML
N
222.185 238.792 M
229.148 238.792 L
S
GR
GS
1 0 0 RC
2 setlinecap
10.0 ML
N
232.735 229.863 M
239.698 229.863 L
S
GR
GS
1 0 0 RC
2 setlinecap
10.0 ML
N
243.285 219.634 M
250.248 219.634 L
S
GR
GS
1 0 0 RC
2 setlinecap
10.0 ML
N
253.835 209.489 M
260.798 209.489 L
S
GR
GS
1 0 0 RC
2 setlinecap
10.0 ML
N
264.385 198.691 M
271.348 198.691 L
S
GR
GS
1 0 0 RC
2 setlinecap
10.0 ML
N
274.935 188.55 M
281.898 188.55 L
S
GR
GS
1 0 0 RC
2 setlinecap
10.0 ML
N
285.485 177.391 M
292.448 177.391 L
S
GR
GS
1 0 0 RC
2 setlinecap
10.0 ML
N
296.035 167.43 M
302.998 167.43 L
S
GR
GS
1 0 0 RC
2 setlinecap
10.0 ML
N
306.585 157.608 M
313.548 157.608 L
S
GR
GS
1 0 0 RC
2 setlinecap
10.0 ML
N
317.135 145.702 M
324.098 145.702 L
S
GR
GS
1 0 0 RC
2 setlinecap
10.0 ML
N
327.685 135.891 M
334.648 135.891 L
S
GR
GS
1 0 0 RC
2 setlinecap
10.0 ML
N
338.235 125.044 M
345.198 125.044 L
S
GR
GS
1 0 0 RC
2 setlinecap
10.0 ML
N
348.785 116.635 M
355.748 116.635 L
S
GR
GS
1 0 0 RC
2 setlinecap
10.0 ML
N
359.335 106.569 M
366.298 106.569 L
S
GR
GS
1 0 0 RC
2 setlinecap
10.0 ML
N
369.885 94.805 M
376.848 94.805 L
S
GR
GS
1 0 0 RC
2 setlinecap
10.0 ML
N
380.435 84.491 M
387.398 84.491 L
S
GR
GS
1 0 0 RC
2 setlinecap
10.0 ML
N
390.985 73.36 M
397.948 73.36 L
S
GR
GS
1 0 0 RC
2 setlinecap
10.0 ML
N
401.535 62.995 M
408.498 62.995 L
S
GR
GS
1 0 0 RC
2 setlinecap
10.0 ML
N
412.085 52.277 M
419.048 52.277 L
S
GR
GS
1 0 0 RC
2 setlinecap
10.0 ML
N
422.635 41.805 M
429.598 41.805 L
S
GR
GS
1 0 0 RC
2 setlinecap
10.0 ML
N
433.185 33.613 M
440.148 33.613 L
S
GR
GS
1 0 0 RC
2 setlinecap
10.0 ML
N
85.035 369.792 M
91.998 369.792 L
S
GR
GS
1 0 0 RC
2 setlinecap
10.0 ML
N
95.585 360.046 M
102.548 360.046 L
S
GR
GS
1 0 0 RC
2 setlinecap
10.0 ML
N
106.135 350.212 M
113.098 350.212 L
S
GR
GS
1 0 0 RC
2 setlinecap
10.0 ML
N
116.685 340.285 M
123.648 340.285 L
S
GR
GS
1 0 0 RC
2 setlinecap
10.0 ML
N
127.235 330.432 M
134.198 330.432 L
S
GR
GS
1 0 0 RC
2 setlinecap
10.0 ML
N
137.785 320.3 M
144.748 320.3 L
S
GR
GS
1 0 0 RC
2 setlinecap
10.0 ML
N
148.335 310.221 M
155.298 310.221 L
S
GR
GS
1 0 0 RC
2 setlinecap
10.0 ML
N
158.885 299.724 M
165.848 299.724 L
S
GR
GS
1 0 0 RC
2 setlinecap
10.0 ML
N
169.435 290.776 M
176.398 290.776 L
S
GR
GS
1 0 0 RC
2 setlinecap
10.0 ML
N
179.985 280.247 M
186.948 280.247 L
S
GR
GS
1 0 0 RC
2 setlinecap
10.0 ML
N
190.535 270.059 M
197.498 270.059 L
S
GR
GS
1 0 0 RC
2 setlinecap
10.0 ML
N
201.085 259.537 M
208.048 259.537 L
S
GR
GS
1 0 0 RC
2 setlinecap
10.0 ML
N
211.635 249.773 M
218.598 249.773 L
S
GR
GS
1 0 0 RC
2 setlinecap
10.0 ML
N
222.185 237.993 M
229.148 237.993 L
S
GR
GS
1 0 0 RC
2 setlinecap
10.0 ML
N
232.735 229.017 M
239.698 229.017 L
S
GR
GS
1 0 0 RC
2 setlinecap
10.0 ML
N
243.285 218.768 M
250.248 218.768 L
S
GR
GS
1 0 0 RC
2 setlinecap
10.0 ML
N
253.835 208.483 M
260.798 208.483 L
S
GR
GS
1 0 0 RC
2 setlinecap
10.0 ML
N
264.385 197.652 M
271.348 197.652 L
S
GR
GS
1 0 0 RC
2 setlinecap
10.0 ML
N
274.935 187.521 M
281.898 187.521 L
S
GR
GS
1 0 0 RC
2 setlinecap
10.0 ML
N
285.485 176.264 M
292.448 176.264 L
S
GR
GS
1 0 0 RC
2 setlinecap
10.0 ML
N
296.035 166.296 M
302.998 166.296 L
S
GR
GS
1 0 0 RC
2 setlinecap
10.0 ML
N
306.585 156.486 M
313.548 156.486 L
S
GR
GS
1 0 0 RC
2 setlinecap
10.0 ML
N
317.135 144.471 M
324.098 144.471 L
S
GR
GS
1 0 0 RC
2 setlinecap
10.0 ML
N
327.685 134.441 M
334.648 134.441 L
S
GR
GS
1 0 0 RC
2 setlinecap
10.0 ML
N
338.235 123.578 M
345.198 123.578 L
S
GR
GS
1 0 0 RC
2 setlinecap
10.0 ML
N
348.785 115.039 M
355.748 115.039 L
S
GR
GS
1 0 0 RC
2 setlinecap
10.0 ML
N
359.335 105.18 M
366.298 105.18 L
S
GR
GS
1 0 0 RC
2 setlinecap
10.0 ML
N
369.885 93.293 M
376.848 93.293 L
S
GR
GS
1 0 0 RC
2 setlinecap
10.0 ML
N
380.435 82.988 M
387.398 82.988 L
S
GR
GS
1 0 0 RC
2 setlinecap
10.0 ML
N
390.985 71.514 M
397.948 71.514 L
S
GR
GS
1 0 0 RC
2 setlinecap
10.0 ML
N
401.535 61.322 M
408.498 61.322 L
S
GR
GS
1 0 0 RC
2 setlinecap
10.0 ML
N
412.085 50.33 M
419.048 50.33 L
S
GR
GS
1 0 0 RC
2 setlinecap
10.0 ML
N
422.635 39.98 M
429.598 39.98 L
S
GR
GS
1 0 0 RC
2 setlinecap
10.0 ML
N
433.185 31.698 M
440.148 31.698 L
S
GR
GS
1 0 0 RC
2 setlinecap
10.0 ML
N
88.517 369.805 M
99.067 360.096 L
109.617 350.291 L
120.167 340.401 L
130.717 330.591 L
141.267 320.471 L
151.817 310.406 L
162.367 299.97 L
172.917 291.036 L
183.467 280.556 L
194.017 270.413 L
204.567 259.868 L
215.117 250.177 L
225.667 238.393 L
236.217 229.44 L
246.767 219.201 L
257.317 208.986 L
267.867 198.172 L
278.417 188.036 L
288.967 176.827 L
299.517 166.863 L
310.067 157.047 L
320.617 145.087 L
331.167 135.166 L
341.717 124.311 L
352.267 115.837 L
362.817 105.875 L
373.367 94.049 L
383.917 83.74 L
394.467 72.437 L
405.017 62.159 L
415.567 51.303 L
426.117 40.892 L
436.667 32.656 L
S
GR
GS
0 0 1 RC
2 setlinecap
10.0 ML
N
88.517 369.741 M
88.517 369.341 L
S
GR
GS
0 0 1 RC
2 setlinecap
10.0 ML
N
99.067 362.874 M
99.067 361.266 L
S
GR
GS
0 0 1 RC
2 setlinecap
10.0 ML
N
109.617 358.511 M
109.617 355.934 L
S
GR
GS
0 0 1 RC
2 setlinecap
10.0 ML
N
120.167 351 M
120.167 346.903 L
S
GR
GS
0 0 1 RC
2 setlinecap
10.0 ML
N
130.717 349.403 M
130.717 344.873 L
S
GR
GS
0 0 1 RC
2 setlinecap
10.0 ML
N
141.267 338.411 M
141.267 332.103 L
S
GR
GS
0 0 1 RC
2 setlinecap
10.0 ML
N
151.817 340.069 M
151.817 333.856 L
S
GR
GS
0 0 1 RC
2 setlinecap
10.0 ML
N
162.367 339.036 M
162.367 332.589 L
S
GR
GS
0 0 1 RC
2 setlinecap
10.0 ML
N
172.917 326.452 M
172.917 318.238 L
S
GR
GS
0 0 1 RC
2 setlinecap
10.0 ML
N
183.467 324.129 M
183.467 314.902 L
S
GR
GS
0 0 1 RC
2 setlinecap
10.0 ML
N
194.017 323.215 M
194.017 313.972 L
S
GR
GS
0 0 1 RC
2 setlinecap
10.0 ML
N
204.567 308.075 M
204.567 296.614 L
S
GR
GS
0 0 1 RC
2 setlinecap
10.0 ML
N
215.117 303.612 M
215.117 291.558 L
S
GR
GS
0 0 1 RC
2 setlinecap
10.0 ML
N
225.667 292.808 M
225.667 278.923 L
S
GR
GS
0 0 1 RC
2 setlinecap
10.0 ML
N
236.217 305.165 M
236.217 291.895 L
S
GR
GS
0 0 1 RC
2 setlinecap
10.0 ML
N
246.767 287.37 M
246.767 273.103 L
S
GR
GS
0 0 1 RC
2 setlinecap
10.0 ML
N
257.317 273.226 M
257.317 258.041 L
S
GR
GS
0 0 1 RC
2 setlinecap
10.0 ML
N
267.867 285.799 M
267.867 268.7 L
S
GR
GS
0 0 1 RC
2 setlinecap
10.0 ML
N
278.417 275.161 M
278.417 257.532 L
S
GR
GS
0 0 1 RC
2 setlinecap
10.0 ML
N
288.967 265.33 M
288.967 248.977 L
S
GR
GS
0 0 1 RC
2 setlinecap
10.0 ML
N
299.517 282.881 M
299.517 265.969 L
S
GR
GS
0 0 1 RC
2 setlinecap
10.0 ML
N
310.067 247.922 M
310.067 226.932 L
S
GR
GS
0 0 1 RC
2 setlinecap
10.0 ML
N
320.617 259.068 M
320.617 239.249 L
S
GR
GS
0 0 1 RC
2 setlinecap
10.0 ML
N
331.167 251.901 M
331.167 230.449 L
S
GR
GS
0 0 1 RC
2 setlinecap
10.0 ML
N
341.717 240.384 M
341.717 218.547 L
S
GR
GS
0 0 1 RC
2 setlinecap
10.0 ML
N
352.267 252.687 M
352.267 227.917 L
S
GR
GS
0 0 1 RC
2 setlinecap
10.0 ML
N
362.817 218.628 M
362.817 195.876 L
S
GR
GS
0 0 1 RC
2 setlinecap
10.0 ML
N
373.367 229.2 M
373.367 205.212 L
S
GR
GS
0 0 1 RC
2 setlinecap
10.0 ML
N
383.917 222.441 M
383.917 194.642 L
S
GR
GS
0 0 1 RC
2 setlinecap
10.0 ML
N
394.467 213.266 M
394.467 185.67 L
S
GR
GS
0 0 1 RC
2 setlinecap
10.0 ML
N
405.017 220.733 M
405.017 196.81 L
S
GR
GS
0 0 1 RC
2 setlinecap
10.0 ML
N
415.567 218.652 M
415.567 193.329 L
S
GR
GS
0 0 1 RC
2 setlinecap
10.0 ML
N
426.117 214.215 M
426.117 188.447 L
S
GR
GS
0 0 1 RC
2 setlinecap
10.0 ML
N
436.667 186.777 M
436.667 160.862 L
S
GR
GS
0 0 1 RC
2 setlinecap
10.0 ML
N
85.035 369.741 M
91.998 369.741 L
S
GR
GS
0 0 1 RC
2 setlinecap
10.0 ML
N
95.585 362.874 M
102.548 362.874 L
S
GR
GS
0 0 1 RC
2 setlinecap
10.0 ML
N
106.135 358.511 M
113.098 358.511 L
S
GR
GS
0 0 1 RC
2 setlinecap
10.0 ML
N
116.685 351 M
123.648 351 L
S
GR
GS
0 0 1 RC
2 setlinecap
10.0 ML
N
127.235 349.403 M
134.198 349.403 L
S
GR
GS
0 0 1 RC
2 setlinecap
10.0 ML
N
137.785 338.411 M
144.748 338.411 L
S
GR
GS
0 0 1 RC
2 setlinecap
10.0 ML
N
148.335 340.069 M
155.298 340.069 L
S
GR
GS
0 0 1 RC
2 setlinecap
10.0 ML
N
158.885 339.036 M
165.848 339.036 L
S
GR
GS
0 0 1 RC
2 setlinecap
10.0 ML
N
169.435 326.452 M
176.398 326.452 L
S
GR
GS
0 0 1 RC
2 setlinecap
10.0 ML
N
179.985 324.129 M
186.948 324.129 L
S
GR
GS
0 0 1 RC
2 setlinecap
10.0 ML
N
190.535 323.215 M
197.498 323.215 L
S
GR
GS
0 0 1 RC
2 setlinecap
10.0 ML
N
201.085 308.075 M
208.048 308.075 L
S
GR
GS
0 0 1 RC
2 setlinecap
10.0 ML
N
211.635 303.612 M
218.598 303.612 L
S
GR
GS
0 0 1 RC
2 setlinecap
10.0 ML
N
222.185 292.808 M
229.148 292.808 L
S
GR
GS
0 0 1 RC
2 setlinecap
10.0 ML
N
232.735 305.165 M
239.698 305.165 L
S
GR
GS
0 0 1 RC
2 setlinecap
10.0 ML
N
243.285 287.37 M
250.248 287.37 L
S
GR
GS
0 0 1 RC
2 setlinecap
10.0 ML
N
253.835 273.226 M
260.798 273.226 L
S
GR
GS
0 0 1 RC
2 setlinecap
10.0 ML
N
264.385 285.799 M
271.348 285.799 L
S
GR
GS
0 0 1 RC
2 setlinecap
10.0 ML
N
274.935 275.161 M
281.898 275.161 L
S
GR
GS
0 0 1 RC
2 setlinecap
10.0 ML
N
285.485 265.33 M
292.448 265.33 L
S
GR
GS
0 0 1 RC
2 setlinecap
10.0 ML
N
296.035 282.881 M
302.998 282.881 L
S
GR
GS
0 0 1 RC
2 setlinecap
10.0 ML
N
306.585 247.922 M
313.548 247.922 L
S
GR
GS
0 0 1 RC
2 setlinecap
10.0 ML
N
317.135 259.068 M
324.098 259.068 L
S
GR
GS
0 0 1 RC
2 setlinecap
10.0 ML
N
327.685 251.901 M
334.648 251.901 L
S
GR
GS
0 0 1 RC
2 setlinecap
10.0 ML
N
338.235 240.384 M
345.198 240.384 L
S
GR
GS
0 0 1 RC
2 setlinecap
10.0 ML
N
348.785 252.687 M
355.748 252.687 L
S
GR
GS
0 0 1 RC
2 setlinecap
10.0 ML
N
359.335 218.628 M
366.298 218.628 L
S
GR
GS
0 0 1 RC
2 setlinecap
10.0 ML
N
369.885 229.2 M
376.848 229.2 L
S
GR
GS
0 0 1 RC
2 setlinecap
10.0 ML
N
380.435 222.441 M
387.398 222.441 L
S
GR
GS
0 0 1 RC
2 setlinecap
10.0 ML
N
390.985 213.266 M
397.948 213.266 L
S
GR
GS
0 0 1 RC
2 setlinecap
10.0 ML
N
401.535 220.733 M
408.498 220.733 L
S
GR
GS
0 0 1 RC
2 setlinecap
10.0 ML
N
412.085 218.652 M
419.048 218.652 L
S
GR
GS
0 0 1 RC
2 setlinecap
10.0 ML
N
422.635 214.215 M
429.598 214.215 L
S
GR
GS
0 0 1 RC
2 setlinecap
10.0 ML
N
433.185 186.777 M
440.148 186.777 L
S
GR
GS
0 0 1 RC
2 setlinecap
10.0 ML
N
85.035 369.341 M
91.998 369.341 L
S
GR
GS
0 0 1 RC
2 setlinecap
10.0 ML
N
95.585 361.266 M
102.548 361.266 L
S
GR
GS
0 0 1 RC
2 setlinecap
10.0 ML
N
106.135 355.934 M
113.098 355.934 L
S
GR
GS
0 0 1 RC
2 setlinecap
10.0 ML
N
116.685 346.903 M
123.648 346.903 L
S
GR
GS
0 0 1 RC
2 setlinecap
10.0 ML
N
127.235 344.873 M
134.198 344.873 L
S
GR
GS
0 0 1 RC
2 setlinecap
10.0 ML
N
137.785 332.103 M
144.748 332.103 L
S
GR
GS
0 0 1 RC
2 setlinecap
10.0 ML
N
148.335 333.856 M
155.298 333.856 L
S
GR
GS
0 0 1 RC
2 setlinecap
10.0 ML
N
158.885 332.589 M
165.848 332.589 L
S
GR
GS
0 0 1 RC
2 setlinecap
10.0 ML
N
169.435 318.238 M
176.398 318.238 L
S
GR
GS
0 0 1 RC
2 setlinecap
10.0 ML
N
179.985 314.902 M
186.948 314.902 L
S
GR
GS
0 0 1 RC
2 setlinecap
10.0 ML
N
190.535 313.972 M
197.498 313.972 L
S
GR
GS
0 0 1 RC
2 setlinecap
10.0 ML
N
201.085 296.614 M
208.048 296.614 L
S
GR
GS
0 0 1 RC
2 setlinecap
10.0 ML
N
211.635 291.558 M
218.598 291.558 L
S
GR
GS
0 0 1 RC
2 setlinecap
10.0 ML
N
222.185 278.923 M
229.148 278.923 L
S
GR
GS
0 0 1 RC
2 setlinecap
10.0 ML
N
232.735 291.895 M
239.698 291.895 L
S
GR
GS
0 0 1 RC
2 setlinecap
10.0 ML
N
243.285 273.103 M
250.248 273.103 L
S
GR
GS
0 0 1 RC
2 setlinecap
10.0 ML
N
253.835 258.041 M
260.798 258.041 L
S
GR
GS
0 0 1 RC
2 setlinecap
10.0 ML
N
264.385 268.7 M
271.348 268.7 L
S
GR
GS
0 0 1 RC
2 setlinecap
10.0 ML
N
274.935 257.532 M
281.898 257.532 L
S
GR
GS
0 0 1 RC
2 setlinecap
10.0 ML
N
285.485 248.977 M
292.448 248.977 L
S
GR
GS
0 0 1 RC
2 setlinecap
10.0 ML
N
296.035 265.969 M
302.998 265.969 L
S
GR
GS
0 0 1 RC
2 setlinecap
10.0 ML
N
306.585 226.932 M
313.548 226.932 L
S
GR
GS
0 0 1 RC
2 setlinecap
10.0 ML
N
317.135 239.249 M
324.098 239.249 L
S
GR
GS
0 0 1 RC
2 setlinecap
10.0 ML
N
327.685 230.449 M
334.648 230.449 L
S
GR
GS
0 0 1 RC
2 setlinecap
10.0 ML
N
338.235 218.547 M
345.198 218.547 L
S
GR
GS
0 0 1 RC
2 setlinecap
10.0 ML
N
348.785 227.917 M
355.748 227.917 L
S
GR
GS
0 0 1 RC
2 setlinecap
10.0 ML
N
359.335 195.876 M
366.298 195.876 L
S
GR
GS
0 0 1 RC
2 setlinecap
10.0 ML
N
369.885 205.212 M
376.848 205.212 L
S
GR
GS
0 0 1 RC
2 setlinecap
10.0 ML
N
380.435 194.642 M
387.398 194.642 L
S
GR
GS
0 0 1 RC
2 setlinecap
10.0 ML
N
390.985 185.67 M
397.948 185.67 L
S
GR
GS
0 0 1 RC
2 setlinecap
10.0 ML
N
401.535 196.81 M
408.498 196.81 L
S
GR
GS
0 0 1 RC
2 setlinecap
10.0 ML
N
412.085 193.329 M
419.048 193.329 L
S
GR
GS
0 0 1 RC
2 setlinecap
10.0 ML
N
422.635 188.447 M
429.598 188.447 L
S
GR
GS
0 0 1 RC
2 setlinecap
10.0 ML
N
433.185 160.862 M
440.148 160.862 L
S
GR
GS
0 0 1 RC
2 setlinecap
10.0 ML
N
88.517 369.541 M
99.067 362.07 L
109.617 357.223 L
120.167 348.951 L
130.717 347.138 L
141.267 335.257 L
151.817 336.962 L
162.367 335.812 L
172.917 322.345 L
183.467 319.516 L
194.017 318.593 L
204.567 302.345 L
215.117 297.585 L
225.667 285.865 L
236.217 298.53 L
246.767 280.237 L
257.317 265.633 L
267.867 277.25 L
278.417 266.347 L
288.967 257.153 L
299.517 274.425 L
310.067 237.427 L
320.617 249.159 L
331.167 241.175 L
341.717 229.465 L
352.267 240.302 L
362.817 207.252 L
373.367 217.206 L
383.917 208.542 L
394.467 199.468 L
405.017 208.771 L
415.567 205.991 L
426.117 201.331 L
436.667 173.819 L
S
GR
GS
1 GC
N
394 80 M
394 41 L
497 41 L
497 80 L
cp
f
GR
GS
[1 0 0 1 433.00479 51.63636] CT
/Helvetica 18 F
GS
[1 0 0 1 0 0] CT
0 5.36 moveto 
1 -1 scale
(UCB) t 
GR
GR
GS
1 0 0 RC
2 setlinecap
10.0 ML
N
400.001 51.636 M
430.004 51.636 L
S
GR
GS
[1 0 0 1 433.00479 69.36364] CT
/Helvetica 18 F
GS
[1 0 0 1 0 0] CT
0 5.36 moveto 
1 -1 scale
(W-UCB) t 
GR
GR
GS
0 0 1 RC
2 setlinecap
10.0 ML
N
400.001 69.364 M
430.004 69.364 L
S
GR
GS
0.149 GC
2 setlinecap
10.0 ML
N
394 80 M
394 41 L
497 41 L
497 80 L
394 80 L
S
GR
%%Trailer
%%Pages: 1
%%EOF
