%!PS-Adobe-3.0 EPSF-3.0
%%Creator: (MATLAB, The Mathworks, Inc. Version 8.4.0.150421 \(R2014b\). Operating System: Mac OS X)
%%Title: /Users/aditya/acad/work/prashanthLA/experiments/Env4.eps
%%CreationDate: 2016-05-18T18:41:57
%%Pages: (atend)
%%BoundingBox: 0 0 560 420
%%LanguageLevel: 2
%%EndComments
%%BeginProlog
%%BeginResource: procset (Apache XML Graphics Std ProcSet) 1.2 0
%%Version: 1.2 0
%%Copyright: (Copyright 2001-2003,2010 The Apache Software Foundation. License terms: http://www.apache.org/licenses/LICENSE-2.0)
/bd{bind def}bind def
/ld{load def}bd
/GR/grestore ld
/M/moveto ld
/LJ/setlinejoin ld
/C/curveto ld
/f/fill ld
/LW/setlinewidth ld
/GC/setgray ld
/t/show ld
/N/newpath ld
/CT/concat ld
/cp/closepath ld
/S/stroke ld
/L/lineto ld
/CC/setcmykcolor ld
/A/ashow ld
/GS/gsave ld
/RC/setrgbcolor ld
/RM/rmoveto ld
/ML/setmiterlimit ld
/re {4 2 roll M
1 index 0 rlineto
0 exch rlineto
neg 0 rlineto
cp } bd
/_ctm matrix def
/_tm matrix def
/BT { _ctm currentmatrix pop matrix _tm copy pop 0 0 moveto } bd
/ET { _ctm setmatrix } bd
/iTm { _ctm setmatrix _tm concat } bd
/Tm { _tm astore pop iTm 0 0 moveto } bd
/ux 0.0 def
/uy 0.0 def
/F {
  /Tp exch def
  /Tf exch def
  Tf findfont Tp scalefont setfont
  /cf Tf def  /cs Tp def
} bd
/ULS {currentpoint /uy exch def /ux exch def} bd
/ULE {
  /Tcx currentpoint pop def
  gsave
  newpath
  cf findfont cs scalefont dup
  /FontMatrix get 0 get /Ts exch def /FontInfo get dup
  /UnderlinePosition get Ts mul /To exch def
  /UnderlineThickness get Ts mul /Tt exch def
  ux uy To add moveto  Tcx uy To add lineto
  Tt setlinewidth stroke
  grestore
} bd
/OLE {
  /Tcx currentpoint pop def
  gsave
  newpath
  cf findfont cs scalefont dup
  /FontMatrix get 0 get /Ts exch def /FontInfo get dup
  /UnderlinePosition get Ts mul /To exch def
  /UnderlineThickness get Ts mul /Tt exch def
  ux uy To add cs add moveto Tcx uy To add cs add lineto
  Tt setlinewidth stroke
  grestore
} bd
/SOE {
  /Tcx currentpoint pop def
  gsave
  newpath
  cf findfont cs scalefont dup
  /FontMatrix get 0 get /Ts exch def /FontInfo get dup
  /UnderlinePosition get Ts mul /To exch def
  /UnderlineThickness get Ts mul /Tt exch def
  ux uy To add cs 10 mul 26 idiv add moveto Tcx uy To add cs 10 mul 26 idiv add lineto
  Tt setlinewidth stroke
  grestore
} bd
/QT {
/Y22 exch store
/X22 exch store
/Y21 exch store
/X21 exch store
currentpoint
/Y21 load 2 mul add 3 div exch
/X21 load 2 mul add 3 div exch
/X21 load 2 mul /X22 load add 3 div
/Y21 load 2 mul /Y22 load add 3 div
/X22 load /Y22 load curveto
} bd
/SSPD {
dup length /d exch dict def
{
/v exch def
/k exch def
currentpagedevice k known {
/cpdv currentpagedevice k get def
v cpdv ne {
/upd false def
/nullv v type /nulltype eq def
/nullcpdv cpdv type /nulltype eq def
nullv nullcpdv or
{
/upd true def
} {
/sametype v type cpdv type eq def
sametype {
v type /arraytype eq {
/vlen v length def
/cpdvlen cpdv length def
vlen cpdvlen eq {
0 1 vlen 1 sub {
/i exch def
/obj v i get def
/cpdobj cpdv i get def
obj cpdobj ne {
/upd true def
exit
} if
} for
} {
/upd true def
} ifelse
} {
v type /dicttype eq {
v {
/dv exch def
/dk exch def
/cpddv cpdv dk get def
dv cpddv ne {
/upd true def
exit
} if
} forall
} {
/upd true def
} ifelse
} ifelse
} if
} ifelse
upd true eq {
d k v put
} if
} if
} if
} forall
d length 0 gt {
d setpagedevice
} if
} bd
%%EndResource
%%BeginResource: procset (Apache XML Graphics EPS ProcSet) 1.0 0
%%Version: 1.0 0
%%Copyright: (Copyright 2002-2003 The Apache Software Foundation. License terms: http://www.apache.org/licenses/LICENSE-2.0)
/BeginEPSF { %def
/b4_Inc_state save def         % Save state for cleanup
/dict_count countdictstack def % Count objects on dict stack
/op_count count 1 sub def      % Count objects on operand stack
userdict begin                 % Push userdict on dict stack
/showpage { } def              % Redefine showpage, { } = null proc
0 setgray 0 setlinecap         % Prepare graphics state
1 setlinewidth 0 setlinejoin
10 setmiterlimit [ ] 0 setdash newpath
/languagelevel where           % If level not equal to 1 then
{pop languagelevel             % set strokeadjust and
1 ne                           % overprint to their defaults.
{false setstrokeadjust false setoverprint
} if
} if
} bd
/EndEPSF { %def
count op_count sub {pop} repeat            % Clean up stacks
countdictstack dict_count sub {end} repeat
b4_Inc_state restore
} bd
%%EndResource
%FOPBeginFontDict
%%IncludeResource: font Courier-Bold
%%IncludeResource: font Helvetica
%%IncludeResource: font Courier-BoldOblique
%%IncludeResource: font Courier-Oblique
%%IncludeResource: font Times-Roman
%%IncludeResource: font Helvetica-BoldOblique
%%IncludeResource: font Helvetica-Bold
%%IncludeResource: font Helvetica-Oblique
%%IncludeResource: font Times-BoldItalic
%%IncludeResource: font Courier
%%IncludeResource: font Times-Italic
%%IncludeResource: font Times-Bold
%%IncludeResource: font Symbol
%%IncludeResource: font ZapfDingbats
%FOPEndFontDict
%%BeginResource: encoding WinAnsiEncoding
/WinAnsiEncoding [
/.notdef /.notdef /.notdef /.notdef /.notdef
/.notdef /.notdef /.notdef /.notdef /.notdef
/.notdef /.notdef /.notdef /.notdef /.notdef
/.notdef /.notdef /.notdef /.notdef /.notdef
/.notdef /.notdef /.notdef /.notdef /.notdef
/.notdef /.notdef /.notdef /.notdef /.notdef
/.notdef /.notdef /space /exclam /quotedbl
/numbersign /dollar /percent /ampersand /quotesingle
/parenleft /parenright /asterisk /plus /comma
/hyphen /period /slash /zero /one
/two /three /four /five /six
/seven /eight /nine /colon /semicolon
/less /equal /greater /question /at
/A /B /C /D /E
/F /G /H /I /J
/K /L /M /N /O
/P /Q /R /S /T
/U /V /W /X /Y
/Z /bracketleft /backslash /bracketright /asciicircum
/underscore /quoteleft /a /b /c
/d /e /f /g /h
/i /j /k /l /m
/n /o /p /q /r
/s /t /u /v /w
/x /y /z /braceleft /bar
/braceright /asciitilde /bullet /Euro /bullet
/quotesinglbase /florin /quotedblbase /ellipsis /dagger
/daggerdbl /circumflex /perthousand /Scaron /guilsinglleft
/OE /bullet /Zcaron /bullet /bullet
/quoteleft /quoteright /quotedblleft /quotedblright /bullet
/endash /emdash /asciitilde /trademark /scaron
/guilsinglright /oe /bullet /zcaron /Ydieresis
/space /exclamdown /cent /sterling /currency
/yen /brokenbar /section /dieresis /copyright
/ordfeminine /guillemotleft /logicalnot /sfthyphen /registered
/macron /degree /plusminus /twosuperior /threesuperior
/acute /mu /paragraph /middot /cedilla
/onesuperior /ordmasculine /guillemotright /onequarter /onehalf
/threequarters /questiondown /Agrave /Aacute /Acircumflex
/Atilde /Adieresis /Aring /AE /Ccedilla
/Egrave /Eacute /Ecircumflex /Edieresis /Igrave
/Iacute /Icircumflex /Idieresis /Eth /Ntilde
/Ograve /Oacute /Ocircumflex /Otilde /Odieresis
/multiply /Oslash /Ugrave /Uacute /Ucircumflex
/Udieresis /Yacute /Thorn /germandbls /agrave
/aacute /acircumflex /atilde /adieresis /aring
/ae /ccedilla /egrave /eacute /ecircumflex
/edieresis /igrave /iacute /icircumflex /idieresis
/eth /ntilde /ograve /oacute /ocircumflex
/otilde /odieresis /divide /oslash /ugrave
/uacute /ucircumflex /udieresis /yacute /thorn
/ydieresis
] def
%%EndResource
%FOPBeginFontReencode
/Courier-Bold findfont
dup length dict begin
  {1 index /FID ne {def} {pop pop} ifelse} forall
  /Encoding WinAnsiEncoding def
  currentdict
end
/Courier-Bold exch definefont pop
/Helvetica findfont
dup length dict begin
  {1 index /FID ne {def} {pop pop} ifelse} forall
  /Encoding WinAnsiEncoding def
  currentdict
end
/Helvetica exch definefont pop
/Courier-BoldOblique findfont
dup length dict begin
  {1 index /FID ne {def} {pop pop} ifelse} forall
  /Encoding WinAnsiEncoding def
  currentdict
end
/Courier-BoldOblique exch definefont pop
/Courier-Oblique findfont
dup length dict begin
  {1 index /FID ne {def} {pop pop} ifelse} forall
  /Encoding WinAnsiEncoding def
  currentdict
end
/Courier-Oblique exch definefont pop
/Times-Roman findfont
dup length dict begin
  {1 index /FID ne {def} {pop pop} ifelse} forall
  /Encoding WinAnsiEncoding def
  currentdict
end
/Times-Roman exch definefont pop
/Helvetica-BoldOblique findfont
dup length dict begin
  {1 index /FID ne {def} {pop pop} ifelse} forall
  /Encoding WinAnsiEncoding def
  currentdict
end
/Helvetica-BoldOblique exch definefont pop
/Helvetica-Bold findfont
dup length dict begin
  {1 index /FID ne {def} {pop pop} ifelse} forall
  /Encoding WinAnsiEncoding def
  currentdict
end
/Helvetica-Bold exch definefont pop
/Helvetica-Oblique findfont
dup length dict begin
  {1 index /FID ne {def} {pop pop} ifelse} forall
  /Encoding WinAnsiEncoding def
  currentdict
end
/Helvetica-Oblique exch definefont pop
/Times-BoldItalic findfont
dup length dict begin
  {1 index /FID ne {def} {pop pop} ifelse} forall
  /Encoding WinAnsiEncoding def
  currentdict
end
/Times-BoldItalic exch definefont pop
/Courier findfont
dup length dict begin
  {1 index /FID ne {def} {pop pop} ifelse} forall
  /Encoding WinAnsiEncoding def
  currentdict
end
/Courier exch definefont pop
/Times-Italic findfont
dup length dict begin
  {1 index /FID ne {def} {pop pop} ifelse} forall
  /Encoding WinAnsiEncoding def
  currentdict
end
/Times-Italic exch definefont pop
/Times-Bold findfont
dup length dict begin
  {1 index /FID ne {def} {pop pop} ifelse} forall
  /Encoding WinAnsiEncoding def
  currentdict
end
/Times-Bold exch definefont pop
%FOPEndFontReencode
%%EndProlog
%%Page: 1 1
%%PageBoundingBox: 0 0 560 420
%%BeginPageSetup
[1 0 0 -1 0 420] CT
%%EndPageSetup
GS
1 GC
N
0 0 560 420 re
f
GR
GS
1 GC
N
0 0 560 420 re
f
GR
GS
1 GC
N
85 373 M
507 373 L
507 31 L
85 31 L
cp
f
GR
GS
0.873 GC
2 setlinecap
10.0 ML
N
85 373 M
85 31 L
S
GR
GS
0.873 GC
2 setlinecap
10.0 ML
N
155.333 373 M
155.333 31 L
S
GR
GS
0.873 GC
2 setlinecap
10.0 ML
N
225.667 373 M
225.667 31 L
S
GR
GS
0.873 GC
2 setlinecap
10.0 ML
N
296 373 M
296 31 L
S
GR
GS
0.873 GC
2 setlinecap
10.0 ML
N
366.333 373 M
366.333 31 L
S
GR
GS
0.873 GC
2 setlinecap
10.0 ML
N
436.667 373 M
436.667 31 L
S
GR
GS
0.873 GC
2 setlinecap
10.0 ML
N
507 373 M
507 31 L
S
GR
GS
0.873 GC
2 setlinecap
10.0 ML
N
507 373 M
85 373 L
S
GR
GS
0.873 GC
2 setlinecap
10.0 ML
N
507 335 M
85 335 L
S
GR
GS
0.873 GC
2 setlinecap
10.0 ML
N
507 297 M
85 297 L
S
GR
GS
0.873 GC
2 setlinecap
10.0 ML
N
507 259 M
85 259 L
S
GR
GS
0.873 GC
2 setlinecap
10.0 ML
N
507 221 M
85 221 L
S
GR
GS
0.873 GC
2 setlinecap
10.0 ML
N
507 183 M
85 183 L
S
GR
GS
0.873 GC
2 setlinecap
10.0 ML
N
507 145 M
85 145 L
S
GR
GS
0.873 GC
2 setlinecap
10.0 ML
N
507 107 M
85 107 L
S
GR
GS
0.873 GC
2 setlinecap
10.0 ML
N
507 69 M
85 69 L
S
GR
GS
0.873 GC
2 setlinecap
10.0 ML
N
507 31 M
85 31 L
S
GR
GS
[1 0 0 1 296 399] CT
0.149 GC
/Helvetica 22 F
GS
[1 0 0 1 0 0] CT
-37.915 16.94 moveto 
1 -1 scale
(Rounds) t 
GR
GR
GS
0.149 GC
2 setlinecap
10.0 ML
N
85 373 M
507 373 L
S
GR
GS
0.149 GC
2 setlinecap
10.0 ML
N
85 31 M
507 31 L
S
GR
GS
0.149 GC
2 setlinecap
10.0 ML
N
85 373 M
85 368.66 L
S
GR
GS
0.149 GC
2 setlinecap
10.0 ML
N
85 31 M
85 35.34 L
S
GR
GS
0.149 GC
2 setlinecap
10.0 ML
N
155.333 373 M
155.333 368.66 L
S
GR
GS
0.149 GC
2 setlinecap
10.0 ML
N
155.333 31 M
155.333 35.34 L
S
GR
GS
0.149 GC
2 setlinecap
10.0 ML
N
225.667 373 M
225.667 368.66 L
S
GR
GS
0.149 GC
2 setlinecap
10.0 ML
N
225.667 31 M
225.667 35.34 L
S
GR
GS
0.149 GC
2 setlinecap
10.0 ML
N
296 373 M
296 368.66 L
S
GR
GS
0.149 GC
2 setlinecap
10.0 ML
N
296 31 M
296 35.34 L
S
GR
GS
0.149 GC
2 setlinecap
10.0 ML
N
366.333 373 M
366.333 368.66 L
S
GR
GS
0.149 GC
2 setlinecap
10.0 ML
N
366.333 31 M
366.333 35.34 L
S
GR
GS
0.149 GC
2 setlinecap
10.0 ML
N
436.667 373 M
436.667 368.66 L
S
GR
GS
0.149 GC
2 setlinecap
10.0 ML
N
436.667 31 M
436.667 35.34 L
S
GR
GS
0.149 GC
2 setlinecap
10.0 ML
N
507 373 M
507 368.66 L
S
GR
GS
0.149 GC
2 setlinecap
10.0 ML
N
507 31 M
507 35.34 L
S
GR
GS
[1 0 0 1 85 379] CT
0.149 GC
/Helvetica 20 F
GS
[1 0 0 1 0 0] CT
-5.562 15.4 moveto 
1 -1 scale
(0) t 
GR
GR
GS
[1 0 0 1 155.33333 379] CT
0.149 GC
/Helvetica 20 F
GS
[1 0 0 1 0 0] CT
-22.246 15.4 moveto 
1 -1 scale
(2000) t 
GR
GR
GS
[1 0 0 1 225.66667 379] CT
0.149 GC
/Helvetica 20 F
GS
[1 0 0 1 0 0] CT
-22.246 15.4 moveto 
1 -1 scale
(4000) t 
GR
GR
GS
[1 0 0 1 296 379] CT
0.149 GC
/Helvetica 20 F
GS
[1 0 0 1 0 0] CT
-22.246 15.4 moveto 
1 -1 scale
(6000) t 
GR
GR
GS
[1 0 0 1 366.33334 379] CT
0.149 GC
/Helvetica 20 F
GS
[1 0 0 1 0 0] CT
-22.246 15.4 moveto 
1 -1 scale
(8000) t 
GR
GR
GS
[1 0 0 1 436.66666 379] CT
0.149 GC
/Helvetica 20 F
GS
[1 0 0 1 0 0] CT
-27.808 15.4 moveto 
1 -1 scale
(10000) t 
GR
GR
GS
[1 0 0 1 507 379] CT
0.149 GC
/Helvetica 20 F
GS
[1 0 0 1 0 0] CT
-27.808 15.4 moveto 
1 -1 scale
(12000) t 
GR
GR
GS
[0 -1 1 0 20.38477 202] CT
0.149 GC
/Helvetica 22 F
GS
[1 0 0 1 0 0] CT
-86.813 -4.06 moveto 
1 -1 scale
(Cumulative regret) t 
GR
GR
GS
0.149 GC
2 setlinecap
10.0 ML
N
85 373 M
85 31 L
S
GR
GS
0.149 GC
2 setlinecap
10.0 ML
N
507 373 M
507 31 L
S
GR
GS
0.149 GC
2 setlinecap
10.0 ML
N
85 373 M
89.34 373 L
S
GR
GS
0.149 GC
2 setlinecap
10.0 ML
N
507 373 M
502.66 373 L
S
GR
GS
0.149 GC
2 setlinecap
10.0 ML
N
85 335 M
89.34 335 L
S
GR
GS
0.149 GC
2 setlinecap
10.0 ML
N
507 335 M
502.66 335 L
S
GR
GS
0.149 GC
2 setlinecap
10.0 ML
N
85 297 M
89.34 297 L
S
GR
GS
0.149 GC
2 setlinecap
10.0 ML
N
507 297 M
502.66 297 L
S
GR
GS
0.149 GC
2 setlinecap
10.0 ML
N
85 259 M
89.34 259 L
S
GR
GS
0.149 GC
2 setlinecap
10.0 ML
N
507 259 M
502.66 259 L
S
GR
GS
0.149 GC
2 setlinecap
10.0 ML
N
85 221 M
89.34 221 L
S
GR
GS
0.149 GC
2 setlinecap
10.0 ML
N
507 221 M
502.66 221 L
S
GR
GS
0.149 GC
2 setlinecap
10.0 ML
N
85 183 M
89.34 183 L
S
GR
GS
0.149 GC
2 setlinecap
10.0 ML
N
507 183 M
502.66 183 L
S
GR
GS
0.149 GC
2 setlinecap
10.0 ML
N
85 145 M
89.34 145 L
S
GR
GS
0.149 GC
2 setlinecap
10.0 ML
N
507 145 M
502.66 145 L
S
GR
GS
0.149 GC
2 setlinecap
10.0 ML
N
85 107 M
89.34 107 L
S
GR
GS
0.149 GC
2 setlinecap
10.0 ML
N
507 107 M
502.66 107 L
S
GR
GS
0.149 GC
2 setlinecap
10.0 ML
N
85 69 M
89.34 69 L
S
GR
GS
0.149 GC
2 setlinecap
10.0 ML
N
507 69 M
502.66 69 L
S
GR
GS
0.149 GC
2 setlinecap
10.0 ML
N
85 31 M
89.34 31 L
S
GR
GS
0.149 GC
2 setlinecap
10.0 ML
N
507 31 M
502.66 31 L
S
GR
GS
[1 0 0 1 79 373] CT
0.149 GC
/Helvetica 20 F
GS
[1 0 0 1 0 0] CT
-11.123 5.9 moveto 
1 -1 scale
(0) t 
GR
GR
GS
[1 0 0 1 79 335] CT
0.149 GC
/Helvetica 20 F
GS
[1 0 0 1 0 0] CT
-44.492 5.9 moveto 
1 -1 scale
(2000) t 
GR
GR
GS
[1 0 0 1 79 297] CT
0.149 GC
/Helvetica 20 F
GS
[1 0 0 1 0 0] CT
-44.492 5.9 moveto 
1 -1 scale
(4000) t 
GR
GR
GS
[1 0 0 1 79 259] CT
0.149 GC
/Helvetica 20 F
GS
[1 0 0 1 0 0] CT
-44.492 5.9 moveto 
1 -1 scale
(6000) t 
GR
GR
GS
[1 0 0 1 79 221] CT
0.149 GC
/Helvetica 20 F
GS
[1 0 0 1 0 0] CT
-44.492 5.9 moveto 
1 -1 scale
(8000) t 
GR
GR
GS
[1 0 0 1 79 183] CT
0.149 GC
/Helvetica 20 F
GS
[1 0 0 1 0 0] CT
-55.615 5.9 moveto 
1 -1 scale
(10000) t 
GR
GR
GS
[1 0 0 1 79 145] CT
0.149 GC
/Helvetica 20 F
GS
[1 0 0 1 0 0] CT
-55.615 5.9 moveto 
1 -1 scale
(12000) t 
GR
GR
GS
[1 0 0 1 79 107] CT
0.149 GC
/Helvetica 20 F
GS
[1 0 0 1 0 0] CT
-55.615 5.9 moveto 
1 -1 scale
(14000) t 
GR
GR
GS
[1 0 0 1 79 69] CT
0.149 GC
/Helvetica 20 F
GS
[1 0 0 1 0 0] CT
-55.615 5.9 moveto 
1 -1 scale
(16000) t 
GR
GR
GS
[1 0 0 1 79 31] CT
0.149 GC
/Helvetica 20 F
GS
[1 0 0 1 0 0] CT
-55.615 5.9 moveto 
1 -1 scale
(18000) t 
GR
GR
GS
1 0 0 RC
2 setlinecap
10.0 ML
N
88.517 370.152 M
88.517 370.134 L
S
GR
GS
1 0 0 RC
2 setlinecap
10.0 ML
N
99.067 361.45 M
99.067 361.375 L
S
GR
GS
1 0 0 RC
2 setlinecap
10.0 ML
N
109.617 352.454 M
109.617 352.344 L
S
GR
GS
1 0 0 RC
2 setlinecap
10.0 ML
N
120.167 343.496 M
120.167 343.348 L
S
GR
GS
1 0 0 RC
2 setlinecap
10.0 ML
N
130.717 334.374 M
130.717 334.199 L
S
GR
GS
1 0 0 RC
2 setlinecap
10.0 ML
N
141.267 325.009 M
141.267 324.793 L
S
GR
GS
1 0 0 RC
2 setlinecap
10.0 ML
N
151.817 315.885 M
151.817 315.576 L
S
GR
GS
1 0 0 RC
2 setlinecap
10.0 ML
N
162.367 306.567 M
162.367 306.232 L
S
GR
GS
1 0 0 RC
2 setlinecap
10.0 ML
N
172.917 297.26 M
172.917 296.886 L
S
GR
GS
1 0 0 RC
2 setlinecap
10.0 ML
N
183.467 288.24 M
183.467 287.793 L
S
GR
GS
1 0 0 RC
2 setlinecap
10.0 ML
N
194.017 278.368 M
194.017 277.921 L
S
GR
GS
1 0 0 RC
2 setlinecap
10.0 ML
N
204.567 268.709 M
204.567 268.239 L
S
GR
GS
1 0 0 RC
2 setlinecap
10.0 ML
N
215.117 259.267 M
215.117 258.748 L
S
GR
GS
1 0 0 RC
2 setlinecap
10.0 ML
N
225.667 249.477 M
225.667 248.911 L
S
GR
GS
1 0 0 RC
2 setlinecap
10.0 ML
N
236.217 240.101 M
236.217 239.456 L
S
GR
GS
1 0 0 RC
2 setlinecap
10.0 ML
N
246.767 230.315 M
246.767 229.68 L
S
GR
GS
1 0 0 RC
2 setlinecap
10.0 ML
N
257.317 220.592 M
257.317 219.853 L
S
GR
GS
1 0 0 RC
2 setlinecap
10.0 ML
N
267.867 210.318 M
267.867 209.707 L
S
GR
GS
1 0 0 RC
2 setlinecap
10.0 ML
N
278.417 201.055 M
278.417 200.348 L
S
GR
GS
1 0 0 RC
2 setlinecap
10.0 ML
N
288.967 191.629 M
288.967 190.85 L
S
GR
GS
1 0 0 RC
2 setlinecap
10.0 ML
N
299.517 181.379 M
299.517 180.594 L
S
GR
GS
1 0 0 RC
2 setlinecap
10.0 ML
N
310.067 170.379 M
310.067 169.474 L
S
GR
GS
1 0 0 RC
2 setlinecap
10.0 ML
N
320.617 161.105 M
320.617 160.12 L
S
GR
GS
1 0 0 RC
2 setlinecap
10.0 ML
N
331.167 151.199 M
331.167 150.27 L
S
GR
GS
1 0 0 RC
2 setlinecap
10.0 ML
N
341.717 141.008 M
341.717 139.979 L
S
GR
GS
1 0 0 RC
2 setlinecap
10.0 ML
N
352.267 130.584 M
352.267 129.772 L
S
GR
GS
1 0 0 RC
2 setlinecap
10.0 ML
N
362.817 121.771 M
362.817 120.769 L
S
GR
GS
1 0 0 RC
2 setlinecap
10.0 ML
N
373.367 110.33 M
373.367 109.264 L
S
GR
GS
1 0 0 RC
2 setlinecap
10.0 ML
N
383.917 100.016 M
383.917 98.854 L
S
GR
GS
1 0 0 RC
2 setlinecap
10.0 ML
N
394.467 89.903 M
394.467 88.768 L
S
GR
GS
1 0 0 RC
2 setlinecap
10.0 ML
N
405.017 79.419 M
405.017 78.316 L
S
GR
GS
1 0 0 RC
2 setlinecap
10.0 ML
N
415.567 70.4 M
415.567 69.255 L
S
GR
GS
1 0 0 RC
2 setlinecap
10.0 ML
N
426.117 61.52 M
426.117 60.35 L
S
GR
GS
1 0 0 RC
2 setlinecap
10.0 ML
N
436.667 50.17 M
436.667 48.98 L
S
GR
GS
1 0 0 RC
2 setlinecap
10.0 ML
N
85.035 370.152 M
91.998 370.152 L
S
GR
GS
1 0 0 RC
2 setlinecap
10.0 ML
N
95.585 361.45 M
102.548 361.45 L
S
GR
GS
1 0 0 RC
2 setlinecap
10.0 ML
N
106.135 352.454 M
113.098 352.454 L
S
GR
GS
1 0 0 RC
2 setlinecap
10.0 ML
N
116.685 343.496 M
123.648 343.496 L
S
GR
GS
1 0 0 RC
2 setlinecap
10.0 ML
N
127.235 334.374 M
134.198 334.374 L
S
GR
GS
1 0 0 RC
2 setlinecap
10.0 ML
N
137.785 325.009 M
144.748 325.009 L
S
GR
GS
1 0 0 RC
2 setlinecap
10.0 ML
N
148.335 315.885 M
155.298 315.885 L
S
GR
GS
1 0 0 RC
2 setlinecap
10.0 ML
N
158.885 306.567 M
165.848 306.567 L
S
GR
GS
1 0 0 RC
2 setlinecap
10.0 ML
N
169.435 297.26 M
176.398 297.26 L
S
GR
GS
1 0 0 RC
2 setlinecap
10.0 ML
N
179.985 288.24 M
186.948 288.24 L
S
GR
GS
1 0 0 RC
2 setlinecap
10.0 ML
N
190.535 278.368 M
197.498 278.368 L
S
GR
GS
1 0 0 RC
2 setlinecap
10.0 ML
N
201.085 268.709 M
208.048 268.709 L
S
GR
GS
1 0 0 RC
2 setlinecap
10.0 ML
N
211.635 259.267 M
218.598 259.267 L
S
GR
GS
1 0 0 RC
2 setlinecap
10.0 ML
N
222.185 249.477 M
229.148 249.477 L
S
GR
GS
1 0 0 RC
2 setlinecap
10.0 ML
N
232.735 240.101 M
239.698 240.101 L
S
GR
GS
1 0 0 RC
2 setlinecap
10.0 ML
N
243.285 230.315 M
250.248 230.315 L
S
GR
GS
1 0 0 RC
2 setlinecap
10.0 ML
N
253.835 220.592 M
260.798 220.592 L
S
GR
GS
1 0 0 RC
2 setlinecap
10.0 ML
N
264.385 210.318 M
271.348 210.318 L
S
GR
GS
1 0 0 RC
2 setlinecap
10.0 ML
N
274.935 201.055 M
281.898 201.055 L
S
GR
GS
1 0 0 RC
2 setlinecap
10.0 ML
N
285.485 191.629 M
292.448 191.629 L
S
GR
GS
1 0 0 RC
2 setlinecap
10.0 ML
N
296.035 181.379 M
302.998 181.379 L
S
GR
GS
1 0 0 RC
2 setlinecap
10.0 ML
N
306.585 170.379 M
313.548 170.379 L
S
GR
GS
1 0 0 RC
2 setlinecap
10.0 ML
N
317.135 161.105 M
324.098 161.105 L
S
GR
GS
1 0 0 RC
2 setlinecap
10.0 ML
N
327.685 151.199 M
334.648 151.199 L
S
GR
GS
1 0 0 RC
2 setlinecap
10.0 ML
N
338.235 141.008 M
345.198 141.008 L
S
GR
GS
1 0 0 RC
2 setlinecap
10.0 ML
N
348.785 130.584 M
355.748 130.584 L
S
GR
GS
1 0 0 RC
2 setlinecap
10.0 ML
N
359.335 121.771 M
366.298 121.771 L
S
GR
GS
1 0 0 RC
2 setlinecap
10.0 ML
N
369.885 110.33 M
376.848 110.33 L
S
GR
GS
1 0 0 RC
2 setlinecap
10.0 ML
N
380.435 100.016 M
387.398 100.016 L
S
GR
GS
1 0 0 RC
2 setlinecap
10.0 ML
N
390.985 89.903 M
397.948 89.903 L
S
GR
GS
1 0 0 RC
2 setlinecap
10.0 ML
N
401.535 79.419 M
408.498 79.419 L
S
GR
GS
1 0 0 RC
2 setlinecap
10.0 ML
N
412.085 70.4 M
419.048 70.4 L
S
GR
GS
1 0 0 RC
2 setlinecap
10.0 ML
N
422.635 61.52 M
429.598 61.52 L
S
GR
GS
1 0 0 RC
2 setlinecap
10.0 ML
N
433.185 50.17 M
440.148 50.17 L
S
GR
GS
1 0 0 RC
2 setlinecap
10.0 ML
N
85.035 370.134 M
91.998 370.134 L
S
GR
GS
1 0 0 RC
2 setlinecap
10.0 ML
N
95.585 361.375 M
102.548 361.375 L
S
GR
GS
1 0 0 RC
2 setlinecap
10.0 ML
N
106.135 352.344 M
113.098 352.344 L
S
GR
GS
1 0 0 RC
2 setlinecap
10.0 ML
N
116.685 343.348 M
123.648 343.348 L
S
GR
GS
1 0 0 RC
2 setlinecap
10.0 ML
N
127.235 334.199 M
134.198 334.199 L
S
GR
GS
1 0 0 RC
2 setlinecap
10.0 ML
N
137.785 324.793 M
144.748 324.793 L
S
GR
GS
1 0 0 RC
2 setlinecap
10.0 ML
N
148.335 315.576 M
155.298 315.576 L
S
GR
GS
1 0 0 RC
2 setlinecap
10.0 ML
N
158.885 306.232 M
165.848 306.232 L
S
GR
GS
1 0 0 RC
2 setlinecap
10.0 ML
N
169.435 296.886 M
176.398 296.886 L
S
GR
GS
1 0 0 RC
2 setlinecap
10.0 ML
N
179.985 287.793 M
186.948 287.793 L
S
GR
GS
1 0 0 RC
2 setlinecap
10.0 ML
N
190.535 277.921 M
197.498 277.921 L
S
GR
GS
1 0 0 RC
2 setlinecap
10.0 ML
N
201.085 268.239 M
208.048 268.239 L
S
GR
GS
1 0 0 RC
2 setlinecap
10.0 ML
N
211.635 258.748 M
218.598 258.748 L
S
GR
GS
1 0 0 RC
2 setlinecap
10.0 ML
N
222.185 248.911 M
229.148 248.911 L
S
GR
GS
1 0 0 RC
2 setlinecap
10.0 ML
N
232.735 239.456 M
239.698 239.456 L
S
GR
GS
1 0 0 RC
2 setlinecap
10.0 ML
N
243.285 229.68 M
250.248 229.68 L
S
GR
GS
1 0 0 RC
2 setlinecap
10.0 ML
N
253.835 219.853 M
260.798 219.853 L
S
GR
GS
1 0 0 RC
2 setlinecap
10.0 ML
N
264.385 209.707 M
271.348 209.707 L
S
GR
GS
1 0 0 RC
2 setlinecap
10.0 ML
N
274.935 200.348 M
281.898 200.348 L
S
GR
GS
1 0 0 RC
2 setlinecap
10.0 ML
N
285.485 190.85 M
292.448 190.85 L
S
GR
GS
1 0 0 RC
2 setlinecap
10.0 ML
N
296.035 180.594 M
302.998 180.594 L
S
GR
GS
1 0 0 RC
2 setlinecap
10.0 ML
N
306.585 169.474 M
313.548 169.474 L
S
GR
GS
1 0 0 RC
2 setlinecap
10.0 ML
N
317.135 160.12 M
324.098 160.12 L
S
GR
GS
1 0 0 RC
2 setlinecap
10.0 ML
N
327.685 150.27 M
334.648 150.27 L
S
GR
GS
1 0 0 RC
2 setlinecap
10.0 ML
N
338.235 139.979 M
345.198 139.979 L
S
GR
GS
1 0 0 RC
2 setlinecap
10.0 ML
N
348.785 129.772 M
355.748 129.772 L
S
GR
GS
1 0 0 RC
2 setlinecap
10.0 ML
N
359.335 120.769 M
366.298 120.769 L
S
GR
GS
1 0 0 RC
2 setlinecap
10.0 ML
N
369.885 109.264 M
376.848 109.264 L
S
GR
GS
1 0 0 RC
2 setlinecap
10.0 ML
N
380.435 98.854 M
387.398 98.854 L
S
GR
GS
1 0 0 RC
2 setlinecap
10.0 ML
N
390.985 88.768 M
397.948 88.768 L
S
GR
GS
1 0 0 RC
2 setlinecap
10.0 ML
N
401.535 78.316 M
408.498 78.316 L
S
GR
GS
1 0 0 RC
2 setlinecap
10.0 ML
N
412.085 69.255 M
419.048 69.255 L
S
GR
GS
1 0 0 RC
2 setlinecap
10.0 ML
N
422.635 60.35 M
429.598 60.35 L
S
GR
GS
1 0 0 RC
2 setlinecap
10.0 ML
N
433.185 48.98 M
440.148 48.98 L
S
GR
GS
1 0 0 RC
2 setlinecap
10.0 ML
N
88.517 370.143 M
99.067 361.413 L
109.617 352.399 L
120.167 343.422 L
130.717 334.287 L
141.267 324.901 L
151.817 315.73 L
162.367 306.399 L
172.917 297.073 L
183.467 288.016 L
194.017 278.144 L
204.567 268.474 L
215.117 259.008 L
225.667 249.194 L
236.217 239.779 L
246.767 229.997 L
257.317 220.222 L
267.867 210.012 L
278.417 200.702 L
288.967 191.239 L
299.517 180.986 L
310.067 169.927 L
320.617 160.612 L
331.167 150.734 L
341.717 140.493 L
352.267 130.178 L
362.817 121.27 L
373.367 109.797 L
383.917 99.435 L
394.467 89.336 L
405.017 78.867 L
415.567 69.828 L
426.117 60.935 L
436.667 49.575 L
S
GR
GS
0 0 1 RC
2 setlinecap
10.0 ML
N
88.517 370.48 M
88.517 370.235 L
S
GR
GS
0 0 1 RC
2 setlinecap
10.0 ML
N
99.067 365.95 M
99.067 365.238 L
S
GR
GS
0 0 1 RC
2 setlinecap
10.0 ML
N
109.617 362.007 M
109.617 360.79 L
S
GR
GS
0 0 1 RC
2 setlinecap
10.0 ML
N
120.167 359.325 M
120.167 357.789 L
S
GR
GS
0 0 1 RC
2 setlinecap
10.0 ML
N
130.717 355.865 M
130.717 353.987 L
S
GR
GS
0 0 1 RC
2 setlinecap
10.0 ML
N
141.267 351.721 M
141.267 349.498 L
S
GR
GS
0 0 1 RC
2 setlinecap
10.0 ML
N
151.817 349.306 M
151.817 346.997 L
S
GR
GS
0 0 1 RC
2 setlinecap
10.0 ML
N
162.367 347.396 M
162.367 344.701 L
S
GR
GS
0 0 1 RC
2 setlinecap
10.0 ML
N
172.917 342.135 M
172.917 339.061 L
S
GR
GS
0 0 1 RC
2 setlinecap
10.0 ML
N
183.467 342.265 M
183.467 339.089 L
S
GR
GS
0 0 1 RC
2 setlinecap
10.0 ML
N
194.017 338.148 M
194.017 334.972 L
S
GR
GS
0 0 1 RC
2 setlinecap
10.0 ML
N
204.567 335.809 M
204.567 332.687 L
S
GR
GS
0 0 1 RC
2 setlinecap
10.0 ML
N
215.117 332.017 M
215.117 328.619 L
S
GR
GS
0 0 1 RC
2 setlinecap
10.0 ML
N
225.667 332.576 M
225.667 328.75 L
S
GR
GS
0 0 1 RC
2 setlinecap
10.0 ML
N
236.217 330.536 M
236.217 326.813 L
S
GR
GS
0 0 1 RC
2 setlinecap
10.0 ML
N
246.767 326.828 M
246.767 322.803 L
S
GR
GS
0 0 1 RC
2 setlinecap
10.0 ML
N
257.317 330.31 M
257.317 325.888 L
S
GR
GS
0 0 1 RC
2 setlinecap
10.0 ML
N
267.867 321.155 M
267.867 316.742 L
S
GR
GS
0 0 1 RC
2 setlinecap
10.0 ML
N
278.417 322.287 M
278.417 317.822 L
S
GR
GS
0 0 1 RC
2 setlinecap
10.0 ML
N
288.967 316.837 M
288.967 312.195 L
S
GR
GS
0 0 1 RC
2 setlinecap
10.0 ML
N
299.517 319.827 M
299.517 314.818 L
S
GR
GS
0 0 1 RC
2 setlinecap
10.0 ML
N
310.067 315.557 M
310.067 310.228 L
S
GR
GS
0 0 1 RC
2 setlinecap
10.0 ML
N
320.617 308.449 M
320.617 303.097 L
S
GR
GS
0 0 1 RC
2 setlinecap
10.0 ML
N
331.167 309.692 M
331.167 304.883 L
S
GR
GS
0 0 1 RC
2 setlinecap
10.0 ML
N
341.717 305.217 M
341.717 299.705 L
S
GR
GS
0 0 1 RC
2 setlinecap
10.0 ML
N
352.267 308.171 M
352.267 302.522 L
S
GR
GS
0 0 1 RC
2 setlinecap
10.0 ML
N
362.817 309.35 M
362.817 304.233 L
S
GR
GS
0 0 1 RC
2 setlinecap
10.0 ML
N
373.367 305.591 M
373.367 299.416 L
S
GR
GS
0 0 1 RC
2 setlinecap
10.0 ML
N
383.917 303.312 M
383.917 297.191 L
S
GR
GS
0 0 1 RC
2 setlinecap
10.0 ML
N
394.467 306.312 M
394.467 300.297 L
S
GR
GS
0 0 1 RC
2 setlinecap
10.0 ML
N
405.017 296.082 M
405.017 290.221 L
S
GR
GS
0 0 1 RC
2 setlinecap
10.0 ML
N
415.567 297.982 M
415.567 292.111 L
S
GR
GS
0 0 1 RC
2 setlinecap
10.0 ML
N
426.117 300.246 M
426.117 293.239 L
S
GR
GS
0 0 1 RC
2 setlinecap
10.0 ML
N
436.667 290.738 M
436.667 284.574 L
S
GR
GS
0 0 1 RC
2 setlinecap
10.0 ML
N
85.035 370.48 M
91.998 370.48 L
S
GR
GS
0 0 1 RC
2 setlinecap
10.0 ML
N
95.585 365.95 M
102.548 365.95 L
S
GR
GS
0 0 1 RC
2 setlinecap
10.0 ML
N
106.135 362.007 M
113.098 362.007 L
S
GR
GS
0 0 1 RC
2 setlinecap
10.0 ML
N
116.685 359.325 M
123.648 359.325 L
S
GR
GS
0 0 1 RC
2 setlinecap
10.0 ML
N
127.235 355.865 M
134.198 355.865 L
S
GR
GS
0 0 1 RC
2 setlinecap
10.0 ML
N
137.785 351.721 M
144.748 351.721 L
S
GR
GS
0 0 1 RC
2 setlinecap
10.0 ML
N
148.335 349.306 M
155.298 349.306 L
S
GR
GS
0 0 1 RC
2 setlinecap
10.0 ML
N
158.885 347.396 M
165.848 347.396 L
S
GR
GS
0 0 1 RC
2 setlinecap
10.0 ML
N
169.435 342.135 M
176.398 342.135 L
S
GR
GS
0 0 1 RC
2 setlinecap
10.0 ML
N
179.985 342.265 M
186.948 342.265 L
S
GR
GS
0 0 1 RC
2 setlinecap
10.0 ML
N
190.535 338.148 M
197.498 338.148 L
S
GR
GS
0 0 1 RC
2 setlinecap
10.0 ML
N
201.085 335.809 M
208.048 335.809 L
S
GR
GS
0 0 1 RC
2 setlinecap
10.0 ML
N
211.635 332.017 M
218.598 332.017 L
S
GR
GS
0 0 1 RC
2 setlinecap
10.0 ML
N
222.185 332.576 M
229.148 332.576 L
S
GR
GS
0 0 1 RC
2 setlinecap
10.0 ML
N
232.735 330.536 M
239.698 330.536 L
S
GR
GS
0 0 1 RC
2 setlinecap
10.0 ML
N
243.285 326.828 M
250.248 326.828 L
S
GR
GS
0 0 1 RC
2 setlinecap
10.0 ML
N
253.835 330.31 M
260.798 330.31 L
S
GR
GS
0 0 1 RC
2 setlinecap
10.0 ML
N
264.385 321.155 M
271.348 321.155 L
S
GR
GS
0 0 1 RC
2 setlinecap
10.0 ML
N
274.935 322.287 M
281.898 322.287 L
S
GR
GS
0 0 1 RC
2 setlinecap
10.0 ML
N
285.485 316.837 M
292.448 316.837 L
S
GR
GS
0 0 1 RC
2 setlinecap
10.0 ML
N
296.035 319.827 M
302.998 319.827 L
S
GR
GS
0 0 1 RC
2 setlinecap
10.0 ML
N
306.585 315.557 M
313.548 315.557 L
S
GR
GS
0 0 1 RC
2 setlinecap
10.0 ML
N
317.135 308.449 M
324.098 308.449 L
S
GR
GS
0 0 1 RC
2 setlinecap
10.0 ML
N
327.685 309.692 M
334.648 309.692 L
S
GR
GS
0 0 1 RC
2 setlinecap
10.0 ML
N
338.235 305.217 M
345.198 305.217 L
S
GR
GS
0 0 1 RC
2 setlinecap
10.0 ML
N
348.785 308.171 M
355.748 308.171 L
S
GR
GS
0 0 1 RC
2 setlinecap
10.0 ML
N
359.335 309.35 M
366.298 309.35 L
S
GR
GS
0 0 1 RC
2 setlinecap
10.0 ML
N
369.885 305.591 M
376.848 305.591 L
S
GR
GS
0 0 1 RC
2 setlinecap
10.0 ML
N
380.435 303.312 M
387.398 303.312 L
S
GR
GS
0 0 1 RC
2 setlinecap
10.0 ML
N
390.985 306.312 M
397.948 306.312 L
S
GR
GS
0 0 1 RC
2 setlinecap
10.0 ML
N
401.535 296.082 M
408.498 296.082 L
S
GR
GS
0 0 1 RC
2 setlinecap
10.0 ML
N
412.085 297.982 M
419.048 297.982 L
S
GR
GS
0 0 1 RC
2 setlinecap
10.0 ML
N
422.635 300.246 M
429.598 300.246 L
S
GR
GS
0 0 1 RC
2 setlinecap
10.0 ML
N
433.185 290.738 M
440.148 290.738 L
S
GR
GS
0 0 1 RC
2 setlinecap
10.0 ML
N
85.035 370.235 M
91.998 370.235 L
S
GR
GS
0 0 1 RC
2 setlinecap
10.0 ML
N
95.585 365.238 M
102.548 365.238 L
S
GR
GS
0 0 1 RC
2 setlinecap
10.0 ML
N
106.135 360.79 M
113.098 360.79 L
S
GR
GS
0 0 1 RC
2 setlinecap
10.0 ML
N
116.685 357.789 M
123.648 357.789 L
S
GR
GS
0 0 1 RC
2 setlinecap
10.0 ML
N
127.235 353.987 M
134.198 353.987 L
S
GR
GS
0 0 1 RC
2 setlinecap
10.0 ML
N
137.785 349.498 M
144.748 349.498 L
S
GR
GS
0 0 1 RC
2 setlinecap
10.0 ML
N
148.335 346.997 M
155.298 346.997 L
S
GR
GS
0 0 1 RC
2 setlinecap
10.0 ML
N
158.885 344.701 M
165.848 344.701 L
S
GR
GS
0 0 1 RC
2 setlinecap
10.0 ML
N
169.435 339.061 M
176.398 339.061 L
S
GR
GS
0 0 1 RC
2 setlinecap
10.0 ML
N
179.985 339.089 M
186.948 339.089 L
S
GR
GS
0 0 1 RC
2 setlinecap
10.0 ML
N
190.535 334.972 M
197.498 334.972 L
S
GR
GS
0 0 1 RC
2 setlinecap
10.0 ML
N
201.085 332.687 M
208.048 332.687 L
S
GR
GS
0 0 1 RC
2 setlinecap
10.0 ML
N
211.635 328.619 M
218.598 328.619 L
S
GR
GS
0 0 1 RC
2 setlinecap
10.0 ML
N
222.185 328.75 M
229.148 328.75 L
S
GR
GS
0 0 1 RC
2 setlinecap
10.0 ML
N
232.735 326.813 M
239.698 326.813 L
S
GR
GS
0 0 1 RC
2 setlinecap
10.0 ML
N
243.285 322.803 M
250.248 322.803 L
S
GR
GS
0 0 1 RC
2 setlinecap
10.0 ML
N
253.835 325.888 M
260.798 325.888 L
S
GR
GS
0 0 1 RC
2 setlinecap
10.0 ML
N
264.385 316.742 M
271.348 316.742 L
S
GR
GS
0 0 1 RC
2 setlinecap
10.0 ML
N
274.935 317.822 M
281.898 317.822 L
S
GR
GS
0 0 1 RC
2 setlinecap
10.0 ML
N
285.485 312.195 M
292.448 312.195 L
S
GR
GS
0 0 1 RC
2 setlinecap
10.0 ML
N
296.035 314.818 M
302.998 314.818 L
S
GR
GS
0 0 1 RC
2 setlinecap
10.0 ML
N
306.585 310.228 M
313.548 310.228 L
S
GR
GS
0 0 1 RC
2 setlinecap
10.0 ML
N
317.135 303.097 M
324.098 303.097 L
S
GR
GS
0 0 1 RC
2 setlinecap
10.0 ML
N
327.685 304.883 M
334.648 304.883 L
S
GR
GS
0 0 1 RC
2 setlinecap
10.0 ML
N
338.235 299.705 M
345.198 299.705 L
S
GR
GS
0 0 1 RC
2 setlinecap
10.0 ML
N
348.785 302.522 M
355.748 302.522 L
S
GR
GS
0 0 1 RC
2 setlinecap
10.0 ML
N
359.335 304.233 M
366.298 304.233 L
S
GR
GS
0 0 1 RC
2 setlinecap
10.0 ML
N
369.885 299.416 M
376.848 299.416 L
S
GR
GS
0 0 1 RC
2 setlinecap
10.0 ML
N
380.435 297.191 M
387.398 297.191 L
S
GR
GS
0 0 1 RC
2 setlinecap
10.0 ML
N
390.985 300.297 M
397.948 300.297 L
S
GR
GS
0 0 1 RC
2 setlinecap
10.0 ML
N
401.535 290.221 M
408.498 290.221 L
S
GR
GS
0 0 1 RC
2 setlinecap
10.0 ML
N
412.085 292.111 M
419.048 292.111 L
S
GR
GS
0 0 1 RC
2 setlinecap
10.0 ML
N
422.635 293.239 M
429.598 293.239 L
S
GR
GS
0 0 1 RC
2 setlinecap
10.0 ML
N
433.185 284.574 M
440.148 284.574 L
S
GR
GS
0 0 1 RC
2 setlinecap
10.0 ML
N
88.517 370.357 M
99.067 365.594 L
109.617 361.399 L
120.167 358.557 L
130.717 354.926 L
141.267 350.609 L
151.817 348.151 L
162.367 346.049 L
172.917 340.598 L
183.467 340.677 L
194.017 336.56 L
204.567 334.248 L
215.117 330.318 L
225.667 330.663 L
236.217 328.674 L
246.767 324.816 L
257.317 328.099 L
267.867 318.949 L
278.417 320.054 L
288.967 314.516 L
299.517 317.322 L
310.067 312.893 L
320.617 305.773 L
331.167 307.287 L
341.717 302.461 L
352.267 305.347 L
362.817 306.792 L
373.367 302.504 L
383.917 300.251 L
394.467 303.304 L
405.017 293.152 L
415.567 295.046 L
426.117 296.742 L
436.667 287.656 L
S
GR
GS
1 GC
N
394 79 M
394 41 L
497 41 L
497 79 L
cp
f
GR
GS
[1 0 0 1 433.00479 51.36364] CT
/Helvetica 18 F
GS
[1 0 0 1 0 0] CT
0 5.36 moveto 
1 -1 scale
(UCB) t 
GR
GR
GS
1 0 0 RC
2 setlinecap
10.0 ML
N
400.001 51.364 M
430.004 51.364 L
S
GR
GS
[1 0 0 1 433.00479 68.63636] CT
/Helvetica 18 F
GS
[1 0 0 1 0 0] CT
0 5.36 moveto 
1 -1 scale
(W-UCB) t 
GR
GR
GS
0 0 1 RC
2 setlinecap
10.0 ML
N
400.001 68.636 M
430.004 68.636 L
S
GR
GS
0.149 GC
2 setlinecap
10.0 ML
N
394 79 M
394 41 L
497 41 L
497 79 L
394 79 L
S
GR
%%Trailer
%%Pages: 1
%%EOF
