X,Y,Y_error
100,90.755,0.371582
400,366.580,1.337322
700,644.402,2.295710
1000,928.249,3.482213
1300,1212.365,3.465712
1600,1494.629,4.603227
1900,1781.336,6.028665
2200,2064.427,5.644464
2500,2341.206,7.593497
2800,2613.470,8.172634
3100,2939.313,9.226002
3400,3207.099,9.711916
3700,3495.927,12.574419
4000,3798.137,11.671802
4300,4093.279,12.061682
4600,4368.457,12.988263
4900,4669.894,13.767963
5200,4939.370,14.494147
5500,5241.346,16.872034
5800,5523.898,16.619861
6100,5839.993,17.663385
6400,6156.609,17.210017
6700,6438.945,19.538467
7000,6736.029,18.079077
7300,7043.221,18.000757
7600,7336.511,19.774061
7900,7609.170,24.062996
8200,7925.967,22.987252
8500,8242.367,24.402554
8800,8550.494,22.123994
9100,8837.057,26.505120
9400,9106.408,24.259898
9700,9438.887,23.674108
10000,9737.392,26.968270
10300,10011.653,25.131069
10600,10343.215,26.624300
10900,10647.799,28.085943
11200,10905.333,27.698327
11500,11156.015,31.176055
11800,11524.645,29.845084
12100,11842.323,31.469724
12400,12158.723,35.546573
12700,12488.325,36.371737
13000,12718.359,34.381607
13300,13108.554,36.489271
13600,13363.247,37.799281
13900,13744.161,38.076713
14200,14021.911,37.070276
14500,14274.103,40.061203
14800,14648.273,39.014243
15100,14929.260,38.178210
15400,15225.085,38.416236
15700,15427.584,41.488824
16000,15867.563,42.625336
16300,16112.507,37.838624
16600,16453.368,42.511958
16900,16725.866,45.048820
17200,17029.065,48.154754
17500,17383.577,46.513656
17800,17631.632,40.154019
18100,18007.277,45.469476
18400,18329.739,49.223624
18700,18586.967,50.707462
19000,18910.274,54.023766
19300,19237.304,50.131695
19600,19603.309,51.031453
19900,19870.411,50.128788
20200,20183.826,56.525429
20500,20450.892,59.090242
20800,20718.498,59.899612
21100,21153.909,53.512105
21400,21430.399,59.736969
21700,21741.494,57.744992
22000,22177.696,50.480711
22300,22438.683,60.965589
22600,22787.404,57.776776
22900,23062.690,55.533639
23200,23148.228,59.479659
23500,23613.423,59.968450
23800,23958.816,64.463745
24100,24429.244,56.026958
24400,24602.696,71.137491
24700,24955.913,57.852540
25000,25133.915,63.551553
25300,25587.671,66.722245
25600,25852.687,66.460031
25900,26254.770,60.752382
26200,26457.862,64.853850
26500,26753.292,72.716422
26800,27170.753,63.899940
27100,27457.999,73.160308
27400,27808.734,62.737897
27700,28199.954,78.902286
28000,28512.326,70.529139
28300,28767.522,72.161444
28600,29099.012,75.867849
28900,29470.034,70.986830
29200,29679.295,66.710392
29500,30026.955,76.530179
29800,30261.287,71.546877
30100,30677.795,73.830730
30400,30942.541,66.830735
30700,31256.226,81.445505
31000,31708.957,94.063382
31300,31934.027,78.005480
31600,32126.490,66.648824
31900,32635.568,89.756904
32200,33004.289,81.321889
32500,33152.561,85.065675
32800,33680.489,79.765383
33100,33874.192,79.789794
33400,34178.039,72.258933
33700,34423.289,85.209783
34000,34870.606,91.102247
34300,35172.726,85.018020
34600,35450.386,84.736481
34900,35804.952,85.814136
35200,36297.250,96.026983
35500,36544.443,87.546952
35800,36880.429,89.697555
36100,37210.463,95.544176
36400,37384.958,96.538115
36700,37825.045,94.243323
37000,38111.949,97.724588
37300,38483.979,86.036325
37600,38822.196,93.710249
37900,39145.179,92.444708
38200,39412.659,101.521912
38500,39929.957,84.384557
38800,40074.920,91.074310
39100,40336.789,95.111399
39400,40668.171,88.323729
39700,41053.564,84.352058
40000,41293.113,99.651775
40300,41696.293,99.662706
40600,42184.869,103.295250
40900,42216.919,102.610461
41200,42675.908,95.674559
41500,43104.250,90.310360
41800,43385.237,101.850258
42100,43709.965,100.657517
42400,44014.549,114.512047
42700,44264.817,103.593011
43000,44857.529,87.975695
43300,44773.213,102.124887
43600,45297.525,100.124112
43900,45580.095,112.998225
44200,46161.908,119.788164
44500,46175.397,114.996533
44800,46597.929,118.000698
45100,46895.679,103.761280
45400,47506.664,103.057711
45700,47663.335,121.444387
46000,47972.847,98.872897
46300,48233.673,121.389685
46600,48624.659,126.444791
46900,48782.230,108.063074
47200,49139.116,127.862776
47500,49438.970,110.246889
47800,50035.098,117.742519
48100,50279.503,109.641514
48400,50675.795,122.323049
48700,51147.230,111.825632
49000,51159.856,125.673070
49300,51836.434,121.148396
49600,52132.673,103.866232
49900,52353.157,113.934683
