X,Y,Y_error
100,182.883,1.686881
400,771.906,5.963285
700,1423.026,6.628379
1000,2058.259,10.252478
1300,2746.920,14.272596
1600,3426.407,15.355964
1900,4119.891,20.191065
2200,4855.066,20.853741
2500,5591.859,20.712657
2800,6348.688,25.103330
3100,7037.316,26.501475
3400,7816.305,28.798764
3700,8600.287,30.334245
4000,9367.167,33.696964
4300,10156.849,30.902787
4600,10900.152,31.622137
4900,11793.823,38.843871
5200,12486.296,40.680280
5500,13338.209,34.625210
5800,14132.883,39.504782
6100,14971.911,41.540631
6400,15789.825,38.176574
6700,16515.656,36.894328
7000,17344.431,46.576089
7300,18240.901,50.188257
7600,19098.987,49.851427
7900,19807.313,49.873902
8200,20752.320,44.339382
8500,21665.015,43.937887
8800,22415.536,45.315988
9100,23284.921,47.403920
9400,24036.151,50.733260
9700,25051.789,53.238644
10000,25817.050,57.410612
10300,26714.937,53.532057
10600,27502.056,52.020664
10900,28406.284,47.903048
11200,29318.506,50.507092
11500,30176.727,56.009854
11800,30921.481,60.901021
12100,31917.825,54.889986
12400,32801.849,51.280593
12700,33577.432,56.374357
13000,34429.446,62.891691
13300,35362.446,62.109904
13600,36271.632,63.379649
13900,37069.376,57.935673
14200,38024.232,65.138095
14500,38850.814,65.077157
14800,39802.231,63.907277
15100,40723.357,62.045543
15400,41559.485,71.136173
15700,42560.248,54.237501
16000,43398.905,70.344565
16300,44331.365,64.218615
16600,45259.036,60.256006
16900,46033.809,66.615239
17200,46950.517,60.975548
17500,47888.509,63.861630
17800,48679.945,62.993595
18100,49707.186,71.781196
18400,50613.640,68.427190
18700,51501.981,71.949435
19000,52404.995,71.385213
19300,53242.843,72.749266
19600,54201.950,70.131693
19900,55199.744,62.917424
20200,55999.140,66.808301
20500,57020.613,67.190439
20800,57782.772,70.613790
21100,58727.003,67.071276
21400,59622.327,85.478040
21700,60540.418,72.060904
22000,61472.912,69.844090
22300,62360.477,77.358407
22600,63297.356,65.582481
22900,64116.214,77.360969
23200,65229.162,70.641463
23500,66153.156,63.203971
23800,67051.515,56.123409
24100,68000.166,74.405986
24400,69006.595,80.889047
24700,69804.372,68.149702
25000,70715.178,73.205999
25300,71689.935,70.554507
25600,72658.992,68.440851
25900,73537.720,74.472510
26200,74417.427,71.839738
26500,75347.290,69.521580
26800,76295.940,74.593402
27100,77311.645,79.481774
27400,78078.053,76.526113
27700,78942.750,81.312433
28000,79942.703,72.469120
28300,81002.156,87.188954
28600,81900.347,71.224804
28900,82768.248,77.198915
29200,83722.531,79.794878
29500,84638.902,71.296933
29800,85564.346,78.086452
30100,86402.397,78.592658
30400,87489.002,86.019084
30700,88477.048,74.914806
31000,89388.461,66.884211
31300,90429.261,71.430776
31600,91328.126,81.547944
31900,92111.265,79.881373
32200,93120.595,84.696063
32500,94183.893,73.896908
32800,95023.022,77.234732
33100,95883.031,90.401394
33400,96877.891,82.531523
33700,97748.727,75.374719
34000,98761.868,84.356560
34300,99631.490,79.662374
34600,100658.123,72.037599
34900,101650.319,71.699365
35200,102519.367,79.087785
35500,103546.439,74.381576
35800,104435.455,82.419163
36100,105422.389,72.068586
36400,106345.742,72.106225
36700,107287.916,71.826536
37000,108264.427,81.620629
37300,109222.387,77.575335
37600,110130.696,76.856293
37900,110988.512,81.191347
38200,111927.077,84.469445
38500,113017.696,81.583419
38800,113890.421,80.368858
39100,114976.385,81.273220
39400,116017.084,70.085721
39700,116706.487,77.762625
40000,117563.696,75.057995
40300,118575.961,82.272799
40600,119630.691,87.783546
40900,120503.348,80.425867
41200,121443.364,79.182109
41500,122399.502,81.177370
41800,123410.384,75.287026
42100,124259.835,79.951445
42400,125324.381,81.114568
42700,126347.034,75.195859
43000,127256.052,78.098107
43300,128188.411,86.811835
43600,129143.908,85.951264
43900,130020.343,91.580666
44200,130964.811,83.789461
44500,132054.047,73.734372
44800,133044.050,85.357744
45100,133994.960,81.620236
45400,134993.295,87.409784
45700,135868.954,92.029603
46000,136700.629,79.024350
46300,137873.819,86.933308
46600,138564.571,80.299710
46900,139708.449,89.704417
47200,140751.307,81.549405
47500,141544.767,85.126623
47800,142544.012,85.714214
48100,143577.863,81.561248
48400,144578.896,92.955077
48700,145518.136,86.654236
49000,146600.120,81.600754
49300,147505.293,79.952457
49600,148325.972,88.383361
49900,149317.122,88.541433
