%!PS-Adobe-3.0 EPSF-3.0
%%Creator: MATLAB, The MathWorks, Inc. Version 7.14.0.739 (R2012a). Operating System: Darwin 16.7.0 Darwin Kernel Version 16.7.0: Thu Jun 15 17:36:27 PDT 2017; root:xnu-3789.70.16~2/RELEASE_X86_64 x86_64.
%%Title: /Users/ravi/Desktop/a-typical-weight-funciton.eps
%%CreationDate: 10/02/2017  23:33:57
%%DocumentNeededFonts: Helvetica
%%DocumentProcessColors: Cyan Magenta Yellow Black
%%LanguageLevel: 2
%%Pages: 1
%%BoundingBox:    54   212   558   581
%%EndComments

%%BeginProlog
% MathWorks dictionary
/MathWorks 160 dict begin
% definition operators
/bdef {bind def} bind def
/ldef {load def} bind def
/xdef {exch def} bdef
/xstore {exch store} bdef
% operator abbreviations
/c  /clip ldef
/cc /concat ldef
/cp /closepath ldef
/gr /grestore ldef
/gs /gsave ldef
/mt /moveto ldef
/np /newpath ldef
/cm /currentmatrix ldef
/sm /setmatrix ldef
/rm /rmoveto ldef
/rl /rlineto ldef
/s {show newpath} bdef
/sc {setcmykcolor} bdef
/sr /setrgbcolor ldef
/sg /setgray ldef
/w /setlinewidth ldef
/j /setlinejoin ldef
/cap /setlinecap ldef
/rc {rectclip} bdef
/rf {rectfill} bdef
% page state control
/pgsv () def
/bpage {/pgsv save def} bdef
/epage {pgsv restore} bdef
/bplot /gsave ldef
/eplot {stroke grestore} bdef
% orientation switch
/portraitMode 0 def /landscapeMode 1 def /rotateMode 2 def
% coordinate system mappings
/dpi2point 0 def
% font control
/FontSize 0 def
/FMS {/FontSize xstore findfont [FontSize 0 0 FontSize neg 0 0]
  makefont setfont} bdef
/reencode {exch dup where {pop load} {pop StandardEncoding} ifelse
  exch dup 3 1 roll findfont dup length dict begin
  { 1 index /FID ne {def}{pop pop} ifelse } forall
  /Encoding exch def currentdict end definefont pop} bdef
/isroman {findfont /CharStrings get /Agrave known} bdef
/FMSR {3 1 roll 1 index dup isroman {reencode} {pop pop} ifelse
  exch FMS} bdef
/csm {1 dpi2point div -1 dpi2point div scale neg translate
 dup landscapeMode eq {pop -90 rotate}
  {rotateMode eq {90 rotate} if} ifelse} bdef
% line types: solid, dotted, dashed, dotdash
/SO { [] 0 setdash } bdef
/DO { [.5 dpi2point mul 4 dpi2point mul] 0 setdash } bdef
/DA { [6 dpi2point mul] 0 setdash } bdef
/DD { [.5 dpi2point mul 4 dpi2point mul 6 dpi2point mul 4
  dpi2point mul] 0 setdash } bdef
% macros for lines and objects
/L {lineto stroke} bdef
/MP {3 1 roll moveto 1 sub {rlineto} repeat} bdef
/AP {{rlineto} repeat} bdef
/PDlw -1 def
/W {/PDlw currentlinewidth def setlinewidth} def
/PP {closepath eofill} bdef
/DP {closepath stroke} bdef
/MR {4 -2 roll moveto dup  0 exch rlineto exch 0 rlineto
  neg 0 exch rlineto closepath} bdef
/FR {MR stroke} bdef
/PR {MR fill} bdef
/L1i {{currentfile picstr readhexstring pop} image} bdef
/tMatrix matrix def
/MakeOval {newpath tMatrix currentmatrix pop translate scale
0 0 1 0 360 arc tMatrix setmatrix} bdef
/FO {MakeOval stroke} bdef
/PO {MakeOval fill} bdef
/PD {currentlinewidth 2 div 0 360 arc fill
   PDlw -1 eq not {PDlw w /PDlw -1 def} if} def
/FA {newpath tMatrix currentmatrix pop translate scale
  0 0 1 5 -2 roll arc tMatrix setmatrix stroke} bdef
/PA {newpath tMatrix currentmatrix pop	translate 0 0 moveto scale
  0 0 1 5 -2 roll arc closepath tMatrix setmatrix fill} bdef
/FAn {newpath tMatrix currentmatrix pop translate scale
  0 0 1 5 -2 roll arcn tMatrix setmatrix stroke} bdef
/PAn {newpath tMatrix currentmatrix pop translate 0 0 moveto scale
  0 0 1 5 -2 roll arcn closepath tMatrix setmatrix fill} bdef
/vradius 0 def /hradius 0 def /lry 0 def
/lrx 0 def /uly 0 def /ulx 0 def /rad 0 def
/MRR {/vradius xdef /hradius xdef /lry xdef /lrx xdef /uly xdef
  /ulx xdef newpath tMatrix currentmatrix pop ulx hradius add uly
  vradius add translate hradius vradius scale 0 0 1 180 270 arc 
  tMatrix setmatrix lrx hradius sub uly vradius add translate
  hradius vradius scale 0 0 1 270 360 arc tMatrix setmatrix
  lrx hradius sub lry vradius sub translate hradius vradius scale
  0 0 1 0 90 arc tMatrix setmatrix ulx hradius add lry vradius sub
  translate hradius vradius scale 0 0 1 90 180 arc tMatrix setmatrix
  closepath} bdef
/FRR {MRR stroke } bdef
/PRR {MRR fill } bdef
/MlrRR {/lry xdef /lrx xdef /uly xdef /ulx xdef /rad lry uly sub 2 div def
  newpath tMatrix currentmatrix pop ulx rad add uly rad add translate
  rad rad scale 0 0 1 90 270 arc tMatrix setmatrix lrx rad sub lry rad
  sub translate rad rad scale 0 0 1 270 90 arc tMatrix setmatrix
  closepath} bdef
/FlrRR {MlrRR stroke } bdef
/PlrRR {MlrRR fill } bdef
/MtbRR {/lry xdef /lrx xdef /uly xdef /ulx xdef /rad lrx ulx sub 2 div def
  newpath tMatrix currentmatrix pop ulx rad add uly rad add translate
  rad rad scale 0 0 1 180 360 arc tMatrix setmatrix lrx rad sub lry rad
  sub translate rad rad scale 0 0 1 0 180 arc tMatrix setmatrix
  closepath} bdef
/FtbRR {MtbRR stroke } bdef
/PtbRR {MtbRR fill } bdef
/stri 6 array def /dtri 6 array def
/smat 6 array def /dmat 6 array def
/tmat1 6 array def /tmat2 6 array def /dif 3 array def
/asub {/ind2 exch def /ind1 exch def dup dup
  ind1 get exch ind2 get sub exch } bdef
/tri_to_matrix {
  2 0 asub 3 1 asub 4 0 asub 5 1 asub
  dup 0 get exch 1 get 7 -1 roll astore } bdef
/compute_transform {
  dmat dtri tri_to_matrix tmat1 invertmatrix 
  smat stri tri_to_matrix tmat2 concatmatrix } bdef
/ds {stri astore pop} bdef
/dt {dtri astore pop} bdef
/db {2 copy /cols xdef /rows xdef mul dup 3 mul string
  currentfile 
  3 index 0 eq {/ASCIIHexDecode filter}
  {/ASCII85Decode filter 3 index 2 eq {/RunLengthDecode filter} if }
  ifelse exch readstring pop
  dup 0 3 index getinterval /rbmap xdef
  dup 2 index dup getinterval /gbmap xdef
  1 index dup 2 mul exch getinterval /bbmap xdef pop pop}bdef
/it {gs np dtri aload pop moveto lineto lineto cp c
  cols rows 8 compute_transform 
  rbmap gbmap bbmap true 3 colorimage gr}bdef
/il {newpath moveto lineto stroke}bdef
currentdict end def
%%EndProlog

%%BeginSetup
MathWorks begin

0 cap

end
%%EndSetup

%%Page: 1 1
%%BeginPageSetup
%%PageBoundingBox:    54   212   558   581
MathWorks begin
bpage
%%EndPageSetup

%%BeginObject: obj1
bplot

/dpi2point 12 def
portraitMode 0648 6972 csm

    0     0  6048  4428 rc
85 dict begin %Colortable dictionary
/c0 { 0.000000 0.000000 0.000000 sr} bdef
/c1 { 1.000000 1.000000 1.000000 sr} bdef
/c2 { 0.900000 0.000000 0.000000 sr} bdef
/c3 { 0.000000 0.820000 0.000000 sr} bdef
/c4 { 0.000000 0.000000 0.800000 sr} bdef
/c5 { 0.910000 0.820000 0.320000 sr} bdef
/c6 { 1.000000 0.260000 0.820000 sr} bdef
/c7 { 0.000000 0.820000 0.820000 sr} bdef
c0
1 j
1 sg
   0    0 6049 4429 rf
6 w
0 3552 4687 0 0 -3552 786 3884 4 MP
PP
-4687 0 0 3552 4687 0 0 -3552 786 3884 5 MP stroke
4 w
DO
SO
6 w
0 sg
 786 3884 mt 5473 3884 L
 786  332 mt 5473  332 L
 786 3884 mt  786  332 L
5473 3884 mt 5473  332 L
 786 3884 mt 5473 3884 L
 786 3884 mt  786  332 L
 786 3884 mt  786 3837 L
 786  332 mt  786  378 L
%%IncludeResource: font Helvetica
/Helvetica /ISOLatin1Encoding 240 FMSR

 720 4141 mt 
(0) s
1723 3884 mt 1723 3837 L
1723  332 mt 1723  378 L
1557 4141 mt 
(0.2) s
2660 3884 mt 2660 3837 L
2660  332 mt 2660  378 L
2494 4141 mt 
(0.4) s
3598 3884 mt 3598 3837 L
3598  332 mt 3598  378 L
3432 4141 mt 
(0.6) s
4535 3884 mt 4535 3837 L
4535  332 mt 4535  378 L
4369 4141 mt 
(0.8) s
5473 3884 mt 5473 3837 L
5473  332 mt 5473  378 L
5407 4141 mt 
(1) s
 786 3884 mt  832 3884 L
5473 3884 mt 5426 3884 L
 618 3973 mt 
(0) s
 786 3173 mt  832 3173 L
5473 3173 mt 5426 3173 L
 418 3262 mt 
(0.2) s
 786 2463 mt  832 2463 L
5473 2463 mt 5426 2463 L
 418 2552 mt 
(0.4) s
 786 1752 mt  832 1752 L
5473 1752 mt 5426 1752 L
 418 1841 mt 
(0.6) s
 786 1042 mt  832 1042 L
5473 1042 mt 5426 1042 L
 418 1131 mt 
(0.8) s
 786  332 mt  832  332 L
5473  332 mt 5426  332 L
 618  421 mt 
(1) s
 786 3884 mt 5473 3884 L
 786  332 mt 5473  332 L
 786 3884 mt  786  332 L
5473 3884 mt 5473  332 L
gs 786 332 4688 3553 rc
12 w
5 -83 5 -42 5 -33 4 -29 5 -25 5 -23 4 -22 5 -20 
5 -19 4 -18 5 -17 5 -16 4 -15 5 -15 5 -15 4 -14 
5 -13 5 -13 5 -13 4 -13 5 -12 5 -11 4 -12 5 -11 
5 -11 4 -11 5 -10 5 -10 4 -11 5 -9 5 -10 4 -10 
5 -9 5 -9 5 -9 4 -9 5 -9 5 -9 4 -8 5 -8 
5 -9 4 -8 5 -8 5 -8 4 -7 5 -8 5 -8 4 -7 
5 -8 5 -7 5 -7 4 -7 5 -8 5 -7 4 -6 5 -7 
5 -7 4 -7 5 -6 5 -7 4 -6 5 -7 5 -6 4 -7 
5 -6 5 -6 5 -6 4 -6 5 -6 5 -6 4 -6 5 -6 
5 -6 4 -5 5 -6 5 -6 4 -5 5 -6 5 -6 4 -5 
5 -5 5 -6 5 -5 4 -6 5 -5 5 -5 4 -5 5 -5 
5 -5 4 -6 5 -5 5 -5 4 -5 5 -5 5 -4 4 -5 
5 -5 5 -5 5 -5 4 -4 5 -5 5 -5 4 -5 5 -4 
5 -5 4 -4 5 -5 5 -4 4 -5 5 -4 5 -5 4 -4 
5 -5 5 -4 5 -4 4 -5 5 -4 5 -4 4 -4 5 -5 
5 -4 4 -4 5 -4 5 -4 4 -4 5 -4 5 -4 4 -4 
5 -4 5 -4 4 -4 5 -4 5 -4 5 -4 4 -4 5 -4 
5 -4 4 -4 5 -4 5 -3 4 -4 5 -4 5 -4 4 -3 
5 -4 5 -4 4 -4 5 -3 5 -4 5 -4 4 -3 5 -4 
5 -3 4 -4 5 -3 5 -4 4 -4 5 -3 5 -4 4 -3 
5 -3 5 -4 4 -3 5 -4 5 -3 5 -4 4 -3 5 -3 
5 -4 4 -3 5 -3 5 -4 4 -3 5 -3 5 -4 4 -3 
5 -3 5 -3 4 -4 5 -3 5 -3 5 -3 4 -3 5 -4 
5 -3 4 -3 5 -3 5 -3 4 -3 5 -3 5 -3 4 -4 
5 -3 5 -3 4 -3 5 -3 5 -3 5 -3 4 -3 5 -3 
5 -3 4 -3 5 -3 5 -3 4 -3 5 -3 5 -3 4 -3 
5 -2 5 -3 4 -3 5 -3 5 -3 5 -3 4 -3 5 -3 
5 -2 4 -3 5 -3 5 -3 4 -3 5 -3 5 -2 4 -3 
5 -3 5 -3 4 -2 5 -3 5 -3 5 -3 4 -2 5 -3 
5 -3 4 -3 5 -2 5 -3 4 -3 5 -2 5 -3 4 -3 
5 -2 5 -3 4 -3 5 -2 5 -3 5 -3 4 -2 5 -3 
5 -2 4 -3 5 -3 5 -2 4 -3 5 -2 5 -3 4 -2 
5 -3 5 -3 4 -2 5 -3 5 -2 4 -3 5 -2 5 -3 
5 -2 4 -3 5 -2 5 -3 4 -2 5 -3 5 -2 4 -3 
5 -2 5 -2 4 -3 5 -2 5 -3 4 -2 5 -3 5 -2 
5 -2 4 -3 5 -2 5 -3 4 -2 5 -2 5 -3 4 -2 
5 -3 5 -2 4 -2 5 -3 5 -2 4 -2 5 -3 5 -2 
5 -2 4 -3 5 -2 4071 1985 300 MP stroke
5 -2 4 -3 5 -2 5 -2 4 -3 5 -2 5 -2 4 -2 
5 -3 5 -2 4 -2 5 -3 5 -2 5 -2 4 -2 5 -3 
5 -2 4 -2 5 -2 5 -3 4 -2 5 -2 5 -2 4 -2 
5 -3 5 -2 4 -2 5 -2 5 -3 5 -2 4 -2 5 -2 
5 -2 4 -2 5 -3 5 -2 4 -2 5 -2 5 -2 4 -2 
5 -3 5 -2 4 -2 5 -2 5 -2 5 -2 4 -3 5 -2 
5 -2 4 -2 5 -2 5 -2 4 -2 5 -2 5 -2 4 -3 
5 -2 5 -2 4 -2 5 -2 5 -2 5 -2 4 -2 5 -2 
5 -2 4 -2 5 -3 5 -2 4 -2 5 -2 5 -2 4 -2 
5 -2 5 -2 4 -2 5 -2 5 -2 4 -2 5 -2 5 -2 
5 -2 4 -2 5 -2 5 -2 4 -2 5 -2 5 -2 4 -2 
5 -2 5 -2 4 -2 5 -2 5 -2 4 -2 5 -2 5 -2 
5 -2 4 -2 5 -2 5 -2 4 -2 5 -2 5 -2 4 -2 
5 -2 5 -2 4 -2 5 -2 5 -2 4 -2 5 -2 5 -2 
5 -2 4 -2 5 -2 5 -2 4 -2 5 -2 5 -2 4 -2 
5 -2 5 -1 4 -2 5 -2 5 -2 4 -2 5 -2 5 -2 
5 -2 4 -2 5 -2 5 -2 4 -2 5 -2 5 -1 4 -2 
5 -2 5 -2 4 -2 5 -2 5 -2 4 -2 5 -2 5 -2 
5 -2 4 -1 5 -2 5 -2 4 -2 5 -2 5 -2 4 -2 
5 -2 5 -1 4 -2 5 -2 5 -2 4 -2 5 -2 5 -2 
5 -2 4 -1 5 -2 5 -2 4 -2 5 -2 5 -2 4 -2 
5 -2 5 -1 4 -2 5 -2 5 -2 4 -2 5 -2 5 -2 
5 -1 4 -2 5 -2 5 -2 4 -2 5 -2 5 -1 4 -2 
5 -2 5 -2 4 -2 5 -2 5 -1 4 -2 5 -2 5 -2 
5 -2 4 -2 5 -1 5 -2 4 -2 5 -2 5 -2 4 -2 
5 -1 5 -2 4 -2 5 -2 5 -2 4 -1 5 -2 5 -2 
4 -2 5 -2 5 -2 5 -1 4 -2 5 -2 5 -2 4 -2 
5 -1 5 -2 4 -2 5 -2 5 -2 4 -1 5 -2 5 -2 
4 -2 5 -2 5 -2 5 -1 4 -2 5 -2 5 -2 4 -2 
5 -1 5 -2 4 -2 5 -2 5 -2 4 -1 5 -2 5 -2 
4 -2 5 -2 5 -1 5 -2 4 -2 5 -2 5 -1 4 -2 
5 -2 5 -2 4 -2 5 -1 5 -2 4 -2 5 -2 5 -2 
4 -1 5 -2 5 -2 5 -2 4 -2 5 -1 5 -2 4 -2 
5 -2 5 -2 4 -1 5 -2 5 -2 4 -2 5 -1 5 -2 
4 -2 5 -2 5 -2 5 -1 4 -2 5 -2 5 -2 4 -2 
5 -1 5 -2 4 -2 5 -2 5 -2 4 -1 5 -2 5 -2 
4 -2 5 -1 5 -2 5 -2 4 -2 5 -2 5 -1 4 -2 
5 -2 5 -2 4 -2 2670 2566 300 MP stroke
5 -1 5 -2 4 -2 5 -2 5 -2 4 -1 5 -2 5 -2 
5 -2 4 -2 5 -1 5 -2 4 -2 5 -2 5 -2 4 -1 
5 -2 5 -2 4 -2 5 -2 5 -1 4 -2 5 -2 5 -2 
5 -2 4 -1 5 -2 5 -2 4 -2 5 -2 5 -1 4 -2 
5 -2 5 -2 4 -2 5 -1 5 -2 4 -2 5 -2 5 -2 
4 -2 5 -1 5 -2 5 -2 4 -2 5 -2 5 -1 4 -2 
5 -2 5 -2 4 -2 5 -2 5 -1 4 -2 5 -2 5 -2 
4 -2 5 -2 5 -1 5 -2 4 -2 5 -2 5 -2 4 -2 
5 -1 5 -2 4 -2 5 -2 5 -2 4 -2 5 -2 5 -1 
4 -2 5 -2 5 -2 5 -2 4 -2 5 -2 5 -1 4 -2 
5 -2 5 -2 4 -2 5 -2 5 -2 4 -1 5 -2 5 -2 
4 -2 5 -2 5 -2 5 -2 4 -2 5 -1 5 -2 4 -2 
5 -2 5 -2 4 -2 5 -2 5 -2 4 -2 5 -2 5 -1 
4 -2 5 -2 5 -2 5 -2 4 -2 5 -2 5 -2 4 -2 
5 -2 5 -2 4 -2 5 -2 5 -1 4 -2 5 -2 5 -2 
4 -2 5 -2 5 -2 5 -2 4 -2 5 -2 5 -2 4 -2 
5 -2 5 -2 4 -2 5 -2 5 -2 4 -2 5 -2 5 -2 
4 -2 5 -2 5 -2 5 -2 4 -2 5 -2 5 -2 4 -2 
5 -2 5 -2 4 -2 5 -2 5 -2 4 -2 5 -2 5 -2 
4 -2 5 -2 5 -2 4 -2 5 -2 5 -2 5 -2 4 -2 
5 -2 5 -2 4 -2 5 -2 5 -2 4 -3 5 -2 5 -2 
4 -2 5 -2 5 -2 4 -2 5 -2 5 -2 5 -2 4 -3 
5 -2 5 -2 4 -2 5 -2 5 -2 4 -2 5 -3 5 -2 
4 -2 5 -2 5 -2 4 -2 5 -3 5 -2 5 -2 4 -2 
5 -2 5 -2 4 -3 5 -2 5 -2 4 -2 5 -3 5 -2 
4 -2 5 -2 5 -3 4 -2 5 -2 5 -2 5 -3 4 -2 
5 -2 5 -2 4 -3 5 -2 5 -2 4 -3 5 -2 5 -2 
4 -3 5 -2 5 -2 4 -3 5 -2 5 -2 5 -3 4 -2 
5 -2 5 -3 4 -2 5 -3 5 -2 4 -2 5 -3 5 -2 
4 -3 5 -2 5 -3 4 -2 5 -3 5 -2 5 -2 4 -3 
5 -2 5 -3 4 -2 5 -3 5 -3 4 -2 5 -3 5 -2 
4 -3 5 -2 5 -3 4 -3 5 -2 5 -3 5 -2 4 -3 
5 -3 5 -2 4 -3 5 -3 5 -2 4 -3 5 -3 5 -2 
4 -3 5 -3 5 -3 4 -2 5 -3 5 -3 5 -3 4 -2 
5 -3 5 -3 4 -3 5 -3 5 -3 4 -3 5 -2 5 -3 
4 -3 5 -3 5 -3 4 -3 5 -3 5 -3 4 -3 5 -3 
5 -3 5 -3 4 -3 5 -3 5 -3 4 -3 5 -3 5 -4 
4 -3 5 -3 5 -3 1268 3212 300 MP stroke
4 -3 5 -4 5 -3 4 -3 5 -3 5 -4 5 -3 4 -3 
5 -4 5 -3 4 -3 5 -4 5 -3 4 -4 5 -3 5 -4 
4 -3 5 -4 5 -3 4 -4 5 -3 5 -4 5 -4 4 -3 
5 -4 5 -4 4 -4 5 -4 5 -3 4 -4 5 -4 5 -4 
4 -4 5 -4 5 -4 4 -4 5 -4 5 -4 5 -4 4 -5 
5 -4 5 -4 4 -4 5 -5 5 -4 4 -5 5 -4 5 -5 
4 -4 5 -5 5 -4 4 -5 5 -5 5 -5 5 -5 4 -5 
5 -5 5 -5 4 -5 5 -5 5 -5 4 -5 5 -6 5 -5 
4 -6 5 -5 5 -6 4 -6 5 -6 5 -6 5 -6 4 -6 
5 -6 5 -7 4 -6 5 -7 5 -7 4 -7 5 -7 5 -7 
4 -7 5 -8 5 -7 4 -8 5 -9 5 -8 5 -9 4 -8 
5 -10 5 -9 4 -10 5 -10 5 -11 4 -12 5 -11 5 -13 
4 -14 5 -14 5 -16 4 -18 5 -21 5 -26 4 -52 786 3884 104 MP stroke
DA
5 -3 5 -4 5 -3 4 -4 5 -3 5 -4 4 -3 5 -4 
5 -3 4 -4 5 -4 5 -3 4 -4 5 -3 5 -4 4 -3 
5 -4 5 -3 5 -4 4 -4 5 -3 5 -4 4 -3 5 -4 
5 -3 4 -4 5 -3 5 -4 4 -4 5 -3 5 -4 4 -3 
5 -4 5 -3 5 -4 4 -3 5 -4 5 -3 4 -4 5 -4 
5 -3 4 -4 5 -3 5 -4 4 -3 5 -4 5 -3 4 -4 
5 -4 5 -3 5 -4 4 -3 5 -4 5 -3 4 -4 5 -3 
5 -4 4 -4 5 -3 5 -4 4 -3 5 -4 5 -3 4 -4 
5 -3 5 -4 5 -3 4 -4 5 -4 5 -3 4 -4 5 -3 
5 -4 4 -3 5 -4 5 -3 4 -4 5 -4 5 -3 4 -4 
5 -3 5 -4 5 -3 4 -4 5 -3 5 -4 4 -4 5 -3 
5 -4 4 -3 5 -4 5 -3 4 -4 5 -3 5 -4 4 -3 
5 -4 5 -4 5 -3 4 -4 5 -3 5 -4 4 -3 5 -4 
5 -3 4 -4 5 -4 5 -3 4 -4 5 -3 5 -4 4 -3 
5 -4 5 -3 5 -4 4 -4 5 -3 5 -4 4 -3 5 -4 
5 -3 4 -4 5 -3 5 -4 4 -4 5 -3 5 -4 4 -3 
5 -4 5 -3 4 -4 5 -3 5 -4 5 -3 4 -4 5 -4 
5 -3 4 -4 5 -3 5 -4 4 -3 5 -4 5 -3 4 -4 
5 -4 5 -3 4 -4 5 -3 5 -4 5 -3 4 -4 5 -3 
5 -4 4 -4 5 -3 5 -4 4 -3 5 -4 5 -3 4 -4 
5 -3 5 -4 4 -3 5 -4 5 -4 5 -3 4 -4 5 -3 
5 -4 4 -3 5 -4 5 -3 4 -4 5 -4 5 -3 4 -4 
5 -3 5 -4 4 -3 5 -4 5 -3 5 -4 4 -4 5 -3 
5 -4 4 -3 5 -4 5 -3 4 -4 5 -3 5 -4 4 -3 
5 -4 5 -4 4 -3 5 -4 5 -3 5 -4 4 -3 5 -4 
5 -3 4 -4 5 -4 5 -3 4 -4 5 -3 5 -4 4 -3 
5 -4 5 -3 4 -4 5 -4 5 -3 5 -4 4 -3 5 -4 
5 -3 4 -4 5 -3 5 -4 4 -3 5 -4 5 -4 4 -3 
5 -4 5 -3 4 -4 5 -3 5 -4 5 -3 4 -4 5 -4 
5 -3 4 -4 5 -3 5 -4 4 -3 5 -4 5 -3 4 -4 
5 -4 5 -3 4 -4 5 -3 5 -4 5 -3 4 -4 5 -3 
5 -4 4 -4 5 -3 5 -4 4 -3 5 -4 5 -3 4 -4 
5 -3 5 -4 4 -3 5 -4 5 -4 4 -3 5 -4 5 -3 
5 -4 4 -3 5 -4 5 -3 4 -4 5 -4 5 -3 4 -4 
5 -3 5 -4 4 -3 5 -4 5 -3 4 -4 5 -4 5 -3 
5 -4 4 -3 5 -4 5 -3 4 -4 5 -3 5 -4 4 -3 
5 -4 5 -4 4 -3 5 -4 5 -3 4 -4 5 -3 5 -4 
5 -3 4 -4 5 -4 4071 1394 300 MP stroke
5 -3 4 -4 5 -3 5 -4 4 -3 5 -4 5 -3 4 -4 
5 -4 5 -3 4 -4 5 -3 5 -4 5 -3 4 -4 5 -3 
5 -4 4 -3 5 -4 5 -4 4 -3 5 -4 5 -3 4 -4 
5 -3 5 -4 4 -3 5 -4 5 -4 5 -3 4 -4 5 -3 
5 -4 4 -3 5 -4 5 -3 4 -4 5 -4 5 -3 4 -4 
5 -3 5 -4 4 -3 5 -4 5 -3 5 -4 4 -3 5 -4 
5 -4 4 -3 5 -4 5 -3 4 -4 5 -3 5 -4 4 -3 
5 -4 5 -4 4 -3 5 -4 5 -3 5 -4 4 -3 5 -4 
5 -3 4 -4 5 -4 5 -3 4 -4 5 -3 5 -4 4 -3 
5 -4 5 -3 4 -4 5 -4 5 -3 4 -4 5 -3 5 -4 
5 -3 4 -4 5 -3 5 -4 4 -3 5 -4 5 -4 4 -3 
5 -4 5 -3 4 -4 5 -3 5 -4 4 -3 5 -4 5 -4 
5 -3 4 -4 5 -3 5 -4 4 -3 5 -4 5 -3 4 -4 
5 -4 5 -3 4 -4 5 -3 5 -4 4 -3 5 -4 5 -3 
5 -4 4 -3 5 -4 5 -4 4 -3 5 -4 5 -3 4 -4 
5 -3 5 -4 4 -3 5 -4 5 -4 4 -3 5 -4 5 -3 
5 -4 4 -3 5 -4 5 -3 4 -4 5 -4 5 -3 4 -4 
5 -3 5 -4 4 -3 5 -4 5 -3 4 -4 5 -3 5 -4 
5 -4 4 -3 5 -4 5 -3 4 -4 5 -3 5 -4 4 -3 
5 -4 5 -4 4 -3 5 -4 5 -3 4 -4 5 -3 5 -4 
5 -3 4 -4 5 -4 5 -3 4 -4 5 -3 5 -4 4 -3 
5 -4 5 -3 4 -4 5 -3 5 -4 4 -4 5 -3 5 -4 
5 -3 4 -4 5 -3 5 -4 4 -3 5 -4 5 -4 4 -3 
5 -4 5 -3 4 -4 5 -3 5 -4 4 -3 5 -4 5 -4 
5 -3 4 -4 5 -3 5 -4 4 -3 5 -4 5 -3 4 -4 
5 -4 5 -3 4 -4 5 -3 5 -4 4 -3 5 -4 5 -3 
4 -4 5 -3 5 -4 5 -4 4 -3 5 -4 5 -3 4 -4 
5 -3 5 -4 4 -3 5 -4 5 -4 4 -3 5 -4 5 -3 
4 -4 5 -3 5 -4 5 -3 4 -4 5 -4 5 -3 4 -4 
5 -3 5 -4 4 -3 5 -4 5 -3 4 -4 5 -3 5 -4 
4 -4 5 -3 5 -4 5 -3 4 -4 5 -3 5 -4 4 -3 
5 -4 5 -4 4 -3 5 -4 5 -3 4 -4 5 -3 5 -4 
4 -3 5 -4 5 -4 5 -3 4 -4 5 -3 5 -4 4 -3 
5 -4 5 -3 4 -4 5 -3 5 -4 4 -4 5 -3 5 -4 
4 -3 5 -4 5 -3 5 -4 4 -3 5 -4 5 -4 4 -3 
5 -4 5 -3 4 -4 5 -3 5 -4 4 -3 5 -4 5 -4 
4 -3 5 -4 5 -3 5 -4 4 -3 5 -4 5 -3 4 -4 
5 -3 5 -4 4 -4 2670 2456 300 MP stroke
5 -3 5 -4 4 -3 5 -4 5 -3 4 -4 5 -3 5 -4 
5 -4 4 -3 5 -4 5 -3 4 -4 5 -3 5 -4 4 -3 
5 -4 5 -4 4 -3 5 -4 5 -3 4 -4 5 -3 5 -4 
5 -3 4 -4 5 -4 5 -3 4 -4 5 -3 5 -4 4 -3 
5 -4 5 -3 4 -4 5 -3 5 -4 4 -4 5 -3 5 -4 
4 -3 5 -4 5 -3 5 -4 4 -3 5 -4 5 -4 4 -3 
5 -4 5 -3 4 -4 5 -3 5 -4 4 -3 5 -4 5 -4 
4 -3 5 -4 5 -3 5 -4 4 -3 5 -4 5 -3 4 -4 
5 -3 5 -4 4 -4 5 -3 5 -4 4 -3 5 -4 5 -3 
4 -4 5 -3 5 -4 5 -4 4 -3 5 -4 5 -3 4 -4 
5 -3 5 -4 4 -3 5 -4 5 -4 4 -3 5 -4 5 -3 
4 -4 5 -3 5 -4 5 -3 4 -4 5 -3 5 -4 4 -4 
5 -3 5 -4 4 -3 5 -4 5 -3 4 -4 5 -3 5 -4 
4 -4 5 -3 5 -4 5 -3 4 -4 5 -3 5 -4 4 -3 
5 -4 5 -4 4 -3 5 -4 5 -3 4 -4 5 -3 5 -4 
4 -3 5 -4 5 -3 5 -4 4 -4 5 -3 5 -4 4 -3 
5 -4 5 -3 4 -4 5 -3 5 -4 4 -4 5 -3 5 -4 
4 -3 5 -4 5 -3 5 -4 4 -3 5 -4 5 -4 4 -3 
5 -4 5 -3 4 -4 5 -3 5 -4 4 -3 5 -4 5 -4 
4 -3 5 -4 5 -3 4 -4 5 -3 5 -4 5 -3 4 -4 
5 -3 5 -4 4 -4 5 -3 5 -4 4 -3 5 -4 5 -3 
4 -4 5 -3 5 -4 4 -4 5 -3 5 -4 5 -3 4 -4 
5 -3 5 -4 4 -3 5 -4 5 -4 4 -3 5 -4 5 -3 
4 -4 5 -3 5 -4 4 -3 5 -4 5 -3 5 -4 4 -4 
5 -3 5 -4 4 -3 5 -4 5 -3 4 -4 5 -3 5 -4 
4 -4 5 -3 5 -4 4 -3 5 -4 5 -3 5 -4 4 -3 
5 -4 5 -4 4 -3 5 -4 5 -3 4 -4 5 -3 5 -4 
4 -3 5 -4 5 -3 4 -4 5 -4 5 -3 5 -4 4 -3 
5 -4 5 -3 4 -4 5 -3 5 -4 4 -4 5 -3 5 -4 
4 -3 5 -4 5 -3 4 -4 5 -3 5 -4 5 -4 4 -3 
5 -4 5 -3 4 -4 5 -3 5 -4 4 -3 5 -4 5 -3 
4 -4 5 -4 5 -3 4 -4 5 -3 5 -4 5 -3 4 -4 
5 -3 5 -4 4 -4 5 -3 5 -4 4 -3 5 -4 5 -3 
4 -4 5 -3 5 -4 4 -4 5 -3 5 -4 5 -3 4 -4 
5 -3 5 -4 4 -3 5 -4 5 -4 4 -3 5 -4 5 -3 
4 -4 5 -3 5 -4 4 -3 5 -4 5 -3 4 -4 5 -4 
5 -3 5 -4 4 -3 5 -4 5 -3 4 -4 5 -3 5 -4 
4 -4 5 -3 5 -4 1268 3518 300 MP stroke
4 -3 5 -4 5 -3 4 -4 5 -3 5 -4 5 -4 4 -3 
5 -4 5 -3 4 -4 5 -3 5 -4 4 -3 5 -4 5 -3 
4 -4 5 -4 5 -3 4 -4 5 -3 5 -4 5 -3 4 -4 
5 -3 5 -4 4 -4 5 -3 5 -4 4 -3 5 -4 5 -3 
4 -4 5 -3 5 -4 4 -4 5 -3 5 -4 5 -3 4 -4 
5 -3 5 -4 4 -3 5 -4 5 -3 4 -4 5 -4 5 -3 
4 -4 5 -3 5 -4 4 -3 5 -4 5 -3 5 -4 4 -4 
5 -3 5 -4 4 -3 5 -4 5 -3 4 -4 5 -3 5 -4 
4 -4 5 -3 5 -4 4 -3 5 -4 5 -3 5 -4 4 -3 
5 -4 5 -3 4 -4 5 -4 5 -3 4 -4 5 -3 5 -4 
4 -3 5 -4 5 -3 4 -4 5 -4 5 -3 5 -4 4 -3 
5 -4 5 -3 4 -4 5 -3 5 -4 4 -4 5 -3 5 -4 
4 -3 5 -4 5 -3 4 -4 5 -3 5 -4 4 -4 786 3884 104 MP stroke
gr

12 w
DA
2446 4372 mt 
(Probability, p) s
 309 2779 mt  -90 rotate
(Weight, w\(p\)) s
90 rotate
SO
6 w

end %%Color Dict

eplot
%%EndObject

epage
end

showpage

%%Trailer
%%EOF
