%!PS-Adobe-3.0 EPSF-3.0
%%Creator: MATLAB, The MathWorks, Inc. Version 7.14.0.739 (R2012a). Operating System: Darwin 16.7.0 Darwin Kernel Version 16.7.0: Thu Jun 15 17:36:27 PDT 2017; root:xnu-3789.70.16~2/RELEASE_X86_64 x86_64.
%%Title: /Users/ravi/Desktop/FB1-temp.eps
%%CreationDate: 09/06/2017  19:45:45
%%DocumentNeededFonts: Helvetica
%%DocumentProcessColors: Cyan Magenta Yellow Black
%%LanguageLevel: 2
%%Pages: 1
%%BoundingBox:   -33   147   646   646
%%EndComments

%%BeginProlog
% MathWorks dictionary
/MathWorks 160 dict begin
% definition operators
/bdef {bind def} bind def
/ldef {load def} bind def
/xdef {exch def} bdef
/xstore {exch store} bdef
% operator abbreviations
/c  /clip ldef
/cc /concat ldef
/cp /closepath ldef
/gr /grestore ldef
/gs /gsave ldef
/mt /moveto ldef
/np /newpath ldef
/cm /currentmatrix ldef
/sm /setmatrix ldef
/rm /rmoveto ldef
/rl /rlineto ldef
/s {show newpath} bdef
/sc {setcmykcolor} bdef
/sr /setrgbcolor ldef
/sg /setgray ldef
/w /setlinewidth ldef
/j /setlinejoin ldef
/cap /setlinecap ldef
/rc {rectclip} bdef
/rf {rectfill} bdef
% page state control
/pgsv () def
/bpage {/pgsv save def} bdef
/epage {pgsv restore} bdef
/bplot /gsave ldef
/eplot {stroke grestore} bdef
% orientation switch
/portraitMode 0 def /landscapeMode 1 def /rotateMode 2 def
% coordinate system mappings
/dpi2point 0 def
% font control
/FontSize 0 def
/FMS {/FontSize xstore findfont [FontSize 0 0 FontSize neg 0 0]
  makefont setfont} bdef
/reencode {exch dup where {pop load} {pop StandardEncoding} ifelse
  exch dup 3 1 roll findfont dup length dict begin
  { 1 index /FID ne {def}{pop pop} ifelse } forall
  /Encoding exch def currentdict end definefont pop} bdef
/isroman {findfont /CharStrings get /Agrave known} bdef
/FMSR {3 1 roll 1 index dup isroman {reencode} {pop pop} ifelse
  exch FMS} bdef
/csm {1 dpi2point div -1 dpi2point div scale neg translate
 dup landscapeMode eq {pop -90 rotate}
  {rotateMode eq {90 rotate} if} ifelse} bdef
% line types: solid, dotted, dashed, dotdash
/SO { [] 0 setdash } bdef
/DO { [.5 dpi2point mul 4 dpi2point mul] 0 setdash } bdef
/DA { [6 dpi2point mul] 0 setdash } bdef
/DD { [.5 dpi2point mul 4 dpi2point mul 6 dpi2point mul 4
  dpi2point mul] 0 setdash } bdef
% macros for lines and objects
/L {lineto stroke} bdef
/MP {3 1 roll moveto 1 sub {rlineto} repeat} bdef
/AP {{rlineto} repeat} bdef
/PDlw -1 def
/W {/PDlw currentlinewidth def setlinewidth} def
/PP {closepath eofill} bdef
/DP {closepath stroke} bdef
/MR {4 -2 roll moveto dup  0 exch rlineto exch 0 rlineto
  neg 0 exch rlineto closepath} bdef
/FR {MR stroke} bdef
/PR {MR fill} bdef
/L1i {{currentfile picstr readhexstring pop} image} bdef
/tMatrix matrix def
/MakeOval {newpath tMatrix currentmatrix pop translate scale
0 0 1 0 360 arc tMatrix setmatrix} bdef
/FO {MakeOval stroke} bdef
/PO {MakeOval fill} bdef
/PD {currentlinewidth 2 div 0 360 arc fill
   PDlw -1 eq not {PDlw w /PDlw -1 def} if} def
/FA {newpath tMatrix currentmatrix pop translate scale
  0 0 1 5 -2 roll arc tMatrix setmatrix stroke} bdef
/PA {newpath tMatrix currentmatrix pop	translate 0 0 moveto scale
  0 0 1 5 -2 roll arc closepath tMatrix setmatrix fill} bdef
/FAn {newpath tMatrix currentmatrix pop translate scale
  0 0 1 5 -2 roll arcn tMatrix setmatrix stroke} bdef
/PAn {newpath tMatrix currentmatrix pop translate 0 0 moveto scale
  0 0 1 5 -2 roll arcn closepath tMatrix setmatrix fill} bdef
/vradius 0 def /hradius 0 def /lry 0 def
/lrx 0 def /uly 0 def /ulx 0 def /rad 0 def
/MRR {/vradius xdef /hradius xdef /lry xdef /lrx xdef /uly xdef
  /ulx xdef newpath tMatrix currentmatrix pop ulx hradius add uly
  vradius add translate hradius vradius scale 0 0 1 180 270 arc 
  tMatrix setmatrix lrx hradius sub uly vradius add translate
  hradius vradius scale 0 0 1 270 360 arc tMatrix setmatrix
  lrx hradius sub lry vradius sub translate hradius vradius scale
  0 0 1 0 90 arc tMatrix setmatrix ulx hradius add lry vradius sub
  translate hradius vradius scale 0 0 1 90 180 arc tMatrix setmatrix
  closepath} bdef
/FRR {MRR stroke } bdef
/PRR {MRR fill } bdef
/MlrRR {/lry xdef /lrx xdef /uly xdef /ulx xdef /rad lry uly sub 2 div def
  newpath tMatrix currentmatrix pop ulx rad add uly rad add translate
  rad rad scale 0 0 1 90 270 arc tMatrix setmatrix lrx rad sub lry rad
  sub translate rad rad scale 0 0 1 270 90 arc tMatrix setmatrix
  closepath} bdef
/FlrRR {MlrRR stroke } bdef
/PlrRR {MlrRR fill } bdef
/MtbRR {/lry xdef /lrx xdef /uly xdef /ulx xdef /rad lrx ulx sub 2 div def
  newpath tMatrix currentmatrix pop ulx rad add uly rad add translate
  rad rad scale 0 0 1 180 360 arc tMatrix setmatrix lrx rad sub lry rad
  sub translate rad rad scale 0 0 1 0 180 arc tMatrix setmatrix
  closepath} bdef
/FtbRR {MtbRR stroke } bdef
/PtbRR {MtbRR fill } bdef
/stri 6 array def /dtri 6 array def
/smat 6 array def /dmat 6 array def
/tmat1 6 array def /tmat2 6 array def /dif 3 array def
/asub {/ind2 exch def /ind1 exch def dup dup
  ind1 get exch ind2 get sub exch } bdef
/tri_to_matrix {
  2 0 asub 3 1 asub 4 0 asub 5 1 asub
  dup 0 get exch 1 get 7 -1 roll astore } bdef
/compute_transform {
  dmat dtri tri_to_matrix tmat1 invertmatrix 
  smat stri tri_to_matrix tmat2 concatmatrix } bdef
/ds {stri astore pop} bdef
/dt {dtri astore pop} bdef
/db {2 copy /cols xdef /rows xdef mul dup 3 mul string
  currentfile 
  3 index 0 eq {/ASCIIHexDecode filter}
  {/ASCII85Decode filter 3 index 2 eq {/RunLengthDecode filter} if }
  ifelse exch readstring pop
  dup 0 3 index getinterval /rbmap xdef
  dup 2 index dup getinterval /gbmap xdef
  1 index dup 2 mul exch getinterval /bbmap xdef pop pop}bdef
/it {gs np dtri aload pop moveto lineto lineto cp c
  cols rows 8 compute_transform 
  rbmap gbmap bbmap true 3 colorimage gr}bdef
/il {newpath moveto lineto stroke}bdef
currentdict end def
%%EndProlog

%%BeginSetup
MathWorks begin

0 cap

end
%%EndSetup

%%Page: 1 1
%%BeginPageSetup
%%PageBoundingBox:   -33   147   646   646
MathWorks begin
bpage
%%EndPageSetup

%%BeginObject: obj1
bplot

/dpi2point 12 def
portraitMode -0396 7752 csm

    0     0  8148  5988 rc
85 dict begin %Colortable dictionary
/c0 { 0.000000 0.000000 0.000000 sr} bdef
/c1 { 1.000000 1.000000 1.000000 sr} bdef
/c2 { 0.900000 0.000000 0.000000 sr} bdef
/c3 { 0.000000 0.820000 0.000000 sr} bdef
/c4 { 0.000000 0.000000 0.800000 sr} bdef
/c5 { 0.910000 0.820000 0.320000 sr} bdef
/c6 { 1.000000 0.260000 0.820000 sr} bdef
/c7 { 0.000000 0.820000 0.820000 sr} bdef
c0
1 j
1 sg
   0    0 8149 5989 rf
6 w
0 4879 6315 0 0 -4879 1059 5328 4 MP
PP
-6315 0 0 4879 6315 0 0 -4879 1059 5328 5 MP stroke
4 w
DO
SO
6 w
0 sg
1059 5328 mt 7374 5328 L
1059  449 mt 7374  449 L
1059 5328 mt 1059  449 L
7374 5328 mt 7374  449 L
1059 5328 mt 7374 5328 L
1059 5328 mt 1059  449 L
1059 5328 mt 1059 5264 L
1059  449 mt 1059  512 L
%%IncludeResource: font Helvetica
/Helvetica /ISOLatin1Encoding 240 FMSR

 993 5585 mt 
(1) s
2637 5328 mt 2637 5264 L
2637  449 mt 2637  512 L
2571 5585 mt 
(2) s
4216 5328 mt 4216 5264 L
4216  449 mt 4216  512 L
4150 5585 mt 
(3) s
5795 5328 mt 5795 5264 L
5795  449 mt 5795  512 L
5729 5585 mt 
(4) s
7374 5328 mt 7374 5264 L
7374  449 mt 7374  512 L
7308 5585 mt 
(5) s
6833 5935 mt 
(x 10) s
%%IncludeResource: font Helvetica
/Helvetica /ISOLatin1Encoding 160 FMSR

7286 5787 mt 
(4) s
1059 5328 mt 1122 5328 L
7374 5328 mt 7310 5328 L
%%IncludeResource: font Helvetica
/Helvetica /ISOLatin1Encoding 240 FMSR

 891 5417 mt 
(0) s
1059 4352 mt 1122 4352 L
7374 4352 mt 7310 4352 L
 691 4441 mt 
(0.2) s
1059 3376 mt 1122 3376 L
7374 3376 mt 7310 3376 L
 691 3465 mt 
(0.4) s
1059 2400 mt 1122 2400 L
7374 2400 mt 7310 2400 L
 691 2489 mt 
(0.6) s
1059 1424 mt 1122 1424 L
7374 1424 mt 7310 1424 L
 691 1513 mt 
(0.8) s
1059  449 mt 1122  449 L
7374  449 mt 7310  449 L
 891  538 mt 
(1) s
1059 5328 mt 7374 5328 L
1059  449 mt 7374  449 L
1059 5328 mt 1059  449 L
7374 5328 mt 7374  449 L
gs 1059 449 6316 4880 rc
24 w
/c8 { 0.000000 0.000000 1.000000 sr} bdef
c8
790 0 789 0 790 0 789 0 789 0 790 0 789 0 789 -4 
1059 453 9 MP stroke
gr

24 w
c8
gs 913 303 6608 297 rc
  60   60 1059  453 FO
  60   60 1848  449 FO
  60   60 2637  449 FO
  60   60 3427  449 FO
  60   60 4216  449 FO
  60   60 5005  449 FO
  60   60 5795  449 FO
  60   60 6584  449 FO
  60   60 7374  449 FO
gr

gs 1059 449 6316 4880 rc
/c9 { 1.000000 0.000000 0.000000 sr} bdef
c9
790 0 789 0 790 0 789 0 789 0 790 0 789 0 789 0 
1059 5328 9 MP stroke
gr

c9
gs 913 5182 6608 293 rc
 999 5328 mt 1119 5328 L
1059 5268 mt 1059 5388 L
1788 5328 mt 1908 5328 L
1848 5268 mt 1848 5388 L
2577 5328 mt 2697 5328 L
2637 5268 mt 2637 5388 L
3367 5328 mt 3487 5328 L
3427 5268 mt 3427 5388 L
4156 5328 mt 4276 5328 L
4216 5268 mt 4216 5388 L
4945 5328 mt 5065 5328 L
5005 5268 mt 5005 5388 L
5735 5328 mt 5855 5328 L
5795 5268 mt 5795 5388 L
6524 5328 mt 6644 5328 L
6584 5268 mt 6584 5388 L
7314 5328 mt 7434 5328 L
7374 5268 mt 7374 5388 L
1017 5286 mt 1101 5370 L
1101 5286 mt 1017 5370 L
1806 5286 mt 1890 5370 L
1890 5286 mt 1806 5370 L
2595 5286 mt 2679 5370 L
2679 5286 mt 2595 5370 L
3385 5286 mt 3469 5370 L
3469 5286 mt 3385 5370 L
4174 5286 mt 4258 5370 L
4258 5286 mt 4174 5370 L
4963 5286 mt 5047 5370 L
5047 5286 mt 4963 5370 L
5753 5286 mt 5837 5370 L
5837 5286 mt 5753 5370 L
6542 5286 mt 6626 5370 L
6626 5286 mt 6542 5370 L
7332 5286 mt 7416 5370 L
7416 5286 mt 7332 5370 L
gr

gs 1059 449 6316 4880 rc
gr

0 sg
%%IncludeResource: font Helvetica
/Helvetica /ISOLatin1Encoding 360 FMSR

3645 5905 mt 
(Budget) s
 555 4440 mt  -90 rotate
(Success probability) s
90 rotate
%%IncludeResource: font Helvetica
/Helvetica /ISOLatin1Encoding 120 FMSR

1042 5371 mt 
( ) s
7358  491 mt 
( ) s
6 w
1 sg
0 558 1272 0 0 -558 5957 1224 4 MP
PP
-1272 0 0 558 1272 0 0 -558 5957 1224 5 MP stroke
4 w
DO
SO
6 w
0 sg
5957 1224 mt 7229 1224 L
5957  666 mt 7229  666 L
5957 1224 mt 5957  666 L
7229 1224 mt 7229  666 L
5957 1224 mt 7229 1224 L
5957 1224 mt 5957  666 L
5957 1224 mt 7229 1224 L
5957  666 mt 7229  666 L
5957 1224 mt 5957  666 L
7229 1224 mt 7229  666 L
%%IncludeResource: font Helvetica
/Helvetica /ISOLatin1Encoding 192 FMSR

6425  884 mt 
(CPT-SR) s
gs 5957 666 1273 559 rc
24 w
c8
360 0 6029 816 2 MP stroke
gr

24 w
c8
  60   60 6209  816 FO
gs 5957 666 1273 559 rc
gr

0 sg
6425 1143 mt 
(SR) s
gs 5957 666 1273 559 rc
c9
360 0 6029 1074 2 MP stroke
gr

c9
6149 1074 mt 6269 1074 L
6209 1014 mt 6209 1134 L
6167 1032 mt 6251 1116 L
6251 1032 mt 6167 1116 L
gs 5957 666 1273 559 rc
6 w
gr

6 w

end %%Color Dict

eplot
%%EndObject

epage
end

showpage

%%Trailer
%%EOF
