%!PS-Adobe-3.0 EPSF-3.0
%%Creator: MATLAB, The MathWorks, Inc. Version 7.14.0.739 (R2012a). Operating System: Darwin 16.6.0 Darwin Kernel Version 16.6.0: Fri Apr 14 16:21:16 PDT 2017; root:xnu-3789.60.24~6/RELEASE_X86_64 x86_64.
%%Title: /Users/ravi/Dropbox/PhD/Research/Complex bandit problems/CPT theory/Simulations/Stoc-FB/FB1.eps
%%CreationDate: 07/05/2017  15:38:16
%%DocumentNeededFonts: Helvetica
%%DocumentProcessColors: Cyan Magenta Yellow Black
%%LanguageLevel: 2
%%Pages: 1
%%BoundingBox:  -103   107   715   685
%%EndComments

%%BeginProlog
% MathWorks dictionary
/MathWorks 160 dict begin
% definition operators
/bdef {bind def} bind def
/ldef {load def} bind def
/xdef {exch def} bdef
/xstore {exch store} bdef
% operator abbreviations
/c  /clip ldef
/cc /concat ldef
/cp /closepath ldef
/gr /grestore ldef
/gs /gsave ldef
/mt /moveto ldef
/np /newpath ldef
/cm /currentmatrix ldef
/sm /setmatrix ldef
/rm /rmoveto ldef
/rl /rlineto ldef
/s {show newpath} bdef
/sc {setcmykcolor} bdef
/sr /setrgbcolor ldef
/sg /setgray ldef
/w /setlinewidth ldef
/j /setlinejoin ldef
/cap /setlinecap ldef
/rc {rectclip} bdef
/rf {rectfill} bdef
% page state control
/pgsv () def
/bpage {/pgsv save def} bdef
/epage {pgsv restore} bdef
/bplot /gsave ldef
/eplot {stroke grestore} bdef
% orientation switch
/portraitMode 0 def /landscapeMode 1 def /rotateMode 2 def
% coordinate system mappings
/dpi2point 0 def
% font control
/FontSize 0 def
/FMS {/FontSize xstore findfont [FontSize 0 0 FontSize neg 0 0]
  makefont setfont} bdef
/reencode {exch dup where {pop load} {pop StandardEncoding} ifelse
  exch dup 3 1 roll findfont dup length dict begin
  { 1 index /FID ne {def}{pop pop} ifelse } forall
  /Encoding exch def currentdict end definefont pop} bdef
/isroman {findfont /CharStrings get /Agrave known} bdef
/FMSR {3 1 roll 1 index dup isroman {reencode} {pop pop} ifelse
  exch FMS} bdef
/csm {1 dpi2point div -1 dpi2point div scale neg translate
 dup landscapeMode eq {pop -90 rotate}
  {rotateMode eq {90 rotate} if} ifelse} bdef
% line types: solid, dotted, dashed, dotdash
/SO { [] 0 setdash } bdef
/DO { [.5 dpi2point mul 4 dpi2point mul] 0 setdash } bdef
/DA { [6 dpi2point mul] 0 setdash } bdef
/DD { [.5 dpi2point mul 4 dpi2point mul 6 dpi2point mul 4
  dpi2point mul] 0 setdash } bdef
% macros for lines and objects
/L {lineto stroke} bdef
/MP {3 1 roll moveto 1 sub {rlineto} repeat} bdef
/AP {{rlineto} repeat} bdef
/PDlw -1 def
/W {/PDlw currentlinewidth def setlinewidth} def
/PP {closepath eofill} bdef
/DP {closepath stroke} bdef
/MR {4 -2 roll moveto dup  0 exch rlineto exch 0 rlineto
  neg 0 exch rlineto closepath} bdef
/FR {MR stroke} bdef
/PR {MR fill} bdef
/L1i {{currentfile picstr readhexstring pop} image} bdef
/tMatrix matrix def
/MakeOval {newpath tMatrix currentmatrix pop translate scale
0 0 1 0 360 arc tMatrix setmatrix} bdef
/FO {MakeOval stroke} bdef
/PO {MakeOval fill} bdef
/PD {currentlinewidth 2 div 0 360 arc fill
   PDlw -1 eq not {PDlw w /PDlw -1 def} if} def
/FA {newpath tMatrix currentmatrix pop translate scale
  0 0 1 5 -2 roll arc tMatrix setmatrix stroke} bdef
/PA {newpath tMatrix currentmatrix pop	translate 0 0 moveto scale
  0 0 1 5 -2 roll arc closepath tMatrix setmatrix fill} bdef
/FAn {newpath tMatrix currentmatrix pop translate scale
  0 0 1 5 -2 roll arcn tMatrix setmatrix stroke} bdef
/PAn {newpath tMatrix currentmatrix pop translate 0 0 moveto scale
  0 0 1 5 -2 roll arcn closepath tMatrix setmatrix fill} bdef
/vradius 0 def /hradius 0 def /lry 0 def
/lrx 0 def /uly 0 def /ulx 0 def /rad 0 def
/MRR {/vradius xdef /hradius xdef /lry xdef /lrx xdef /uly xdef
  /ulx xdef newpath tMatrix currentmatrix pop ulx hradius add uly
  vradius add translate hradius vradius scale 0 0 1 180 270 arc 
  tMatrix setmatrix lrx hradius sub uly vradius add translate
  hradius vradius scale 0 0 1 270 360 arc tMatrix setmatrix
  lrx hradius sub lry vradius sub translate hradius vradius scale
  0 0 1 0 90 arc tMatrix setmatrix ulx hradius add lry vradius sub
  translate hradius vradius scale 0 0 1 90 180 arc tMatrix setmatrix
  closepath} bdef
/FRR {MRR stroke } bdef
/PRR {MRR fill } bdef
/MlrRR {/lry xdef /lrx xdef /uly xdef /ulx xdef /rad lry uly sub 2 div def
  newpath tMatrix currentmatrix pop ulx rad add uly rad add translate
  rad rad scale 0 0 1 90 270 arc tMatrix setmatrix lrx rad sub lry rad
  sub translate rad rad scale 0 0 1 270 90 arc tMatrix setmatrix
  closepath} bdef
/FlrRR {MlrRR stroke } bdef
/PlrRR {MlrRR fill } bdef
/MtbRR {/lry xdef /lrx xdef /uly xdef /ulx xdef /rad lrx ulx sub 2 div def
  newpath tMatrix currentmatrix pop ulx rad add uly rad add translate
  rad rad scale 0 0 1 180 360 arc tMatrix setmatrix lrx rad sub lry rad
  sub translate rad rad scale 0 0 1 0 180 arc tMatrix setmatrix
  closepath} bdef
/FtbRR {MtbRR stroke } bdef
/PtbRR {MtbRR fill } bdef
/stri 6 array def /dtri 6 array def
/smat 6 array def /dmat 6 array def
/tmat1 6 array def /tmat2 6 array def /dif 3 array def
/asub {/ind2 exch def /ind1 exch def dup dup
  ind1 get exch ind2 get sub exch } bdef
/tri_to_matrix {
  2 0 asub 3 1 asub 4 0 asub 5 1 asub
  dup 0 get exch 1 get 7 -1 roll astore } bdef
/compute_transform {
  dmat dtri tri_to_matrix tmat1 invertmatrix 
  smat stri tri_to_matrix tmat2 concatmatrix } bdef
/ds {stri astore pop} bdef
/dt {dtri astore pop} bdef
/db {2 copy /cols xdef /rows xdef mul dup 3 mul string
  currentfile 
  3 index 0 eq {/ASCIIHexDecode filter}
  {/ASCII85Decode filter 3 index 2 eq {/RunLengthDecode filter} if }
  ifelse exch readstring pop
  dup 0 3 index getinterval /rbmap xdef
  dup 2 index dup getinterval /gbmap xdef
  1 index dup 2 mul exch getinterval /bbmap xdef pop pop}bdef
/it {gs np dtri aload pop moveto lineto lineto cp c
  cols rows 8 compute_transform 
  rbmap gbmap bbmap true 3 colorimage gr}bdef
/il {newpath moveto lineto stroke}bdef
currentdict end def
%%EndProlog

%%BeginSetup
MathWorks begin

0 cap

end
%%EndSetup

%%Page: 1 1
%%BeginPageSetup
%%PageBoundingBox:  -103   107   715   685
MathWorks begin
bpage
%%EndPageSetup

%%BeginObject: obj1
bplot

/dpi2point 12 def
portraitMode -1236 8220 csm

    0     0  9816  6925 rc
85 dict begin %Colortable dictionary
/c0 { 0.000000 0.000000 0.000000 sr} bdef
/c1 { 1.000000 1.000000 1.000000 sr} bdef
/c2 { 0.900000 0.000000 0.000000 sr} bdef
/c3 { 0.000000 0.820000 0.000000 sr} bdef
/c4 { 0.000000 0.000000 0.800000 sr} bdef
/c5 { 0.910000 0.820000 0.320000 sr} bdef
/c6 { 1.000000 0.260000 0.820000 sr} bdef
/c7 { 0.000000 0.820000 0.820000 sr} bdef
c0
1 j
1 sg
   0    0 9817 6926 rf
6 w
0 5644 7607 0 0 -5644 1276 6163 4 MP
PP
-7607 0 0 5644 7607 0 0 -5644 1276 6163 5 MP stroke
4 w
DO
SO
6 w
0 sg
1276 6163 mt 8883 6163 L
1276  519 mt 8883  519 L
1276 6163 mt 1276  519 L
8883 6163 mt 8883  519 L
1276 6163 mt 8883 6163 L
1276 6163 mt 1276  519 L
1276 6163 mt 1276 6086 L
1276  519 mt 1276  595 L
%%IncludeResource: font Helvetica
/Helvetica /ISOLatin1Encoding 168 FMSR

1230 6353 mt 
(1) s
2226 6163 mt 2226 6086 L
2226  519 mt 2226  595 L
2110 6353 mt 
(1.5) s
3177 6163 mt 3177 6086 L
3177  519 mt 3177  595 L
3131 6353 mt 
(2) s
4128 6163 mt 4128 6086 L
4128  519 mt 4128  595 L
4012 6353 mt 
(2.5) s
5079 6163 mt 5079 6086 L
5079  519 mt 5079  595 L
5033 6353 mt 
(3) s
6030 6163 mt 6030 6086 L
6030  519 mt 6030  595 L
5914 6353 mt 
(3.5) s
6981 6163 mt 6981 6086 L
6981  519 mt 6981  595 L
6935 6353 mt 
(4) s
7932 6163 mt 7932 6086 L
7932  519 mt 7932  595 L
7816 6353 mt 
(4.5) s
8883 6163 mt 8883 6086 L
8883  519 mt 8883  595 L
8837 6353 mt 
(5) s
8504 6615 mt 
(x 10) s
%%IncludeResource: font Helvetica
/Helvetica /ISOLatin1Encoding 112 FMSR

8821 6511 mt 
(4) s
1276 6163 mt 1352 6163 L
8883 6163 mt 8806 6163 L
%%IncludeResource: font Helvetica
/Helvetica /ISOLatin1Encoding 168 FMSR

1148 6225 mt 
(0) s
1276 5598 mt 1352 5598 L
8883 5598 mt 8806 5598 L
1008 5660 mt 
(0.1) s
1276 5034 mt 1352 5034 L
8883 5034 mt 8806 5034 L
1008 5096 mt 
(0.2) s
1276 4469 mt 1352 4469 L
8883 4469 mt 8806 4469 L
1008 4531 mt 
(0.3) s
1276 3905 mt 1352 3905 L
8883 3905 mt 8806 3905 L
1008 3967 mt 
(0.4) s
1276 3341 mt 1352 3341 L
8883 3341 mt 8806 3341 L
1008 3403 mt 
(0.5) s
1276 2776 mt 1352 2776 L
8883 2776 mt 8806 2776 L
1008 2838 mt 
(0.6) s
1276 2212 mt 1352 2212 L
8883 2212 mt 8806 2212 L
1008 2274 mt 
(0.7) s
1276 1647 mt 1352 1647 L
8883 1647 mt 8806 1647 L
1008 1709 mt 
(0.8) s
1276 1083 mt 1352 1083 L
8883 1083 mt 8806 1083 L
1008 1145 mt 
(0.9) s
1276  519 mt 1352  519 L
8883  519 mt 8806  519 L
1148  581 mt 
(1) s
1276 6163 mt 8883 6163 L
1276  519 mt 8883  519 L
1276 6163 mt 1276  519 L
8883 6163 mt 8883  519 L
gs 1276 519 7608 5645 rc
24 w
/c8 { 0.000000 0.000000 1.000000 sr} bdef
c8
951 0 951 0 951 0 951 0 951 0 951 0 951 0 950 -5 
1276 524 9 MP stroke
gr

24 w
c8
gs 1130 373 7900 298 rc
  60   60 1276  524 FO
  60   60 2226  519 FO
  60   60 3177  519 FO
  60   60 4128  519 FO
  60   60 5079  519 FO
  60   60 6030  519 FO
  60   60 6981  519 FO
  60   60 7932  519 FO
  60   60 8883  519 FO
gr

gs 1276 519 7608 5645 rc
/c9 { 1.000000 0.000000 0.000000 sr} bdef
c9
951 0 951 0 951 0 951 0 951 0 951 0 951 0 950 0 
1276 6163 9 MP stroke
gr

c9
gs 1130 6017 7900 293 rc
1216 6163 mt 1336 6163 L
1276 6103 mt 1276 6223 L
2166 6163 mt 2286 6163 L
2226 6103 mt 2226 6223 L
3117 6163 mt 3237 6163 L
3177 6103 mt 3177 6223 L
4068 6163 mt 4188 6163 L
4128 6103 mt 4128 6223 L
5019 6163 mt 5139 6163 L
5079 6103 mt 5079 6223 L
5970 6163 mt 6090 6163 L
6030 6103 mt 6030 6223 L
6921 6163 mt 7041 6163 L
6981 6103 mt 6981 6223 L
7872 6163 mt 7992 6163 L
7932 6103 mt 7932 6223 L
8823 6163 mt 8943 6163 L
8883 6103 mt 8883 6223 L
1234 6121 mt 1318 6205 L
1318 6121 mt 1234 6205 L
2184 6121 mt 2268 6205 L
2268 6121 mt 2184 6205 L
3135 6121 mt 3219 6205 L
3219 6121 mt 3135 6205 L
4086 6121 mt 4170 6205 L
4170 6121 mt 4086 6205 L
5037 6121 mt 5121 6205 L
5121 6121 mt 5037 6205 L
5988 6121 mt 6072 6205 L
6072 6121 mt 5988 6205 L
6939 6121 mt 7023 6205 L
7023 6121 mt 6939 6205 L
7890 6121 mt 7974 6205 L
7974 6121 mt 7890 6205 L
8841 6121 mt 8925 6205 L
8925 6121 mt 8841 6205 L
gr

gs 1276 519 7608 5645 rc
gr

0 sg
%%IncludeResource: font Helvetica
/Helvetica /ISOLatin1Encoding 240 FMSR

4671 6639 mt 
(Budget) s
 940 4398 mt  -90 rotate
(Success probability) s
90 rotate
%%IncludeResource: font Helvetica
/Helvetica /ISOLatin1Encoding 120 FMSR

1259 6206 mt 
( ) s
8867  561 mt 
( ) s
6 w
1 sg
0 558 1272 0 0 -558 7306 1371 4 MP
PP
-1272 0 0 558 1272 0 0 -558 7306 1371 5 MP stroke
4 w
DO
SO
6 w
0 sg
7306 1371 mt 8578 1371 L
7306  813 mt 8578  813 L
7306 1371 mt 7306  813 L
8578 1371 mt 8578  813 L
7306 1371 mt 8578 1371 L
7306 1371 mt 7306  813 L
7306 1371 mt 8578 1371 L
7306  813 mt 8578  813 L
7306 1371 mt 7306  813 L
8578 1371 mt 8578  813 L
%%IncludeResource: font Helvetica
/Helvetica /ISOLatin1Encoding 192 FMSR

7774 1031 mt 
(CPT-SR) s
gs 7306 813 1273 559 rc
24 w
c8
360 0 7378 963 2 MP stroke
gr

24 w
c8
  60   60 7558  963 FO
gs 7306 813 1273 559 rc
gr

0 sg
7774 1290 mt 
(SR) s
gs 7306 813 1273 559 rc
c9
360 0 7378 1221 2 MP stroke
gr

c9
7498 1221 mt 7618 1221 L
7558 1161 mt 7558 1281 L
7516 1179 mt 7600 1263 L
7600 1179 mt 7516 1263 L
gs 7306 813 1273 559 rc
6 w
gr

6 w

end %%Color Dict

eplot
%%EndObject

epage
end

showpage

%%Trailer
%%EOF
