%!PS-Adobe-3.0 EPSF-3.0
%%Creator: MATLAB, The MathWorks, Inc. Version 7.14.0.739 (R2012a). Operating System: Darwin 16.7.0 Darwin Kernel Version 16.7.0: Thu Jun 15 17:36:27 PDT 2017; root:xnu-3789.70.16~2/RELEASE_X86_64 x86_64.
%%Title: /Users/ravi/Dropbox/Ravi-matlab/Setting-1/FC3.eps
%%CreationDate: 09/25/2017  18:48:29
%%DocumentNeededFonts: Helvetica
%%DocumentProcessColors: Cyan Magenta Yellow Black
%%LanguageLevel: 2
%%Pages: 1
%%BoundingBox:    -7   245   603   595
%%EndComments

%%BeginProlog
% MathWorks dictionary
/MathWorks 160 dict begin
% definition operators
/bdef {bind def} bind def
/ldef {load def} bind def
/xdef {exch def} bdef
/xstore {exch store} bdef
% operator abbreviations
/c  /clip ldef
/cc /concat ldef
/cp /closepath ldef
/gr /grestore ldef
/gs /gsave ldef
/mt /moveto ldef
/np /newpath ldef
/cm /currentmatrix ldef
/sm /setmatrix ldef
/rm /rmoveto ldef
/rl /rlineto ldef
/s {show newpath} bdef
/sc {setcmykcolor} bdef
/sr /setrgbcolor ldef
/sg /setgray ldef
/w /setlinewidth ldef
/j /setlinejoin ldef
/cap /setlinecap ldef
/rc {rectclip} bdef
/rf {rectfill} bdef
% page state control
/pgsv () def
/bpage {/pgsv save def} bdef
/epage {pgsv restore} bdef
/bplot /gsave ldef
/eplot {stroke grestore} bdef
% orientation switch
/portraitMode 0 def /landscapeMode 1 def /rotateMode 2 def
% coordinate system mappings
/dpi2point 0 def
% font control
/FontSize 0 def
/FMS {/FontSize xstore findfont [FontSize 0 0 FontSize neg 0 0]
  makefont setfont} bdef
/reencode {exch dup where {pop load} {pop StandardEncoding} ifelse
  exch dup 3 1 roll findfont dup length dict begin
  { 1 index /FID ne {def}{pop pop} ifelse } forall
  /Encoding exch def currentdict end definefont pop} bdef
/isroman {findfont /CharStrings get /Agrave known} bdef
/FMSR {3 1 roll 1 index dup isroman {reencode} {pop pop} ifelse
  exch FMS} bdef
/csm {1 dpi2point div -1 dpi2point div scale neg translate
 dup landscapeMode eq {pop -90 rotate}
  {rotateMode eq {90 rotate} if} ifelse} bdef
% line types: solid, dotted, dashed, dotdash
/SO { [] 0 setdash } bdef
/DO { [.5 dpi2point mul 4 dpi2point mul] 0 setdash } bdef
/DA { [6 dpi2point mul] 0 setdash } bdef
/DD { [.5 dpi2point mul 4 dpi2point mul 6 dpi2point mul 4
  dpi2point mul] 0 setdash } bdef
% macros for lines and objects
/L {lineto stroke} bdef
/MP {3 1 roll moveto 1 sub {rlineto} repeat} bdef
/AP {{rlineto} repeat} bdef
/PDlw -1 def
/W {/PDlw currentlinewidth def setlinewidth} def
/PP {closepath eofill} bdef
/DP {closepath stroke} bdef
/MR {4 -2 roll moveto dup  0 exch rlineto exch 0 rlineto
  neg 0 exch rlineto closepath} bdef
/FR {MR stroke} bdef
/PR {MR fill} bdef
/L1i {{currentfile picstr readhexstring pop} image} bdef
/tMatrix matrix def
/MakeOval {newpath tMatrix currentmatrix pop translate scale
0 0 1 0 360 arc tMatrix setmatrix} bdef
/FO {MakeOval stroke} bdef
/PO {MakeOval fill} bdef
/PD {currentlinewidth 2 div 0 360 arc fill
   PDlw -1 eq not {PDlw w /PDlw -1 def} if} def
/FA {newpath tMatrix currentmatrix pop translate scale
  0 0 1 5 -2 roll arc tMatrix setmatrix stroke} bdef
/PA {newpath tMatrix currentmatrix pop	translate 0 0 moveto scale
  0 0 1 5 -2 roll arc closepath tMatrix setmatrix fill} bdef
/FAn {newpath tMatrix currentmatrix pop translate scale
  0 0 1 5 -2 roll arcn tMatrix setmatrix stroke} bdef
/PAn {newpath tMatrix currentmatrix pop translate 0 0 moveto scale
  0 0 1 5 -2 roll arcn closepath tMatrix setmatrix fill} bdef
/vradius 0 def /hradius 0 def /lry 0 def
/lrx 0 def /uly 0 def /ulx 0 def /rad 0 def
/MRR {/vradius xdef /hradius xdef /lry xdef /lrx xdef /uly xdef
  /ulx xdef newpath tMatrix currentmatrix pop ulx hradius add uly
  vradius add translate hradius vradius scale 0 0 1 180 270 arc 
  tMatrix setmatrix lrx hradius sub uly vradius add translate
  hradius vradius scale 0 0 1 270 360 arc tMatrix setmatrix
  lrx hradius sub lry vradius sub translate hradius vradius scale
  0 0 1 0 90 arc tMatrix setmatrix ulx hradius add lry vradius sub
  translate hradius vradius scale 0 0 1 90 180 arc tMatrix setmatrix
  closepath} bdef
/FRR {MRR stroke } bdef
/PRR {MRR fill } bdef
/MlrRR {/lry xdef /lrx xdef /uly xdef /ulx xdef /rad lry uly sub 2 div def
  newpath tMatrix currentmatrix pop ulx rad add uly rad add translate
  rad rad scale 0 0 1 90 270 arc tMatrix setmatrix lrx rad sub lry rad
  sub translate rad rad scale 0 0 1 270 90 arc tMatrix setmatrix
  closepath} bdef
/FlrRR {MlrRR stroke } bdef
/PlrRR {MlrRR fill } bdef
/MtbRR {/lry xdef /lrx xdef /uly xdef /ulx xdef /rad lrx ulx sub 2 div def
  newpath tMatrix currentmatrix pop ulx rad add uly rad add translate
  rad rad scale 0 0 1 180 360 arc tMatrix setmatrix lrx rad sub lry rad
  sub translate rad rad scale 0 0 1 0 180 arc tMatrix setmatrix
  closepath} bdef
/FtbRR {MtbRR stroke } bdef
/PtbRR {MtbRR fill } bdef
/stri 6 array def /dtri 6 array def
/smat 6 array def /dmat 6 array def
/tmat1 6 array def /tmat2 6 array def /dif 3 array def
/asub {/ind2 exch def /ind1 exch def dup dup
  ind1 get exch ind2 get sub exch } bdef
/tri_to_matrix {
  2 0 asub 3 1 asub 4 0 asub 5 1 asub
  dup 0 get exch 1 get 7 -1 roll astore } bdef
/compute_transform {
  dmat dtri tri_to_matrix tmat1 invertmatrix 
  smat stri tri_to_matrix tmat2 concatmatrix } bdef
/ds {stri astore pop} bdef
/dt {dtri astore pop} bdef
/db {2 copy /cols xdef /rows xdef mul dup 3 mul string
  currentfile 
  3 index 0 eq {/ASCIIHexDecode filter}
  {/ASCII85Decode filter 3 index 2 eq {/RunLengthDecode filter} if }
  ifelse exch readstring pop
  dup 0 3 index getinterval /rbmap xdef
  dup 2 index dup getinterval /gbmap xdef
  1 index dup 2 mul exch getinterval /bbmap xdef pop pop}bdef
/it {gs np dtri aload pop moveto lineto lineto cp c
  cols rows 8 compute_transform 
  rbmap gbmap bbmap true 3 colorimage gr}bdef
/il {newpath moveto lineto stroke}bdef
currentdict end def
%%EndProlog

%%BeginSetup
MathWorks begin

0 cap

end
%%EndSetup

%%Page: 1 1
%%BeginPageSetup
%%PageBoundingBox:    -7   245   603   595
MathWorks begin
bpage
%%EndPageSetup

%%BeginObject: obj1
bplot

/dpi2point 12 def
portraitMode -0084 7140 csm

    0     0  7323  4192 rc
86 dict begin %Colortable dictionary
/c0 { 0.000000 0.000000 0.000000 sr} bdef
/c1 { 1.000000 1.000000 1.000000 sr} bdef
/c2 { 0.900000 0.000000 0.000000 sr} bdef
/c3 { 0.000000 0.820000 0.000000 sr} bdef
/c4 { 0.000000 0.000000 0.800000 sr} bdef
/c5 { 0.910000 0.820000 0.320000 sr} bdef
/c6 { 1.000000 0.260000 0.820000 sr} bdef
/c7 { 0.000000 0.820000 0.820000 sr} bdef
c0
1 j
1 sg
   0    0 7324 4193 rf
6 w
0 3270 5675 0 0 -3270 952 3584 4 MP
PP
-5675 0 0 3270 5675 0 0 -3270 952 3584 5 MP stroke
4 w
DO
0 sg
 952 3584 mt  952  314 L
 952  314 mt  952  314 L
2370 3584 mt 2370  314 L
2370  314 mt 2370  314 L
3789 3584 mt 3789  314 L
3789  314 mt 3789  314 L
5208 3584 mt 5208  314 L
5208  314 mt 5208  314 L
6627 3584 mt 6627  314 L
6627  314 mt 6627  314 L
 952 3584 mt 6627 3584 L
6627 3584 mt 6627 3584 L
 952 2930 mt 6627 2930 L
6627 2930 mt 6627 2930 L
 952 2276 mt 6627 2276 L
6627 2276 mt 6627 2276 L
 952 1621 mt 6627 1621 L
6627 1621 mt 6627 1621 L
 952  968 mt 6627  968 L
6627  968 mt 6627  968 L
 952  314 mt 6627  314 L
6627  314 mt 6627  314 L
SO
6 w
 952 3584 mt 6627 3584 L
 952  314 mt 6627  314 L
 952 3584 mt  952  314 L
6627 3584 mt 6627  314 L
 952 3584 mt 6627 3584 L
 952 3584 mt  952  314 L
 952 3584 mt  952 3527 L
 952  314 mt  952  370 L
%%IncludeResource: font Helvetica
/Helvetica /ISOLatin1Encoding 240 FMSR

 786 3841 mt 
(1.5) s
2370 3584 mt 2370 3527 L
2370  314 mt 2370  370 L
2304 3841 mt 
(2) s
3789 3584 mt 3789 3527 L
3789  314 mt 3789  370 L
3623 3841 mt 
(2.5) s
5208 3584 mt 5208 3527 L
5208  314 mt 5208  370 L
5142 3841 mt 
(3) s
6627 3584 mt 6627 3527 L
6627  314 mt 6627  370 L
6461 3841 mt 
(3.5) s
6086 4191 mt 
(x 10) s
%%IncludeResource: font Helvetica
/Helvetica /ISOLatin1Encoding 160 FMSR

6539 4043 mt 
(5) s
 952 3584 mt 1008 3584 L
6627 3584 mt 6570 3584 L
%%IncludeResource: font Helvetica
/Helvetica /ISOLatin1Encoding 240 FMSR

 784 3673 mt 
(0) s
 952 2930 mt 1008 2930 L
6627 2930 mt 6570 2930 L
 584 3019 mt 
(0.2) s
 952 2276 mt 1008 2276 L
6627 2276 mt 6570 2276 L
 584 2365 mt 
(0.4) s
 952 1621 mt 1008 1621 L
6627 1621 mt 6570 1621 L
 584 1710 mt 
(0.6) s
 952  968 mt 1008  968 L
6627  968 mt 6570  968 L
 584 1057 mt 
(0.8) s
 952  314 mt 1008  314 L
6627  314 mt 6570  314 L
 784  403 mt 
(1) s
 952 3584 mt 6627 3584 L
 952  314 mt 6627  314 L
 952 3584 mt  952  314 L
6627 3584 mt 6627  314 L
gs 952 314 5676 3271 rc
gr

/c8 { 0.000000 0.000000 1.000000 sr} bdef
c8
4754 3194 mt 4880 3320 L
4880 3194 mt 4754 3320 L
4819 3357 mt 4945 3483 L
4945 3357 mt 4819 3483 L
5113 3488 mt 5239 3614 L
5239 3488 mt 5113 3614 L
5493 3517 mt 5619 3643 L
5619 3517 mt 5493 3643 L
5809 3520 mt 5935 3646 L
5935 3520 mt 5809 3646 L
6199 3520 mt 6325 3646 L
6325 3520 mt 6199 3646 L
gs 952 314 5676 3271 rc
gr

 120  120 4817  314 FO
 120  120 4882  314 FO
 120  120 5176  314 FO
 120  120 5556  314 FO
 120  120 5872  314 FO
 120  120 6262  314 FO
gs 952 314 5676 3271 rc
gr

0 sg
 925 3194 mt 1051 3320 L
1051 3194 mt  925 3320 L
1019 3357 mt 1145 3483 L
1145 3357 mt 1019 3483 L
1190 3488 mt 1316 3614 L
1316 3488 mt 1190 3614 L
1381 3517 mt 1507 3643 L
1507 3517 mt 1381 3643 L
1611 3520 mt 1737 3646 L
1737 3520 mt 1611 3646 L
1771 3520 mt 1897 3646 L
1897 3520 mt 1771 3646 L
gs 952 314 5676 3271 rc
gr

 120  120  988 3584 FO
 120  120 1082 3584 FO
 120  120 1253 3584 FO
 120  120 1444 3584 FO
 120  120 1674 3584 FO
 120  120 1834 3584 FO
gs 952 314 5676 3271 rc
gr

0.15 sg
2288 4119 mt 
(expected sample complexity) s
 475 3210 mt  -90 rotate
(conf./emp. prob. of error) s
90 rotate
0 sg
%%IncludeResource: font Helvetica
/Helvetica /ISOLatin1Encoding 120 FMSR

 935 3627 mt 
( ) s
6611  356 mt 
( ) s
1 sg
0 1314 4248 0 0 -1314 2329 1883 4 MP
PP
-4248 0 0 1314 4248 0 0 -1314 2329 1883 5 MP stroke
4 w
DO
SO
6 w
0.15 sg
2329 1883 mt 6577 1883 L
2329  569 mt 6577  569 L
2329 1883 mt 2329  569 L
6577 1883 mt 6577  569 L
2329 1883 mt 6577 1883 L
2329 1883 mt 2329  569 L
2329 1883 mt 6577 1883 L
2329  569 mt 6577  569 L
2329 1883 mt 2329  569 L
6577 1883 mt 6577  569 L
0 sg
%%IncludeResource: font Helvetica
/Helvetica /ISOLatin1Encoding 240 FMSR

2797  834 mt 
(confidence for lucb) s
gs 2329 569 4249 1315 rc
gr

gs 2400 568 363 363 rc
c8
2518  686 mt 2644  812 L
2644  686 mt 2518  812 L
gr

c8
gs 2329 569 4249 1315 rc
gr

0 sg
2797 1152 mt 
(empirical prob. of error for lucb) s
gs 2329 569 4249 1315 rc
gs 2340 826 483 483 rc
c8
 120  120 2581 1067 FO
gr

c8
gr

c8
0 sg
2797 1471 mt 
(confidence for cpt-lucb) s
gs 2329 569 4249 1315 rc
gs 2400 1204 363 363 rc
2518 1322 mt 2644 1448 L
2644 1322 mt 2518 1448 L
gr

gr

2797 1789 mt 
(empirical prob. of error for cpt-lucb) s
gs 2329 569 4249 1315 rc
gr

gs 2340 1462 483 483 rc
 120  120 2581 1703 FO
gr

gs 2329 569 4249 1315 rc
gr


end %%Color Dict

eplot
%%EndObject

epage
end

showpage

%%Trailer
%%EOF
